{
    "namespace" : "MSQ",
    "language"  : "fi",
    "locale"    : "FI",
    "direction" : "ltr",
    "resources" : {
        "DISPLAY_NAME"       : "MIGREENIÄ KÄSITTELEVÄ ELÄMÄNLAATUKYSELY",
        "MSQ_9211_Q0_TEXT"   : "Ole hyvä ja täytä oheinen kyselylomake. Se auttaa meitä ymmärtämään, miten migreeni vaikuttaa päivittäisiin toimiisi.<br>Kyselylomake on suunniteltu helposti ja nopeasti täytettäväksi.<br>Kiitos osallistumisestasi.<br><br>Kyselylomakkeen yhteystiedot ja käyttölupa: Mapi Research Trust, Lyon, Ranska. Internet: https://eprovide.mapi-trust.org",
        "MSQ_9211_Q0_TITLE"  : "",
        "MSQ_9212_Q0_TEXT"   : "Kun vastaat seuraaviin kysymyksiin, mieti KAIKKIA MIGREENIKOHTAUKSIA, jotka sinulla on mahdollisesti ollut VIIMEISTEN 4 VIIKON AIKANA.",
        "MSQ_9212_Q0_TITLE"  : "",
        "MSQ_9213_Q0_TEXT"   : "Kuinka usein VIIMEISTEN 4 VIIKON AIKANA migreeni on HÄIRINNYT suhdettasi perheeseen, ystäviin ja muihin läheisiin?",
        "MSQ_9213_Q0_TITLE"  : "",
        "MSQ_9214_Q0_TEXT"   : "Kuinka usein VIIMEISTEN 4 VIIKON AIKANA migreeni on HÄIRINNYT vapaa-ajan harrastuksiasi, esimerkiksi lukemista tai liikuntaa?",
        "MSQ_9214_Q0_TITLE"  : "",
        "MSQ_9215_Q0_TEXT"   : "Kuinka usein VIIMEISTEN 4 VIIKON AIKANA sinun on ollut VAIKEA työskennellä tai hoitaa päivittäisiä toimiasi migreenisi vuoksi?",
        "MSQ_9215_Q0_TITLE"  : "",
        "MSQ_9216_Q0_TEXT"   : "Kuinka usein VIIMEISTEN 4 VIIKON AIKANA migreeni on ESTÄNYT sinua saamasta aikaan yhtä paljon kuin tavallisesti töissä tai kotona?",
        "MSQ_9216_Q0_TITLE"  : "",
        "MSQ_9217_Q0_TEXT"   : "Kuinka usein VIIMEISTEN 4 VIIKON AIKANA migreeni on RAJOITTANUT kykyäsi keskittyä työhösi tai päivittäisiin toimiisi?",
        "MSQ_9217_Q0_TITLE"  : "",
        "MSQ_9218_Q0_TEXT"   : "Kuinka usein VIIMEISTEN 4 VIIKON AIKANA olet ollut migreenin vuoksi LIIAN VÄSYNYT työskentelemään tai hoitamaan päivittäisiä toimiasi?",
        "MSQ_9218_Q0_TITLE"  : "",
        "MSQ_9219_Q0_TEXT"   : "Kuinka usein VIIMEISTEN 4 VIIKON AIKANA olet TUNTENUT itsesi vähemmän energiseksi migreenisi vuoksi?",
        "MSQ_9219_Q0_TITLE"  : "",
        "MSQ_92110_Q0_TEXT"  : "Kuinka usein VIIMEISTEN 4 VIIKON AIKANA olet joutunut PERUUTTAMAAN työtehtäviä tai päivittäisiä toimiasi migreenisi vuoksi?",
        "MSQ_92110_Q0_TITLE" : "",
        "MSQ_92111_Q0_TEXT"  : "Kuinka usein VIIMEISTEN 4 VIIKON AIKANA olet TARVINNUT APUA rutiinitehtävistä selviämisessä (kuten kodinhoidossa, talousasioissa, ostosten tekemisessä tai toisista huolehtimisessa), kun sinulla oli migreeni?",
        "MSQ_92111_Q0_TITLE" : "",
        "MSQ_92112_Q0_TEXT"  : "Kuinka usein VIIMEISTEN 4 VIIKON AIKANA olet joutunut KESKEYTTÄMÄÄN työskentelyn tai päivittäiset toimesi yrittääksesi selvitä migreenistä?",
        "MSQ_92112_Q0_TITLE" : "",
        "MSQ_92113_Q0_TEXT"  : "Kuinka usein VIIMEISTEN 4 VIIKON AIKANA sinun on ollut MAHDOTONTA osallistua seuraelämään, kuten juhliin tai illalliselle ystävien kanssa, koska sinulla oli migreeni?",
        "MSQ_92113_Q0_TITLE" : "",
        "MSQ_92114_Q0_TEXT"  : "Kuinka usein VIIMEISTEN 4 VIIKON AIKANA olet TUNTENUT itsesi turhautuneeksi tai tympääntyneeksi migreenisi vuoksi?",
        "MSQ_92114_Q0_TITLE" : "",
        "MSQ_92115_Q0_TEXT"  : "Kuinka usein VIIMEISTEN 4 VIIKON AIKANA sinusta on TUNTUNUT, että olet ollut taakaksi toisille migreenisi vuoksi?",
        "MSQ_92115_Q0_TITLE" : "",
        "MSQ_92116_Q0_TEXT"  : "Kuinka usein VIIMEISTEN 4 VIIKON AIKANA olet PELÄNNYT tuottavasi pettymyksen muille migreenisi vuoksi?",
        "MSQ_92116_Q0_TITLE" : "",
        "MSQ_9213_Q0_W0_A0"  : "Ei kertaakaan",
        "MSQ_9213_Q0_W0_A1"  : "Harvoin",
        "MSQ_9213_Q0_W0_A2"  : "Melko usein",
        "MSQ_9213_Q0_W0_A3"  : "Usein",
        "MSQ_9213_Q0_W0_A4"  : "Melkein jatkuvasti",
        "MSQ_9213_Q0_W0_A5"  : "Jatkuvasti",
        "MSQ_9214_Q0_W0_A0"  : "Ei kertaakaan",
        "MSQ_9214_Q0_W0_A1"  : "Harvoin",
        "MSQ_9214_Q0_W0_A2"  : "Melko usein",
        "MSQ_9214_Q0_W0_A3"  : "Usein",
        "MSQ_9214_Q0_W0_A4"  : "Melkein jatkuvasti",
        "MSQ_9214_Q0_W0_A5"  : "Jatkuvasti",
        "MSQ_9215_Q0_W0_A0"  : "Ei kertaakaan",
        "MSQ_9215_Q0_W0_A1"  : "Harvoin",
        "MSQ_9215_Q0_W0_A2"  : "Melko usein",
        "MSQ_9215_Q0_W0_A3"  : "Usein",
        "MSQ_9215_Q0_W0_A4"  : "Melkein jatkuvasti",
        "MSQ_9215_Q0_W0_A5"  : "Jatkuvasti",
        "MSQ_9216_Q0_W0_A0"  : "Ei kertaakaan",
        "MSQ_9216_Q0_W0_A1"  : "Harvoin",
        "MSQ_9216_Q0_W0_A2"  : "Melko usein",
        "MSQ_9216_Q0_W0_A3"  : "Usein",
        "MSQ_9216_Q0_W0_A4"  : "Melkein jatkuvasti",
        "MSQ_9216_Q0_W0_A5"  : "Jatkuvasti",
        "MSQ_9217_Q0_W0_A0"  : "Ei kertaakaan",
        "MSQ_9217_Q0_W0_A1"  : "Harvoin",
        "MSQ_9217_Q0_W0_A2"  : "Melko usein",
        "MSQ_9217_Q0_W0_A3"  : "Usein",
        "MSQ_9217_Q0_W0_A4"  : "Melkein jatkuvasti",
        "MSQ_9217_Q0_W0_A5"  : "Jatkuvasti",
        "MSQ_9218_Q0_W0_A0"  : "En kertaakaan",
        "MSQ_9218_Q0_W0_A1"  : "Harvoin",
        "MSQ_9218_Q0_W0_A2"  : "Melko usein",
        "MSQ_9218_Q0_W0_A3"  : "Usein",
        "MSQ_9218_Q0_W0_A4"  : "Melkein jatkuvasti",
        "MSQ_9218_Q0_W0_A5"  : "Jatkuvasti",
        "MSQ_9219_Q0_W0_A0"  : "En kertaakaan",
        "MSQ_9219_Q0_W0_A1"  : "Harvoin",
        "MSQ_9219_Q0_W0_A2"  : "Melko usein",
        "MSQ_9219_Q0_W0_A3"  : "Usein",
        "MSQ_9219_Q0_W0_A4"  : "Melkein jatkuvasti",
        "MSQ_9219_Q0_W0_A5"  : "Jatkuvasti",
        "MSQ_92110_Q0_W0_A0" : "En kertaakaan",
        "MSQ_92110_Q0_W0_A1" : "Harvoin",
        "MSQ_92110_Q0_W0_A2" : "Melko usein",
        "MSQ_92110_Q0_W0_A3" : "Usein",
        "MSQ_92110_Q0_W0_A4" : "Melkein jatkuvasti",
        "MSQ_92110_Q0_W0_A5" : "Jatkuvasti",
        "MSQ_92111_Q0_W0_A0" : "En kertaakaan",
        "MSQ_92111_Q0_W0_A1" : "Harvoin",
        "MSQ_92111_Q0_W0_A2" : "Melko usein",
        "MSQ_92111_Q0_W0_A3" : "Usein",
        "MSQ_92111_Q0_W0_A4" : "Melkein jatkuvasti",
        "MSQ_92111_Q0_W0_A5" : "Jatkuvasti",
        "MSQ_92112_Q0_W0_A0" : "En kertaakaan",
        "MSQ_92112_Q0_W0_A1" : "Harvoin",
        "MSQ_92112_Q0_W0_A2" : "Melko usein",
        "MSQ_92112_Q0_W0_A3" : "Usein",
        "MSQ_92112_Q0_W0_A4" : "Melkein jatkuvasti",
        "MSQ_92112_Q0_W0_A5" : "Jatkuvasti",
        "MSQ_92113_Q0_W0_A0" : "Ei kertaakaan",
        "MSQ_92113_Q0_W0_A1" : "Harvoin",
        "MSQ_92113_Q0_W0_A2" : "Melko usein",
        "MSQ_92113_Q0_W0_A3" : "Usein",
        "MSQ_92113_Q0_W0_A4" : "Melkein jatkuvasti",
        "MSQ_92113_Q0_W0_A5" : "Jatkuvasti",
        "MSQ_92114_Q0_W0_A0" : "En kertaakaan",
        "MSQ_92114_Q0_W0_A1" : "Harvoin",
        "MSQ_92114_Q0_W0_A2" : "Melko usein",
        "MSQ_92114_Q0_W0_A3" : "Usein",
        "MSQ_92114_Q0_W0_A4" : "Melkein jatkuvasti",
        "MSQ_92114_Q0_W0_A5" : "Jatkuvasti",
        "MSQ_92115_Q0_W0_A0" : "Ei kertaakaan",
        "MSQ_92115_Q0_W0_A1" : "Harvoin",
        "MSQ_92115_Q0_W0_A2" : "Melko usein",
        "MSQ_92115_Q0_W0_A3" : "Usein",
        "MSQ_92115_Q0_W0_A4" : "Melkein jatkuvasti",
        "MSQ_92115_Q0_W0_A5" : "Jatkuvasti",
        "MSQ_92116_Q0_W0_A0" : "En kertaakaan",
        "MSQ_92116_Q0_W0_A1" : "Harvoin",
        "MSQ_92116_Q0_W0_A2" : "Melko usein",
        "MSQ_92116_Q0_W0_A3" : "Usein",
        "MSQ_92116_Q0_W0_A4" : "Melkein jatkuvasti",
        "MSQ_92116_Q0_W0_A5" : "Jatkuvasti"
    }
}
