{
    "namespace": "CORE",
    "language": "ka",
    "locale": "GE",
    "localized": "ქართული (საქართველო)",
    "direction": "ltr",
    "resources": {
        "ACTIVE": "აქტიური",
        "ACTIVATE_USER": "მომხმარებლის გააქტიურება",
        "ACTIVATE_USER_CANCEL_CONFIRM": "გსურთ გააქტიურების გაუქმება?",
        "ACTIVATE_USER_CANCEL_BODY": "თუ ახლა გააუქმებთ, კვლევის ცენტრის მომხმარებელი არ გააქტიურდება. ნამდვილად გსურთ, გააუქმოთ?",
        "ACTIVATE_USER_AFF": "ქვემოთ ხელის მოწერით მე ვაცხადებ, რომ მაქვს უფლებამოსილება, გავააქტიურო კვლევის ცენტრის ეს მომხმარებელი.",
        "ACTIVATE_USER_CONFIRM_INFORMATION": "გთხოვთ, დაადასტუროთ, რომ ქვემოთ მოცემული ინფორმაცია ეკუთვნის კვლევის ცენტრის იმ მომხმარებელს, რომლის გააქტიურებაც გსურთ.",
        "ADD_PATIENT": "ახალი პაციენტის დამატება",
        "ADD_USER": "მომხმარებლის დამატება",
        "AFFIDAVIT": "აირჩიეთ „კარგი“ და შემდეგ „შემდეგი“, როდესაც თქვენი პასუხების შესანახად მზად იქნებით.",
        "AFFIDAVIT_HELP": "გმადლობთ. თქვენ ყველა აუცილებელი პასუხი შეიყვანეთ. თქვენი პასუხების შემოწმება და შეცვლა შეგიძლიათ ღილაკზე „უკან“ დაწკაპუნებით.",
        "ALL_QUESTIONNAIRES_COMPLETED": "ყველა ფორმა შევსებულია",
        "APP_NAME": "ERT",
        "APPLICATION_HEADER": "{{{ appHeader }}}",
        "APP_NAME_LBL": "აპის სახელწოდება",
        "APP_VERSION": "აპის ვერსია",
        "ASSIGNED_TO": "მიემაგრა:",
        "AVAILABLE": "ხელმისაწვდომი",
        "BACK": "უკან",
        "BACK_OUT_CONFIRM": "დარწმუნებული ხართ, რომ გასვლა გსურთ? ამ ფორმის პასუხები დაიკარგება.",
        "BLUETOOTH_REG_REFRESH_BUTTON": "სიის განახლება",
        "CANCEL": "გაუქმება",
        "CHECK_FOR_UPDATES": "განახლებების შემოწმება",
        "CHOOSE_A_SITE": "ამ მოწყობილობის მიმაგრება კონკრეტულ ცენტრზე.",
        "COMPLETED": "დასრულებული",
        "CONFIRM_PASSWORD": "დაადასტურეთ პაროლი:",
        "CONFIRM_TEMP_PASS": "დაადასტურეთ დროებითი პაროლი:",
        "CONTINUE": "გაგრძელება",
        "COUNTRY": "ქვეყანა",
        "CUSTOM_ENVIRONMENT": "მორგებული გარემო",
        "DEACTIVATE_PATIENT": "პაციენტის დეაქტივაცია",
        "DEACTIVATE_USER": "მომხმარებლის დეაქტივაცია",
        "DEACTIVATED": "დეაქტივირებულია",
        "DEACTIVATE_USER_CANCEL_CONFIRM": "გსურთ დეაქტივაციის გაუქმება?",
        "DEACTIVATE_USER_CANCEL_BODY": "თუ ახლა გააუქმებთ, ცენტრის მომხმარებლის დეაქტივაცია არ მოხდება. ნამდვილად გსურთ, გააუქმოთ?",
        "DEACTIVATE_USER_AFF": "ქვემოთ ხელის მოწერით ვაცხადებ, რომ მაქვს უფლებამოსილება, მოვახდინო ცენტრის ამ მომხმარებლის დეაქტივაცია.",
        "DEACTIVATE_USER_SIG": "<strong>მომხმარებელი დეაქტივაციისთვის:</strong> <br />{{{ getSelectedUsername }}}<p><strong>ხელმომწერი:</strong> {{{ getActiveUserName }}}</p>",
        "DEACTIVATE_USER_CONFIRM_INFORMATION": "გთხოვთ, დაადასტუროთ, რომ ქვემოთ მოცემული ინფორმაცია, ცენტრის იმ მომხმარებელს ეკუთვნის, რომლის დეაქტივაციაც გსურთ.",
        "DEVICE_ID": "მოწყ. ID",
        "DEVICE_REGISTRATION_FAILURE": "მოწყობილობა ვერ დარეგისტრირდა.",
        "DEVICE_UUIID": "მოწყობილობის UUID",
        "BATTERY_LEVEL": "აკუმულატორის დონე",
        "DEVICE_INFO": "მოწყობილობის ინფორმაცია",
        "DIARY_TIMEOUT": "ამ ფორმას ვადა გაუვიდა.",
        "EDIT_MY_INFO": "ჩემი ინფოს რედაქტირება",
        "EDIT_PATIENT": "პაციენტის რედაქტირება",
        "EDIT_PATIENT_QUESTION_1_MAIN_TITLE": "<div class='question-title-large'>პაციენტის იდენტიფიკაციის </div><div>ID დიაპაზონი ამ ცენტრისთვის:<br /><strong> {{{ patientIDRange }}}</strong></div><div class='edit-patient-id'>პაციენტის ID:<br /><strong>{{{ getPatientIdNumber }}} ({{{getPatientInitials}}})</strong</div><br /><br />",
        "EDIT_PATIENT_QUESTION_1": "პაციენტის ID:",
        "EDIT_PATIENT_QUESTION_1_EMPTY": "გთხოვთ, შეავსოთ პაციენტის ID.",
        "EDIT_PATIENT_QUESTION_1_EMPTY_HEADER": "პაციენტის ID",
        "EDIT_PATIENT_QUESTION_1_RANGE": "პაციენტის ID, რომელიც შეიყვანეთ, დაშვებული ID-ების დიაპაზონში არ არის: {{{ patientIDRange }}}.  გთხოვთ, შეიყვანოთ პაციენტის სწორი ID.",
        "EDIT_PATIENT_QUESTION_1_RANGE_HEADER": "პაციენტის ID დიაპაზონის გარეთაა",
        "EDIT_PATIENT_QUESTION_1_UNIQUE": "პაციენტი უკვე არსებობს.  გთხოვთ, შეიყვანოთ პაციენტის სხვა ID.",
        "EDIT_PATIENT_QUESTION_1_UNIQUE_HEADER": "პაციენტის ID დუბლიკატია",
        "EDIT_PATIENT_QUESTION_2": "პაციენტის ინიციალები:",
        "EDIT_PATIENT_QUESTION_2_EMPTY": "გთხოვთ, პაციენტის ინიციალების გრაფაში მინიმუმ 2 სიმბოლო შეიყვანოთ.",
        "EDIT_PATIENT_QUESTION_2_EMPTY_HEADER": "პაციენტის ინიციალები",
        "EDIT_PATIENT_QUESTION_3_TITLE": "<div class='question-title-large'>აირჩიეთ ენა</div><div>პაციენტის ID:<br /><strong>{{{ getPatientIdNumber }}} ({{{getPatientInitials}}})</strong</div><br /><br />",
        "EDIT_PATIENT_QUESTION_3": "აირჩიეთ ენა პაციენტისთვის",
        "EDIT_PATIENT_QUESTION_4_TITLE": "<div class='question-title-large'>რედაქტირების მიზეზი</div><br /><br />",
        "EDIT_PATIENT_QUESTION_4": "აირჩიეთ პაციენტის რედაქტირების მიზეზი",
        "EDIT_PATIENT_CANCEL_CONFIRM": "გსურთ პაციენტის ცვლილებების გაუქმება?",
        "EDIT_PATIENT_CANCEL_BODY": "თუ ახლა გააუქმებთ, პაციენტის პარამეტრები არ განახლდება.  ნამდვილად გსურთ, გააუქმოთ?",
        "EDIT_PATIENT_NO_CHANGES_CONFIRM": "პაციენტის ინფორმაცია არ შეცვლილა",
        "EDIT_PATIENT_NO_CHANGES_BODY": "ამ პაციენტის ინფორმაცია არ შეცვლილა. მაინც გსურთ გასვლა?",
        "EDIT_PATIENT_REASON_0": "კლინიკოსი ექიმის მიერ შეცდომის შესწორება",
        "EDIT_REASON": "რედაქტირების მიზეზი:",
        "EDIT_SERVICE_URL": "სერვისის URL-ის რედაქტირება",
        "EDIT_SERVICE_URL_SUCCESS": "სერვისის URL განახლდა.",
        "EDIT_USER": "მომხმარებლის რედაქტირება",
        "EDIT_USER_AFF": "ქვემოთ ხელის მოწერით ვაცხადებ, რომ მაქვს უფლებამოსილება, დავარედაქტირო ცენტრის ეს მომხმარებელი. <p><strong>ხელმომწერი: </strong>{{{ getActiveUserName }}}</p>",
        "EDIT_USER_CANCEL_CONFIRM": "გსურთ მომხმარებლის რედაქტირება?",
        "EDIT_USER_CANCEL_BODY": "თუ გააუქმებთ ახლა, ცენტრის მომხმარებლის ცვლილებები არ განხორციელდება. ნამდვილად გსურთ, გააუქმოთ?",
        "EDIT_USER_NO_CHANGES_HEADER": "ცენტრის მომხმარებლის ინფორმაცია არ შეცვლილა",
        "EDIT_USER_NO_CHANGES_BODY": "ცენტრის ამ მომხმარებლის ინფორმაცია არ შეცვლილა. მაინც გსურთ გასვლა?",
        "EMAIL": "ელფოსტის მისამართი",
        "ENTER_PATIENT_INFO": "პეციენტის ინფორმაციის შეყვანა",
        "ENTER_UNLOCK_CODE": "გთხოვთ, შეიყვანოთ განმბლოკავი კოდი",
        "ENTER_USER_INFO": "შეიყვანეთ ცენტრის ახალი მომხმარებლის ინფორმაცია",
        "ENVIRONMENT": "გარემო",
        "ERROR_CODE": "შეცდომის კოდი:",
        "ERROR_TITLE": "შეცდომა",
        "FIRST_NAME": "სახელი",
        "FORGOT_PASSWORD": "დაგავიწყდათ პაროლი?",
        "FORM": "ფორმა",
        "FORM_GATEWAY": "ფორმის პუნქტი",
        "FORM_NAME": "ფორმის დასახელება",
        "FULL_NAME": "სრული სახელი:",
        "GO_TO_VISITS": "პაციენტის ვიზიტები",
        "HAND_DEVICE_SITE_TITLE": "მოწყობილობის გადაცემა ცენტრის მომხმარებლისთვის",
        "HAND_DEVICE_SITE_BODY": "გთხოვთ, გადასცეთ მოწყობილობა ცენტრის მომხმარებელს.",
        "HELP": "დახმარება",
        "HOME": "საწყისი გვერდი",
        "IN_PROGRESS": "მუშავდება",
        "INITIALS": "ინიციალები",
        "INVALID_URL": "გთხოვთ, შეიყვანოთ სწორი URL.",
        "INVALID_PERMISSION": "ნებართვა არასწორია.",
        "INVALID_PASSWORD": "პაროლი არასწორია.",
        "LANGUAGE": "ენა:",
        "LAST_LOGIN": "ბოლო შესვლა",
        "LAST_NAME": "გვარი",
        "LAST_REFRESH_TIME": "ბოლო განახლების დრო",
        "LOCATION": "მდებარეობა",
        "LOGIN": "შესვლა",
        "LOGIN_SCREEN": "შესვლა",
        "LOGOUT": "გასვლა",
        "MANAGE_USERS": "ცენტრის მომხმარებლების მართვა",
        "MARK_AS_COMPLETED": "დასრულებულად მონიშვნა",
        "SITE_SIGNATURE": "ხელმომწერი: ",
        "SITE_REPORT_AFF": "მე შევიყვანე, გადავამოწმე და ვადასტურებ ზემოთ აღნიშნულ მონაცემებს.<p><strong>ხელმომწერი: {{{ getActiveUserName }}}</strong></p>",
        "PATIENT_REPORT_AFF": "მე შევიყვანე, გადავამოწმე და ვადასტურებ ზემოთ აღნიშნულ მონაცემებს.<p class={{{ getPatientInitials }}}><strong>ინიციალები: {{{ getActiveUserName }}}</strong></p>",
        "CLEAR_SIGNATURE": "ხელმოწერის წაშლა",
        "MENU": "მენიუ",
        "MODE": "რეჟიმი",
        "NAME": "სახელი",
        "NEW_USER": "ახალი მომხმარებლის დღიურის დამატება",
        "FIRST_SITE_USER": "ცენტრის პირველი მომხმარებლის დამატება",
        "NEW_USER_CREATED": "ცენტრის მომხმარებელი შეიქმნა.",
        "NEW_PATIENT_QUESTION_1_MAIN_TITLE": "<div class='question-title-large'>შეიყვანეთ პაციენტის მაიდენტიფიცირებელი ინფორმაცია</div><div><strong>ცენტრი: {{{ getSiteCode }}}</strong></div><div><strong>მომხმარებელი: {{{ getUserName }}}</strong</div><br /><br />",
        "NEW_PATIENT_HELP_TEXT_1": "",
        "NEW_PATIENT_HELP_TEXT_2": "",
        "NEW_PATIENT_HELP_TEXT_3": "",
        "NEW_PATIENT_QUESTION_1_TITLE": "პაციენტის ID",
        "NEW_PATIENT_QUESTION_1": "პაციენტის ID:",
        "NEW_PATIENT_QUESTION_1_EMPTY": "გთხოვთ, შეავსოთ პაციენტის ID.",
        "NEW_PATIENT_QUESTION_1_EMPTY_HEADER": "პაციენტის ID",
        "NEW_PATIENT_QUESTION_1_RANGE": "პაციენტის ID, რომელიც შეიყვანეთ, დაშვებული ID-ების დიაპაზონში არ არის: {{{ patientIDRange }}}.  გთხოვთ, შეიყვანოთ პაციენტის სწორი ID.",
        "NEW_PATIENT_QUESTION_1_RANGE_HEADER": "პაციენტის ID დიაპაზონის გარეთაა",
        "NEW_PATIENT_QUESTION_1_UNIQUE": "პაციენტი უკვე არსებობს.  გთხოვთ, შეიყვანოთ პაციენტის სხვა ID.",
        "NEW_PATIENT_QUESTION_1_UNIQUE_HEADER": "პაციენტის ID დუბლიკატია",
        "NEW_PATIENT_QUESTION_2": "პაციენტის ინიციალები:",
        "NEW_PATIENT_QUESTION_2_EMPTY": "გთხოვთ, პაციენტის ინიციალების გრაფაში მინიმუმ 2 სიმბოლო შეიყვანოთ.",
        "NEW_PATIENT_QUESTION_2_EMPTY_HEADER": "პაციენტის ინიციალები",
        "NEW_PATIENT_QUESTION_3_TITLE": "<div class='question-title-large'>აირჩიეთ ენა</div><div><strong>ცენტრი: {{{ getSiteCode }}}</strong></div><div><strong>მომხმარებელი: {{{ getUserName }}}</strong</div><div><strong>პაციენტის ID: {{{ getPatientID }}}</strong></div><br /><br />",
        "NEW_PATIENT_QUESTION_3": "აირჩიეთ ენა პაციენტისთვის",
        "NEW_PATIENT_CANCEL_CONFIRM": "გსურთ პაციენტის დამატების გაუქმება?",
        "NEW_PATIENT_CANCEL_BODY": "თუ გააუქმებთ, პაციენტი არ დარეგისტრირდება.  ნამდვილად გსურთ, გააუქმოთ?",
        "NEW_PATIENT_AFFIDAVIT_HEADER": "<div><strong>ცენტრი: {{{ getSiteCode }}}</strong><br /><strong>მომხმარებელი: {{{ getUserName }}}</strong><br /><strong>პაციენტის ID: {{{ getPatientID }}}</strong></div>",
        "NEXT": "შემდეგი",
        "NO_RESULTS_FOUND": "შედეგები ვერ მოიძებნა.",
        "NOT_AVAILABLE": "მიუწვდომელია",
        "OK": "კარგი",
        "ORDER": "შეკვეთა",
        "PASSWORD": "პაროლი:",
        "PATIENT": "პაციენტი",
        "PATIENT_ID": "პაციენტის ID:",
        "PATIENT_INITIALS": "პაციენტის ინიციალები",
        "PATIENT_DELETED": "უცნობი პაციენტი",
        "PATIENT_DELETED_MSG": "პაციენტი ვერ მოიძებნა.",
        "PATIENT_DELETED_SUBJECT_MSG": "პაციენტი ვერ მოიძებნა. გთხოვთ, დაუბრუნოთ მოწყობილობა ცენტრის შესაბამის პერსონალს.",
        "PENDING_TRANSMISSIONS": "მომლოდინე გადაცემები",
        "PLEASE_WAIT": "გთხოვთ, დაელოდოთ",
        "PLEASE_CONFIRM": "გთხოვთ, დაადასტუროთ",
        "PLEASE_CONTACT": "გთხოვთ, დაუკავშირდეთ ERT ტექნიკური მხარდაჭერის სამსახურს.",
        "PLEASE_TRY_OR_CONTACT_SUPPORT": "გთხოვთ, სცადოთ ხელახლა ან დაუკავშირდეთ ERT ტექნიკური მხარდაჭერის სამსახურს.",
        "REASON": "მიზეზი:",
        "REPORTS_AND_FORMS": "ანგარიშები და ფორმები",
        "REPORTS_COMPLETED_MESSAGE": "თქვენ ყველა ფორმა შეავსეთ. გთხოვთ, დაუბრუნოთ მოწყობილობა ცენტრის შესაბამის პერსონალს.",
        "REQUIRED_ANSWER": "გთხოვთ, შეავსოთ მოთხოვნილი ინფორმაცია.",
        "RESET_PIN": "პაციენტის PIN-ის გადაყენება",
        "RESET_USER_PASSWORD": "მომხმარებლის პაროლის გადაყენება",
        "ROLES": "როლი:",
        "SAVE": "შენახვა",
        "SEARCH": "ძიება",
        "SECURITY_QUESTION_0": "დედათქვენის ქალიშვილობის გვარი",
        "SECURITY_QUESTION_1": "თქვენი დაბადების ქალაქი",
        "SECURITY_QUESTION_2": "თქვენი პირველი შინაური ცხოველის მეტსახელი",
        "SECURITY_QUESTION_3": "თქვენი საყვარელი სპორტის სახეობა",
        "SECURITY_QUESTION_4": "რომელ წელს დაამთავრეთ სასწავლებელი?",
        "SECURITY_QUESTION_5": "რა არის თქვენი უფროსი შვილის მეორე სახელი?",
        "SECURITY_QUESTION_6": "რა ჰქვია თქვენი ბავშვობის საყვარელ მეგობარს?",
        "SECURITY_QUESTION_7": "რა გვარი იყო თქვენი მესამე კლასის მასწავლებელი?",
        "SECURITY_QUESTION_8": "რომელ ქალაქში იყო თქვენი პირველი სამსახური?",
        "SECRET_ANSWER": "უსაფრთხოების პასუხი:",
        "SECRET_QUESTION": "უსაფრთხოების შეკითხვა:",
        "SECRET_QUESTION_HELP_TEXT": "აირჩიეთ უსაფრთხოების შეკითხვა სიიდან ქვემოთ. პასუხი გამოიყენება შესასვლელად, თუ დაგავიწყდებათ პაროლი.",
        "SECRET_QUESTION_ANSWER": "უსაფრთხოების შეკითხვა და პასუხი",
        "SELECT_LANGUAGE": "აირჩიეთ ცენტრისთვის სასურველი ენა.",
        "SET_TIMEZONE_MESSAGE": "აირჩიეთ დროის სარტყელი:",
        "SELECT_SITE_NUMBER": "გთხოვთ, აირჩიოღ ცენტრის ნომერი",
        "SERVICE_URL": "სერვისის URL",
        "SETTINGS": "პარამეტრები",
        "SETUP_COMPLETE": "დაყენება დასრულდა",
        "SETUP_COMPLETE_DESC": "ახლა მოწყობილობა დაყენებულია და მზად არის მიწოდებისთვის.  გთხოვთ, დააჭიროთ ღილაკს „კარგი“, შემდეგ გამორთოთ მოწყობილობა შემდეგ ეკრანზე.",
        "SETUP_SITE_USER": "ცენტრის მომხმარებლის დაყენება",
        "SETUP_SITE_USER_LEGEND": "გთხოვთ, დააყენოთ ცენტრის მომხმარებელი ამ მოყობილობისთვის.",
        "SITE": "ცენტრი",
        "SITE_ASSESSMENTS": "ცენტრის შეფასებები",
        "SIGNATURE_DATA_LIMIT_EXCEEDED": "ხელმოწერის ველი ზუსტად ვერ ასახავს თქვენს ხელმოწერას. გთხოვთ, აღნიშნულის ნაცვლად დაწეროთ თქვენი ინიციალები.",
        "SITE_NUMBER": "ცენტრის ნომერი",
        "SITE_ROLE": "ცენტრის მომხმარებელი",
        "SITE_SELECTION": "ცენტრის არჩევანი",
        "SKIP_FORM": "ფორმის გამოტოვება",
        "SKIP_QUESTION": "დარწმუნებული ხართ, რომ გსურთ პასუხების გამოტოვება ამ ეკრანზე?",
        "SKIP_TO_VISIT": "გამოტოვება და ვიზიტზე გადასვლა",
        "SKIP_VISIT": "ვიზიტის გამოტოვება",
        "SKIP_VISITS": "ვიზიტების გამოტოვება",
        "SKIP_VISITS_QUESTION_1": "<div class='question-title-large'><strong>მიზეზი</strong></div><br /><br /><div>აირჩიეთ ვიზიტების გამოტოვების მიზეზი:</div>",
        "SKIP_VISITS_REASON_0": "ვიზიტის ვადა გავიდა",
        "SKIP_VISITS_REASON_1": "ცენტრის შეცდომა ადმინისტრაციაში",
        "SKIP_VISITS_REASON_2": "სუბიექტმა გააცდინა კლინიკური შეხვედრა.",
        "SKIP_VISITS_REASON_3": "არ ვრცელდება.",
        "SKIP_VISITS_REASON_4": "ვიზიტი არასავალდებულოა, შესრულებული არ არის.",
        "SKIP_VISITS_CANCEL_CONFIRM": "გსურთ ვიზიტების გამოტოვების გაუქმება?",
        "SKIP_VISITS_CANCEL_BODY": "თუ გააუქმებთ ახლა, ვიზიტების გამოტოვება არ მოხდება. ნამდვილად გსურთ, გააუქმოთ?",
        "SKIPPED" : "გამოტოვებული",
        "SKIPPED_VISITS": "{{{ skippedVisits }}}",
        "START_FORM": "ფორმის დაწყება",
        "START_VISIT": "ვიზიტის დაწყება",
        "STATUS": "სტატუსი",
        "STATUS_DATE": "სტატუსის თარიღი",
        "STUDY": "კვლევა",
        "STUDYWORKS_LOGIN": "StudyWorks-ში შესვლა",
        "SUBJECT_ID": "პაციენტის ID",
        "SUBJECT_ROLE": "პაციენტი",
        "SUBMIT": "გაგზავნა",
        "SUPPORT_TOOLS": "დამხმარე ხელსაწყოები",
        "SYNC": "სინქრონიზაცია",
        "SYNC_USERS": "მომხმარებლების სინქრონიზაცია",
        "SYNC_TO_DEVICE": "კვლევის სინქრონიზაცია მოწყობილობაში",
        "TEMPORARY_PASSWORD_MESSAGE": "გთხოვთ, მისცეთ დროებითი პაროლი ახალ მომხმარებელს. ავტორიზაციის შემდეგ მათ მოეთხოვებათ ახალი პაროლის შექმნა.",
        "TEMP_PASSWORD": "დროებითი პაროლი: ",
        "UNABLE_TO_GET_SITE_LIST": "ცენტრის სიის მიღება ვერ ხერხდება",
        "UNLOCK_CODE": "განმბლოკავი კოდი",
        "UNLOCK_CODE_HELP": "თქვენი ERT Tablet-სთვის განმბლოკავი კოდის მიღება შესაძლებელია StudyWorks-იდან, „ERT განმბლოკავი კოდების“ SmartReport-ში. გთხოვთ, შემდგომი დახმარებისთვის დაუკავშირდეთ ERT ტექნიკური მხარდაჭერის ცენტრს.",
        "USER": "მომხმარებელი",
        "USER_ALREADY_EXISTS": "ცენტრის მომხმარებელი უკვე არსებობს",
        "USER_EDITED": "მომხმარებელი განახლდა.",
        "USER_TO_ACTIVATE": "<strong>გასააქტიურებელი მომხმარებელი:</strong> <br />{{{ getSelectedUsername }}}<p><strong>ხელმომწერი:</strong> {{{ getActiveUserName }}}</p>",
        "SUBJECT_ALREADY_EXISTS": "პაციენტი ID-ით {{{ getPatientIDForDuplicate }}} უკვე არსებობს",
        "TIME_CONFIRMATION_INSTRUCTIONS": "მოწყობილობა საჭიროებს თქვენი ადგილობრივი დროის დადასტურებას. მიუთითეთ თარიღი და დრო სანდო წყაროდან.",
        "TIME_ZONE_ERROR_HEADER": "დროის სარტყლის შეცდომა",
        "TIME_ZONE_ERROR_MSG": "მოხდა შეცდომა დროის სარტყლების სიის მიღებისას. გთხოვთ, შემდგომი დახმარებისთვის დაუკავშირდეთ ERT ტექნიკური მხარდაჭერის ცენტრს.",
        "TIME_ZONE_SET_ERROR_MSG": "დროის სარტყლის დაყენებისას მოხდა შეცდომა. გთხოვთ, შემდგომი დახმარებისთვის დაუკავშირდეთ ERT ტექნიკური მხარდაჭერის ცენტრს.",
        "TIME_ZONE_SET_CONFIRM": "დარწმუნებული ხართ, რომ გსურთ დროის სარტყელად დააყენოთ: <bdo dir='ltr'>{{{selectedTimeZone}}}</bdo>? <br/> ამ ცვლილების ასახვისთვის შესაძლოა მოწყობილობა გადაიტვირთოს.",
        "TIME_ZONE_SET_CONFIRM_NOCHANGE": "დარწმუნებული ხართ, რომ გსურთ დროის სარტყელად დააყენოთ: <bdo dir='ltr'>{{{selectedTimeZone}}}</bdo>?",
        "TIME_ZONE_SET_HEADER": "დროის სარტყლის დაყენების დადასტურება",
        "TRAINER": "მწვრთნელის რეჟიმი",
        "TRAINER_EXIT": "მწვრთნელის რეჟიმიდან გასვლა",
        "TRAINER_EXIT_NOTIFICATION": "მწვრთნელის რეჟიმიდან გადიხართ",
        "TRAINER_HEADER": "(მწვრთნელი)",
        "USER_ROLE": "მომხმარებლის როლი",
        "USERNAME": "მომხმარებლის სახელი",
        "USER_NAME": "მომხმარებლის სახელი:",
        "VISIT": "ვიზიტი",
        "VISIT_COMPLETED_MESSAGE": "ამ ვიზიტისთვის სხვა ფორმები არ არის.  ეს ვიზიტი ახლა დასრულებულია.",
        "VISIT_INACTIVE_HEADER": "არააქტიური ვიზიტი.",
        "VISIT_INACTIVE_MESSAGE": "ეს ვიზიტი აქტიური აღარ არის.",
        "VISIT_INACTIVE_MESSAGE_SUBJECT": "ეს ვიზიტი აქტიური აღარ არის. გთხოვთ, დაუბრუნოთ მოწყობილობა ცენტრის შესაბამის პერსონალს.",
        "VISITS": "ვიზიტები",
        "VISITS_SKIPPED": "გამოტოვებული ვიზიტები:",
        "VISIT_NAME": "ვიზიტის დასახელება",
        "WELCOME": "მოგესალმებით",
        "AF-ZA": "აფრიკაანსი",
        "AR-EG": "არაბული",
        "BE-BY": "ბელარუსული",
        "BG-BG": "ბულგარული",
        "BN-IN": "ბენგალური",
        "BS-BA": "ბოსნიური",
        "CA-ES": "კატალანური",
        "CS-CZ": "ჩეხური",
        "DA-DK": "დანიური",
        "DE-DE": "გერმანული (გერმანია)",
        "DE-AT": "გერმანული (ავსტრია)",
        "EL-GR": "ბერძნული",
        "EN-GB": "ინგლისური (გაერთიანებული სამეფო)",
        "EN-US": "ინგლისური (შეერთებული შტატები)",
        "ES-ES": "ესპანური (ესპანეთი)",
        "ES-US": "ესპანური (შეერთებული შტატები):",
        "ES-PY": "ესპანური (უნივერსალური)",
        "ET-EE": "ესტონური",
        "FI-FI": "ფინური",
        "FR-CA": "ფრანგული (კანადა)",
        "FR-FR": "ფრანგული (საფრანგეთი)",
        "GD-IE": "გელური",
        "GU-IN": "გუჯარათული",
        "HE-IL": "ებრაული",
        "HI-IN": "ჰინდი",
        "HR-HR": "ხორვატული",
        "HU-HU": "უნგრული",
        "IT-IT": "იტალიური",
        "JA-JP": "იაპონური",
        "KA-GE": "ქართული",
        "KN-IN": "კანადა (ენა)",
        "KO-KR": "კორეული",
        "LV-LV": "ლატვიური",
        "LT-LT": "ლიტვური",
        "ML-IN": "მალაიალამური",
        "MR-IN": "მარათი",
        "MS-MY": "მალაიური",
        "NB-NO": "ნორვეგიული",
        "NL-BE": "ჰოლანდიური (ბელგია)",
        "NL-NL": "ჰოლანდიური (ნიდერლანდები)",
        "PA-IN": "პენჯაბური",
        "PL-PL": "პოლონური",
        "PT-BR": "პორტუგალიური (ბრაზილია)",
        "PT-PT": "პორტუგალიური (პორტუგალია)",
        "RO-RO": "რუმინული",
        "RU-RU": "რუსული",
        "SL-SL": "სლოვენური",
        "SK-SK": "სლოვაკური",
        "SR-RS": "სერბული (ლათინური)",
        "SR-SP": "სერბული (კირილიცა)",
        "ST-ZA": "სოტო",
        "SV-SE": "შვედური",
        "TA-IN": "ტამილური",
        "TE-IN": "ტელუგუ",
        "TH-TH": "ტაი",
        "TL-PH": "ტაგალოგი",
        "TN-ZA": "ცვანა",
        "TR-TR": "თურქული",
        "UK-UA": "უკრაინული",
        "UR-IN": "ურდუ",
        "VI-VN": "ვიეტნამური",
        "XH-ZA": "ქსოზა",
        "ZH-CN": "ჩინური (ჩინეთი)",
        "ZH-TW": "ჩინური (ტაივანი)",
        "ZU-ZU": "ზულუ",
        "HAND_DEVICE_SUBJECT_BODY": "შემდეგი ფორმა უნდა დაასრულოს: {{{ patientOrRole }}}. გთხოვთ, გამოხვიდეთ, შემდეგ გადასცეთ მოწყობილობა {{{ patientOrRole }}}-ს.",
        "HAND_DEVICE_SUBJECT_TITLE": "იწყება ფორმა {{{ formTitle }}}",
        "SKIP_VISIT_TITLE": "გსურთ ვიზიტ(ებ)ის გამოტოვება?",
        "SKIP_VISIT_TEXT": "თუ გააგრძელებთ, შემდეგი ვიზიტები გამოტოვებული იქნება:<br/> {{{ skippedVisits }}} გსურთ გაგრძელება და ვიზიტების გამოტოვება ახლა?",
        "YES": "დიახ",
        "NO": "არა",
        "TIME_LBL": "დრო:",
        "SET_TIME": "დროის დაყენება",
        "DATE_LBL": "თარიღი:",
        "CREATE_PERMANENT_PASSWORD_TITLE": "სამუდამო პაროლის შექმნა",
        "USER_ID": "მომხმარებლის ID:",
        "PHASE": "ფაზა",
        "LAST_VISIT": "ბოლო შესრულებული ვიზიტი",
        "CONNECTION_REQUIRED": "საჭიროა ინტერნეტთან კავშირი.",
        "RETRY": "სცადეთ ხელახლა",
        "UPDATE_FAILURE": "განახლება არ დასრულებულა",
        "UPDATE_SUCCESS": "განახლება წარმატებით დასრულდა",
        "CANCEL_PERMANENT_PASSWORD_TITLE": "გსურთ სამუდამო პაროლის შექმნის გაუქმება?",
        "CANCEL_PERMANENT_PASSWORD_TEXT": "თუ გააუქმებთ ახლა, თქვენი სამუდამო პაროლი არ შეიქმნება. ERT-ის გამოყენების დასაწყებად სამუდამო პაროლი გჭირდებათ. ნამდვილად გსურთ, გააუქმოთ?",
        "ACCOUNT_CONFIGURED_TITLE": "ანგარიშის დაყენება დასრულდა",
        "ACCOUNT_CONFIGURED_TEXT": "ახლა თქვენი ანგარიშის დაყენება დასრულებულია, შეგიძლიათ eCOA სისტემის გამოყენება გააგრძელოთ.",
        "LOGGED_IN_AS": "შესული ხართ, როგორც",
        "EDIT_PATIENT_AFFIDAVIT_HEADER": "<p class='question-title-large'>ხელმოწერა</p><br />",
        "EDIT_PATIENT_AFF": "ქვემოთ ხელის მოწერით მე ვაცხადებ, რომ მაქვს უფლებამოსილება, დავარედაქტირო ეს პაციენტი.<br /><br />პაციენტის ID: {{{ getPatientIdNumber }}}<br /><br />ხელმომწერი: {{{ getActiveUserName }}}",
        "PASSWORD_MISMATCH": "პაროლის დადასტურება არ ემთხვევა პაროლს",
        "FIRST_USER_AFFIDAVIT": "ქვემოთ ხელის მოწერით მე ვაცხადებ, რომ ვარ მთავარი მკვლევარი ან მაქვს უფლებამოსილება, მოვახდინო ანგარიშების შექმნის დელეგირება ამ სისტემაში.<br /><br /><strong>ხელმომწერი: {{{ getFirstUsername }}}</strong>",
		"INCOMPLETE": "დაუსრულებელი",
        "INVALID_ENTRY": "არასწორი ჩანაწერი",
        "PLEASE_ANSWER_SQ": "გთხოვთ, უპასუხოთ უსაფრთხოების შეკითხვას:",
        "FORGOT_SECRET_ANSWER": "დაგავიწყდათ უსაფრთხოების პასუხი?",
        "CONTACT_STUDY_COORDINATOR": "კვლევის კოორდინატორთან დაკავშირება",
        "ENTER_NEW_PASSWORD": "ახალი პაროლი:",
        "CONTACT_UNLOCK_CODE": "გთხოვთ, დაუკავშირდეთ კვლევის კოორდინატორს დღევანდელი განმბლოკავი კოდისთვის:",
        "CURRENT_DATE": "{{{ currentDate }}}",
        "TEMPORARY_UNLOCK_CODE": "შეიყვანეთ კვლევის კოორდინატორის მიერ მოწოდებული განმბლოკავი კოდი.",
        "RESET_SECRET_QUESTION": "უსაფრთხოების შეკითხვის გადაყენება",
        "SECRET_QUESTION_CHANGE_SUCCESS": "თქვენ წარმატებით განაახლეთ თქვენი პაროლი და უსაფრთხოების შეკითხვა.",
        "RESET_PASSWORD": "პაროლის გადაყენება",
        "ANSWER_ATTEMPT_EXCEEDED": "თქვენ ძალიან ბევრჯერ შეიყვანეთ არასწორი პასუხი ან დააწკაპუნეთ ბმულზე „უსაფრთხოების პასუხი დამავიწყდა“.",
        "PASSWORD_ATTEMPT_EXCEEDED": "თქვენ ძალიან ბევრჯერ შეიყვანეთ არასწორი პაროლი ან დააწკაპუნეთ ბმულზე „პაროლი დამავიწყდა“.",
        "PASSWORD_CHANGE_SUCCESS": "თქვენ წარმატებით განაახლეთ პაროლი.",
        "CHANGE_PASSWORD": "პაროლის შეცვლა",
        "CHANGE_SECRET_QUESTION": "უსაფრთხოების შეკითხვის შეცვლა",
        "SYNC_COMPLETE": "სინქრონიზაცია დასრულდა",
        "INCORRECT_ANSWER": "პასუხი არასწორია",
        "INCORRECT_UNLOCK_CODE": "განმბლოკავი კოდი არასწორია",
        "PASSWORD_INVALID": "პაროლი არასწორია",
        "SUBJECT": "პაციენტი",
        "PATIENT_ADDED": "პაციენტი დაემატა",
        "SITE_ADMINISTRATOR": "ცენტრის ადმინისტრატორი",
        "LOW_BATTERY": "გაფრთხილება: აკუმულატორის მუხტი დაბალია. გთხოვთ, შეაერთოთ მოწყობილობა დასატენად.",
        "CRITICAL_BATTERY": "გაფრთხილება: აკუმულატორის მუხტი კრიტიკულად დაბალია. გთხოვთ, შეაერთოთ მოწყობილობა დასატენად, თორემ ის გაითიშება.",
        "TIME_CONFIRMATION_HEADER": "დაადასტურეთ თარიღი/დრო",
        "TIMESLIP_ERROR": "თქვენს მოწყობილობაზე დრო ან თარიღი არასწორია. გთხოვთ, გადახვიდეთ მდებარეობაზე, სადაც არის ინტერნეტთან კავშირი და სცადოთ ხელახლა. თუ პრობლემები კვლავ წარმოიქმნება, დაუკავშირდით ERT კლიენტთა მხარდაჭერის ცენტრს.",
        "SUPPORT": "მომხმარებელთა მხარდაჭერა",
        "SUPPORT_MESSAGE": "შეერთებულ სტატებში მყოფ მომხმარებლებს შეუძლიათ დაუკავშირდნენ ERT ტექნიკური მხარდაჭერის სამსახურს ნომერზე 800-748-5669. საერთაშორისო მომხმარებლებს გთხოვთ, აირჩიოთ უახლოესი ქვეყანა:",
        "SUPPORT_DROPDOWN": "აირჩიეთ ქვეყანა",
        "SUPPORT_NAME_ARGENTINA": "არგენტინა",
        "SUPPORT_NUMBER_ARGENTINA": "<bdo dir='ltr'>0800 444 0962</bdo>",
        "SUPPORT_NAME_ARMENIA": "სომხეთი",
        "SUPPORT_NUMBER_ARMENIA": "<bdo dir='ltr'>+1 617 681 6306</bdo>",
        "SUPPORT_NAME_AUSTRALIA": "ავსტრალია",
        "SUPPORT_NUMBER_AUSTRALIA": "<bdo dir='ltr'>1 800 800 051</bdo>",
        "SUPPORT_NAME_AUSTRIA": "ავსტრია",
        "SUPPORT_NUMBER_AUSTRIA": "<bdo dir='ltr'>0800 100 405</bdo>",
        "SUPPORT_NAME_BELARUS": "ბელარუსი",
        "SUPPORT_NUMBER_BELARUS": "<bdo dir='ltr'>8 820 0321 0036</bdo>",
        "SUPPORT_NAME_BELGIUM": "ბელგია",
        "SUPPORT_NUMBER_BELGIUM_1": "(ინგლისური): <bdo dir='ltr'>0800 58 016</bdo>",
        "SUPPORT_NUMBER_BELGIUM_2": "(ფრანგული): <bdo dir='ltr'>0800 71 076</bdo>",
        "SUPPORT_NUMBER_BELGIUM_3": "(გერმანული): <bdo dir='ltr'>0800 71 113</bdo>",
        "SUPPORT_NAME_BRAZIL": "ბრაზილია",
        "SUPPORT_NUMBER_BRAZIL": "<bdo dir='ltr'>0800 891 5909</bdo>",
        "SUPPORT_NAME_BOSNIA": "ბოსნია",
        "SUPPORT_NUMBER_BOSNIA": "<bdo dir='ltr'>+1 617 681 6306</bdo>",
        "SUPPORT_NAME_BULGARIA": "ბულგარეთი",
        "SUPPORT_NUMBER_BULGARIA": "<bdo dir='ltr'>00800 0010</bdo>, შემდეგ <bdo dir='ltr'>866 245 4931</bdo>",
        "SUPPORT_NAME_CANADA": "კანადა",
        "SUPPORT_NUMBER_CANADA": "<bdo dir='ltr'>1 800 748 5669</bdo>",
        "SUPPORT_NAME_CHILE": "ჩილე",
        "SUPPORT_NUMBER_CHILE": "<bdo dir='ltr'>123 0020 3408</bdo>",
        "SUPPORT_NAME_CHINA": "ჩინეთი",
        "SUPPORT_NUMBER_CHINA_1": "NetCom (ჩრდილოეთი): <bdo dir='ltr'>1 0800 74 40 164</bdo>",
        "SUPPORT_NUMBER_CHINA_2": "Telecom (სამხრეთი): <bdo dir='ltr'>1 0800 44 00 158</bdo>",
        "SUPPORT_NAME_COLOMBIA": "კოლუმბია",
        "SUPPORT_NUMBER_COLOMBIA": "<bdo dir='ltr'>01 800 911 0010</bdo>, შემდეგ <bdo dir='ltr'>866 310 3707</bdo>",
        "SUPPORT_NAME_COSTA_RICA": "კოსტა რიკა",
        "SUPPORT_NUMBER_COSTA_RICA": "<bdo dir='ltr'>0800 013 1210</bdo>",
        "SUPPORT_NAME_CROATIA": "ხორვატია",
        "SUPPORT_NUMBER_CROATIA": "<bdo dir='ltr'>0800 222 953</bdo>",
        "SUPPORT_NAME_CZECH_REPUBLIC": "ჩეხეთის რესპუბლიკა",
        "SUPPORT_NUMBER_CZECH_REPUBLIC": "<bdo dir='ltr'>800 142 150</bdo>",
        "SUPPORT_NAME_DENMARK": "დანია",
        "SUPPORT_NUMBER_DENMARK": "<bdo dir='ltr'>80 60 00 09</bdo>",
        "SUPPORT_NAME_EGYPT": "ეგვიპტე",
        "SUPPORT_NUMBER_EGYPT": "<bdo dir='ltr'>02 510 0200</bdo>, შემდეგ <bdo dir='ltr'>866 310 3707</bdo>",
        "SUPPORT_NAME_EL_SALVADOR": "ელ სალვადორი",
        "SUPPORT_NUMBER_EL_SALVADOR": "<bdo dir='ltr'>+1 617 681 6306</bdo>",
        "SUPPORT_NAME_ESTONIA": "ესტონეთი",
        "SUPPORT_NUMBER_ESTONIA": "<bdo dir='ltr'>800 00 44 154</bdo>",
        "SUPPORT_NAME_FINLAND": "ფინეთი",
        "SUPPORT_NUMBER_FINLAND": "<bdo dir='ltr'>0800 11 6366</bdo>",
        "SUPPORT_NAME_FRANCE": "საფრანგეთი",
        "SUPPORT_NUMBER_FRANCE": "<bdo dir='ltr'>0800 10 19 79</bdo>",
        "SUPPORT_NAME_GERMANY": "გერმანია",
        "SUPPORT_NUMBER_GERMANY": "<bdo dir='ltr'>0800 101 28 21</bdo>",
        "SUPPORT_NAME_GREECE": "საბერძნეთი",
        "SUPPORT_NUMBER_GREECE": "<bdo dir='ltr'>00 800 1311</bdo>, შემდეგ <bdo dir='ltr'>866 310 3707</bdo>",
        "SUPPORT_NAME_GUATEMALA": "გუატემალა",
        "SUPPORT_NUMBER_GUATEMALA": "<bdo dir='ltr'>1 800 624 0079</bdo>",
        "SUPPORT_NAME_HONG_KONG": "ჰონგ კონგი",
        "SUPPORT_NUMBER_HONG_KONG": "<bdo dir='ltr'>3002 1665</bdo>",
        "SUPPORT_NAME_HUNGARY": "უნგრეთი",
        "SUPPORT_NUMBER_HUNGARY": "<bdo dir='ltr'>06 800 14 571</bdo>",
        "SUPPORT_NAME_ICELAND": "ისლანდია",
        "SUPPORT_NUMBER_ICELAND": "<bdo dir='ltr'>800 8544</bdo>",
        "SUPPORT_NAME_INDIA": "ინდოეთი",
        "SUPPORT_NUMBER_INDIA": "<bdo dir='ltr'>000 800 440 1125</bdo>",
        "SUPPORT_NAME_INDONESIA": "ინდონეზია",
        "SUPPORT_NUMBER_INDONESIA": "<bdo dir='ltr'>008 800 330 334</bdo>",
        "SUPPORT_NAME_IRELAND": "ირლანდია",
        "SUPPORT_NUMBER_IRELAND": "<bdo dir='ltr'>1 800 946 700</bdo>",
        "SUPPORT_NAME_ISRAEL": "ისრაელი",
        "SUPPORT_NUMBER_ISRAEL": "<bdo dir='ltr'>1 809 470 062</bdo>",
        "SUPPORT_NAME_ITALY": "იტალია",
        "SUPPORT_NUMBER_ITALY": "<bdo dir='ltr'>800 90 56 37</bdo>",
        "SUPPORT_NAME_JAPAN": "იაპონია",
        "SUPPORT_NUMBER_JAPAN": "გთხოვთ, თქვენი კვლევის უფასო ნომრისთვის იხილოთ ePRO კვლევის საინფორმაციო გზამკვლევი",
        "SUPPORT_NAME_LATVIA": "ლატვია",
        "SUPPORT_NUMBER_LATVIA": "<bdo dir='ltr'>8000 2151</bdo>",
        "SUPPORT_NAME_LEBANON": "ლიბანი",
        "SUPPORT_NUMBER_LEBANON": "<bdo dir='ltr'>01-426-801</bdo>, შემდეგ <bdo dir='ltr'>866 310 3707</bdo>",
        "SUPPORT_NAME_LITHUANIA": "ლიტვა",
        "SUPPORT_NUMBER_LITHUANIA": "<bdo dir='ltr'>8800 30207</bdo>",
        "SUPPORT_NAME_MALAYSIA": "მალაზია",
        "SUPPORT_NUMBER_MALAYSIA": "<bdo dir='ltr'>1800 80 59 71</bdo>",
        "SUPPORT_NAME_MEXICO": "მექსიკა",
        "SUPPORT_NUMBER_MEXICO_1": "(ინგლისური): <bdo dir='ltr'>001 800 748 5669</bdo> ",
        "SUPPORT_NUMBER_MEXICO_2": "(ესპანური): <bdo dir='ltr'>001 855 631 6952</bdo>",
        "SUPPORT_NAME_MOLDOVA": "მოლდავეთი",
        "SUPPORT_NUMBER_MOLDOVA": "<bdo dir='ltr'>617 681 6306</bdo>",
        "SUPPORT_NAME_NETHERLANDS": "ჰოლანდია",
        "SUPPORT_NUMBER_NETHERLANDS": "<bdo dir='ltr'>0800 023 1389</bdo>",
        "SUPPORT_NAME_NEW_ZEALAND": "ახალი ზელანდია",
        "SUPPORT_NUMBER_NEW_ZEALAND": "<bdo dir='ltr'>0800 110 178</bdo>",
        "SUPPORT_NAME_NORWAY": "ნორვეგია",
        "SUPPORT_NUMBER_NORWAY": "<bdo dir='ltr'>800 62 051</bdo>",
        "SUPPORT_NAME_PAKISTAN": "პაკისტანი",
        "SUPPORT_NUMBER_PAKISTAN": "<bdo dir='ltr'>00 800 0100</bdo>, შემდეგ <bdo dir='ltr'>866 237 9767</bdo>",
        "SUPPORT_NAME_PANAMA": "პანამა",
        "SUPPORT_NUMBER_PANAMA": "<bdo dir='ltr'>001 800 201 3095</bdo>",
        "SUPPORT_NAME_PERU": "პერუ",
        "SUPPORT_NUMBER_PERU": "<bdo dir='ltr'>0800 5 0974</bdo>",
        "SUPPORT_NAME_PHILIPPINES": "ფილიპინები",
        "SUPPORT_NUMBER_PHILIPPINES": "<bdo dir='ltr'>1 800 1116 0651</bdo>",
        "SUPPORT_NAME_POLAND": "პოლონეთი",
        "SUPPORT_NUMBER_POLAND": "<bdo dir='ltr'>00800 331 1262</bdo>",
        "SUPPORT_NAME_PORTUGAL": "პორტუგალია",
        "SUPPORT_NUMBER_PORTUGAL": "<bdo dir='ltr'>800 206 172</bdo>",
        "SUPPORT_NAME_PUERTO_RICO": "პუერტო რიკო (აშშ ტერიტორია)",
        "SUPPORT_NUMBER_PUERTO_RICO": "<bdo dir='ltr'>1 800 748 5669</bdo>",
        "SUPPORT_NAME_ROMANIA": "რუმინეთი",
        "SUPPORT_NUMBER_ROMANIA": "<bdo dir='ltr'>0800 894492</bdo>",
        "SUPPORT_NAME_RUSSIA": "რუსეთი",
        "SUPPORT_NUMBER_RUSSIA_1": "(პირველი - ზარი უფასოა): <bdo dir='ltr'>8 10 800 249 13011</bdo>",
        "SUPPORT_NUMBER_RUSSIA_2": "(მოსკოვის ფარგლებში): <bdo dir='ltr'>363-2400</bdo> <br> შემდეგ <bdo dir='ltr'>866 310 3707</bdo>",
        "SUPPORT_NUMBER_RUSSIA_3": "(მოსკოვის გარეთ): <bdo dir='ltr'>8^(495) 363-2400</bdo> <br> შემდეგ <bdo dir='ltr'>866 310 3707</bdo>",
        "SUPPORT_NUMBER_RUSSIA_4": "(სანქტ პეტერბურგის ფარგლებში): <bdo dir='ltr'>363-2400</bdo> <br> შემდეგ <bdo dir='ltr'>866 310 3707</bdo>",
        "SUPPORT_NUMBER_RUSSIA_5": "(სანქტ პეტერბურგის გარეთ): <bdo dir='ltr'>8^(495) 363-2400</bdo> <br> შემდეგ <bdo dir='ltr'>866 310 3707</bdo>",
        "SUPPORT_NAME_SAUDI_ARABIA": "საუდის არაბეთი",
        "SUPPORT_NUMBER_SAUDI_ARABIA": "<bdo dir='ltr'>+1 617 681 6306</bdo>",
        "SUPPORT_NAME_SERBIA": "სერბია",
        "SUPPORT_NUMBER_SERBIA": "<bdo dir='ltr'>+1 617 973 1739</bdo>",
        "SUPPORT_NAME_SINGAPORE": "სინგაპური",
        "SUPPORT_NUMBER_SINGAPORE": "<bdo dir='ltr'>800 616 30 03</bdo>",
        "SUPPORT_NAME_SLOVAKIA": "სლოვაკეთი",
        "SUPPORT_NUMBER_SLOVAKIA": "<bdo dir='ltr'>0800 0044 65</bdo>",
        "SUPPORT_NAME_SLOVENIA": "სლოვენია",
        "SUPPORT_NUMBER_SLOVENIA": "<bdo dir='ltr'>+1 617 681 6306</bdo>",
        "SUPPORT_NAME_SOUTH_AFRICA": "სამხრეთ აფრიკა",
        "SUPPORT_NUMBER_SOUTH_AFRICA": "<bdo dir='ltr'>0800 99 5853</bdo>",
        "SUPPORT_NAME_SOUTH_KOREA": "სამხრეთ კორეა",
        "SUPPORT_NUMBER_SOUTH_KOREA": "<bdo dir='ltr'>00308 33 00 08</bdo>",
        "SUPPORT_NAME_SPAIN": "ესპანეთი",
        "SUPPORT_NUMBER_SPAIN": "<bdo dir='ltr'>900 90 2541</bdo>",
        "SUPPORT_NAME_SWEDEN": "შვედეთი",
        "SUPPORT_NUMBER_SWEDEN": "<bdo dir='ltr'>020 120 99 69</bdo>",
        "SUPPORT_NAME_SWITZERLAND": "შვეიცარია",
        "SUPPORT_NUMBER_SWITZERLAND_1": "(ინგლისური): <bdo dir='ltr'>0800 199 325</bdo>",
        "SUPPORT_NUMBER_SWITZERLAND_2": "(ფრანგული): <bdo dir='ltr'>0800 891 183</bdo>",
        "SUPPORT_NUMBER_SWITZERLAND_3": "(გერმანული): <bdo dir='ltr'>0800 891 025</bdo>",
        "SUPPORT_NAME_TAIWAN": "ტაივანი",
        "SUPPORT_NUMBER_TAIWAN": "<bdo dir='ltr'>00801 33 33 42</bdo>",
        "SUPPORT_NAME_THAILAND": "ტაილანდი",
        "SUPPORT_NUMBER_THAILAND": "<bdo dir='ltr'>1 800 33 140 353</bdo>",
        "SUPPORT_NAME_TUNISIA": "ტუნისი",
        "SUPPORT_NUMBER_TUNISIA": "<bdo dir='ltr'>+1 617 681 6306</bdo>",
        "SUPPORT_NAME_TURKEY": "თურქეთი",
        "SUPPORT_NUMBER_TURKEY": "<bdo dir='ltr'>00 800 151 1335</bdo>",
        "SUPPORT_NAME_UKRAINE": "უკრაინა",
        "SUPPORT_NUMBER_UKRAINE": "<bdo dir='ltr'>0^00 11</bdo>, შემდეგ <bdo dir='ltr'>866 245 4931</bdo>",
        "SUPPORT_NAME_UAE": "არაბეთის გაერთიანებული საამიროები",
        "SUPPORT_NUMBER_UAE": "<bdo dir='ltr'>8000-021</bdo>, შემდეგ <bdo dir='ltr'>866 310 3707</bdo>",
        "SUPPORT_NAME_UK": "გაერთიანებული სამეფო",
        "SUPPORT_NUMBER_UK": "<bdo dir='ltr'>0800 015 0408</bdo>",
        "SUPPORT_NAME_US": "შეერთებული შტატები",
        "SUPPORT_NUMBER_US_1": "(მთავარი): <bdo dir='ltr'>1 800 748 5669</bdo>",
        "SUPPORT_NUMBER_US_2": "(სათადარიგო): <bdo dir='ltr'>1 877 748 5669</bdo>",
        "SUPPORT_NAME_VENEZUELA": "ვენესუელა",
        "SUPPORT_NUMBER_VENEZUELA_1": "(ინგლისური): <bdo dir='ltr'>0 800 552 6288</bdo> <br> შემდეგ <bdo dir='ltr'>866 310 3707</bdo> ",
        "SUPPORT_NUMBER_VENEZUELA_2": "(ესპანური): <bdo dir='ltr'>0 800 100 3063</bdo> ",
        "STUDY_VERSION": "კვლევის ვერსია:",
        "STUDY_URL": "კვლევის URL:",
        "PROTOCOL": "პროტოკოლი:",
        "SPONSOR": "სპონსორი:",
        "STORED_REPORTS": "შენახული ფორმები:",
        "CORE_PRODUCT_VERSION_LABEL": "პროდუქტის ვერსია:",
        "ABOUT": "შესახებ",
        "P_AFFIDAVIT_HEADER": "<div><strong>ცენტრი: {{{ getSiteCode }}}</strong><br /><strong>პაციენტის ID: {{{ getPatientIdNumber }}}</strong></div>",
		"SET_TIMEZONE": "დროის სარტყლის დაყენება",
		"DEVICE_SERIAL_NUMBER": "მოწყობილობის სერიული ნომერი",
		"NONEXISTENT_USER": "განხორციელდა არარსებული მომხმარებლის განახლების მცდელობა.",
		"SCREENING" : "სკრინინგი",
		"TREATMENT" : "მკურნალობა",
		"RANDOMIZATION" : "რანდომიზაცია",
		"FOLLOWUP" : "შემდგომი ქმედებები",
		"TERMINATION" : "შეწყვეტა",
        "ACCEPT": "თანახმა ვარ",
        "DECLINE": "უარზე ვარ",
		"EULA": "საბოლოო მომხმარებლის ლიცენზია",
        "EULA_TEXT": "<p><strong><span class=\"text-underline\">მნიშნველოვანია</span>:  არ დააწკაპუნოთ თანხმობის ღილაკზე, ვიდრე არ წაიკითხავთ მოცემულ შეთანხმებას.  თანხმობის ღილაკზე დაწკაპუნებით, თქვენ ეთანხმებით მოცემული შეთანხმების ყველა პირობას.  თუ თქვენ არ ეთანხმებით მოცემული შეთანხების ყველა პირობას (1) არ დააწკაპუნოთ \"თანახმა ვარ\" ღილაკზე, (2) შეწყვიტეთ ინსტალაცია და ლიცენზირების პროცესი \"უარზე ვარ\" ღილაკზე დაწკაპუნებით.</strong></p><p>eResearchTechnology, Inc. (\"ლიცენზიანტი\") განიჭებთ თქვენ eResearchTechnology, Inc.-ის პროგრამული უზრუნველყოფის არა ექსკლუზიური, არაკომერციული გამოყენების უფლებას, რომელიც თან ახლავს ამ მოწყობილობას (\"პროგრამული უზრუნველყოფა\") და რომელიც კავშირშია ამ კლინიკური კვლევის შეთანხმებაში თქვენს მონაწილეობასთან: <strong>{{{ clinicalTrial }}}</strong>.  eResearchTechnology, Inc. პროგრამული უზრუნველყოფა დაცულია გაცემული და გაცემის რეჟიმში მყოფი პატენტებით.  წინამდებარე შეთანხმება არ განიჭებთ თქვენ ნებისმიერი პროგრამული უზრუნველყოფის რაიმე საკუთრების უფლებას (ან მისი ასლების შესაბამისად), არამედ წარმოადგენს მხოლოდ ლიცენზიას, რომ პროგრამული უზრუნველყოფა გამოყენებული იქნეს ამ შეთანხმების ყველა პირობების შესაბამისად.  პროგრამული უზრუნველყოფის დასახელება და შესაბამისად მისი სხვა შემადგენელი ნაწილები და ყველა საკუთრების და ინტელექტუალური უფლებები, რომელსაც ის მოიცვას, რჩება ლიცენზიის მფლობელის განკარგულებაში მუდმივად.</p><p>თქვენ ეთანხმებით, რომ პირდაპირ და ირიბად არ (i) შეცვლით პროგრამული უზრუნველყოფის ინჟინერიას, დაშლით ან დააკომპილირებთ მას; (Ii) დააკოპირებთ, გაავრცელებთ, აწარმოებთ, გაუკეთებთ ადაპტირებას, შეასრულებთ დერივაციებს, თარგმნით, გააკეთებთ ლოკალიზაციას, დააპორტირებთ ან სხვაგვარად შეცვლით პროგრამულ უზრუნველყოფას; ან (iii) წაშლით ან შეცვლით ნებისმიერ საავტორო, სავაჭრო საიდუმლოებას ან სხვა იურიდიულ შენიშვნებს, რომელიც მოიცავს ან ჩადებულია პროგრამული უზრუნველყოფაში.  თქვენ აღიარებთ და ეთანხმებით, რომ პროგრამული უზრუნველყოფა შეიძლება მოიცავდეს, კოდს, რომელიც ხელს უშლის პროგრამული უზრუნველყოფის უნებართვოდ გამოყენებას.</p><br><p>თუ თქვენ ეთანხმებით აღნიშნულს, გთხოვთ, აირჩიოთ – <strong>თანახმა ვარ</strong> –დაწკაპუნება ღილაკზე \"თანახმა ვარ\" აღნიშნავს, რომ თქვენ ეთანხმებით ლიცენზიის პირობებს.</p><p>თუ თქვენ არ ეთანხმებით აღნიშნულს, ან არ ხართ უფლებამოსილი დაეთანხმოთ მას, აირჩიეთ – <strong>I უარზე ვარ</strong> – ამ შემთხვევაში, პროგრამულ უზრუნველყოფაზე შემდგომი წვდომა დაბლოკილი იქნება.  უფლებამოსილების შემთხვევაში, თქვენ შეგიძლიათ დაეთანხმოთ მას სხვა დროს.</p>",
        "VISIT_EXPIRED_HEADER": "ვადაგასული ვიზიტი.",
        "VISIT_EXPIRED_MESSAGE": "ეს ვიზიტი აღარ არის მოქმედი, რადგან მისი ვადა ამოიწურა.",
        "VISIT_EXPIRED_MESSAGE_SUBJECT": "ეს ვიზიტი აღარ არის მოქმედი, რადგან მისი ვადა ამოიწურა. გთხოვთ, დაუბრუნოთ მოწყობილობა ცენტრის შესაბამის პერსონალს.",
        "SQ-AL": "ალბანური",
        "IMAGE_FOLDER": "{{{ imageFolder }}}",
		"MODAL_OK_TEXT": "კარგი",
        "BROWSER_LOAD_ERROR": "გვერდი არ მოიძებნა. გთხოვთ, შეამოწმეთ თქვენი ინტერნეტ კავშირი და კიდევ სცადეთ.",
		"NO_USER_OF_ROLE" : "მომხმარებელი ამ როლით არ მოიძებნა.",
		"EDIT_PATIENT_REASON_1": "ატრიბუტის მონაცემების კორექტირება",
		"EDIT_PATIENT_REASON_2": "ID-ის ცვლილება",
		"EDIT_PATIENT_REASON_3": "არჩეულია არასწორი ენა",
		"START_VISIT_OUTSIDE_WINDOW_MSG" : "შეიყვანეთ {{{ getVisitName }}} კონფიგურირებული დროის ფანჯრის გარეთ:<br /> {{{ startDate }}} - {{{ endDate }}}",
		"START_VISIT_HARD_STOP_MSG" : "თქვენ არ შეგიძლიათ შეიყვანოთ {{{ getVisitName }}} კონფიგურირებული დროის ფანჯრის გარეთ:<br /> {{{ startDate }}} - {{{ endDate }}}",
		"USER_NAME_INVALID_CHARACTERS" : "გთხოვთ, არ გამოიყენოთ სპეციალური სიმბოლოები",
		"ERROR_PATIENT_SAVE" : "ახალი პაციენტის დამატებისას მოხდა შეცდომა",
		"PASSWORD_CHANGE_FAILED" : "თქვენი კვლევის მონაცემების მოსაგროვებლად გააქტიურებულია სხვა მოწყობილობა. გთხოვთ, შეცვალოთ პაროლი ამ მოწყობილობაზე.",
		"ERROR" : "შეცდომა.  გთხოვთ, დაუკავშირდეთ ERT ტექნიკური მხარდაჭერის სამსახურს.",
		"ERROR_AFTER_ACTIVATION_SUCCESSFUL" : "მოხდა შეცდომა. თქვენ დაგჭირდებათ დასაყენებელი კოდისა და პაროლის შეყვანა.",
		"CONNECTION_TIMEOUT" : "კავშირის დრო ამოიწურა.",
		"UPDATE_FAILED" : "ERT განახლება არ დასრულებულა. გთხოვთ, დარწმუნდეთ, რომ მოწყობილობა კავშირშია ინტერნეტთან და სცადეთ ხელახლა."
    },
    "dates": {
        "setDateButtonLabel": "თარიღის დაყენება",
        "setTimeButtonLabel": "კარგი",
        "setDurationButtonLabel": "ხანგრძლივობის დაყენება",
        "calTodayButtonLabel": "დღევანდელზე გადასვლა",
        "titleDateDialogLabel": "თარიღის დაყენება",
        "titleTimeDialogLabel": "დროის დაყენება",
        "daysOfWeek": [
            "კვირა",
            "ორშაბათი",
            "სამშაბათი",
            "ოთხშაბათი",
            "ხუთშაბათი",
            "პარასკევი",
            "შაბათი"
        ],
        "daysOfWeekShort": [
            "კვი",
            "ორშ",
            "სამ",
            "ოთხ",
            "ხუთ",
            "პარ",
            "შაბ"
        ],
        "monthsOfYear": [
            "იანვარი",
            "თებერვალი",
            "მარტი",
            "აპრილი",
            "მაისი",
            "ივნისი",
            "ივლისი",
            "აგვისტო",
            "სექტემბერი",
            "ოქტომბერი",
            "ნოემბერი",
            "დეკემბერი"
        ],
        "monthsOfYearShort": [
            "იან",
            "თებ",
            "მარ",
            "აპრ",
            "მაი",
            "ივნ",
            "ივლ",
            "აგვ",
            "სექ",
            "ოქტ",
            "ნოე",
            "დეკ"
        ],
        "durationLabel": [
            "დღეები",
            "საათები",
            "წუთები",
            "წამები"
        ],
        "durationDays": [
            "დღე",
            "დღეები"
        ],
        "tooltip": "თარიღის ამომრჩევის გახსნა",
        "nextMonth": "შემდეგი თვე",
        "prevMonth": "წინა თვე",
        "clearButton": "გასუფთავება",
        "meridiem": [
            "AM",
            "PM"
        ]
    }
}
