^C:\USERS\COREY\PHT-DEV-SYNDICATION-WINDOWS\TARGET\SITEPAD\PLUGINS\CORDOVA-SQLITE-STORAGE\SRC\WINDOWS\SQLITE3-WIN-RT\SQLITE3\SQLITE3.UWP\X64\DEBUG\CONSTANTS.OBJ|C:\USERS\COREY\PHT-DEV-SYNDICATION-WINDOWS\TARGET\SITEPAD\PLUGINS\CORDOVA-SQLITE-STORAGE\SRC\WINDOWS\SQLITE3-WIN-RT\SQLITE3\SQLITE3.UWP\X64\DEBUG\DATABASE.OBJ|C:\USERS\COREY\PHT-DEV-SYNDICATION-WINDOWS\TARGET\SITEPAD\PLUGINS\CORDOVA-SQLITE-STORAGE\SRC\WINDOWS\SQLITE3-WIN-RT\SQLITE3\SQLITE3.UWP\X64\DEBUG\PCH.OBJ|C:\USERS\COREY\PHT-DEV-SYNDICATION-WINDOWS\TARGET\SITEPAD\PLUGINS\CORDOVA-SQLITE-STORAGE\SRC\WINDOWS\SQLITE3-WIN-RT\SQLITE3\SQLITE3.UWP\X64\DEBUG\SQLITE3.OBJ|C:\USERS\COREY\PHT-DEV-SYNDICATION-WINDOWS\TARGET\SITEPAD\PLUGINS\CORDOVA-SQLITE-STORAGE\SRC\WINDOWS\SQLITE3-WIN-RT\SQLITE3\SQLITE3.UWP\X64\DEBUG\STATEMENT.OBJ
C:\WINDOWS\GLOBALIZATION\SORTING\SORTDEFAULT.NLS
C:\PROGRAM FILES (X86)\WINDOWS KITS\10\LIB\10.0.10586.0\UM\X64\WINDOWSAPP.LIB
C:\USERS\COREY\PHT-DEV-SYNDICATION-WINDOWS\TARGET\SITEPAD\PLUGINS\CORDOVA-SQLITE-STORAGE\SRC\WINDOWS\SQLITE3-WIN-RT\SQLITE3\SQLITE3.UWP\X64\DEBUG\CONSTANTS.OBJ
C:\USERS\COREY\PHT-DEV-SYNDICATION-WINDOWS\TARGET\SITEPAD\PLUGINS\CORDOVA-SQLITE-STORAGE\SRC\WINDOWS\SQLITE3-WIN-RT\SQLITE3\SQLITE3.UWP\X64\DEBUG\DATABASE.OBJ
C:\USERS\COREY\PHT-DEV-SYNDICATION-WINDOWS\TARGET\SITEPAD\PLUGINS\CORDOVA-SQLITE-STORAGE\SRC\WINDOWS\SQLITE3-WIN-RT\SQLITE3\SQLITE3.UWP\X64\DEBUG\STATEMENT.OBJ
C:\USERS\COREY\PHT-DEV-SYNDICATION-WINDOWS\TARGET\SITEPAD\PLUGINS\CORDOVA-SQLITE-STORAGE\SRC\WINDOWS\SQLITE3-WIN-RT\SQLITE3\SQLITE3.UWP\X64\DEBUG\SQLITE3.OBJ
C:\USERS\COREY\PHT-DEV-SYNDICATION-WINDOWS\TARGET\SITEPAD\PLUGINS\CORDOVA-SQLITE-STORAGE\SRC\WINDOWS\SQLITE3-WIN-RT\SQLITE3\SQLITE3.UWP\X64\DEBUG\PCH.OBJ
C:\WINDOWS\MICROSOFT.NET\FRAMEWORK\V2.0.50727\MSCORWKS.DLL
C:\WINDOWS\MICROSOFT.NET\FRAMEWORK\V4.0.30319\CLR.DLL
C:\PROGRAM FILES (X86)\MICROSOFT VISUAL STUDIO 14.0\VC\BIN\X86_AMD64\LINK.EXE.CONFIG
C:\PROGRAM FILES (X86)\MICROSOFT VISUAL STUDIO 14.0\VC\LIB\STORE\AMD64\VCCORLIBD.LIB
C:\PROGRAM FILES (X86)\MICROSOFT VISUAL STUDIO 14.0\VC\LIB\STORE\AMD64\MSVCRTD.LIB
C:\PROGRAM FILES (X86)\MICROSOFT VISUAL STUDIO 14.0\VC\LIB\STORE\AMD64\OLDNAMES.LIB
C:\PROGRAM FILES (X86)\WINDOWS KITS\10\LIB\10.0.10586.0\UM\X64\UUID.LIB
C:\PROGRAM FILES (X86)\MICROSOFT VISUAL STUDIO 14.0\VC\LIB\STORE\AMD64\MSVCPRTD.LIB
C:\PROGRAM FILES (X86)\MICROSOFT VISUAL STUDIO 14.0\VC\LIB\STORE\AMD64\VCRUNTIMED.LIB
C:\PROGRAM FILES (X86)\WINDOWS KITS\10\LIB\10.0.10586.0\UCRT\X64\UCRTD.LIB
C:\WINDOWS\SYSTEM32\TZRES.DLL
C:\PROGRAM FILES (X86)\MICROSOFT VISUAL STUDIO 14.0\VC\BIN\X86_AMD64\1033\LINKUI.DLL
