^C:\Users\Corey\pht-dev-syndication-windows\target\sitepad\plugins\cordova-sqlite-storage\src\windows\SQLite3-Win-RT\SQLite3\SQLite3.UWP\SQLite3.UWP.vcxproj
C:\Users\Corey\pht-dev-syndication-windows\target\sitepad\plugins\cordova-sqlite-storage\src\windows\SQLite3-Win-RT\SQLite3\SQLite3.UWP\x64\Debug\priconfig.xml
C:\Users\Corey\pht-dev-syndication-windows\target\sitepad\plugins\cordova-sqlite-storage\src\windows\SQLite3-Win-RT\SQLite3\SQLite3.UWP\x64\Debug\layout.resfiles
C:\Users\Corey\pht-dev-syndication-windows\target\sitepad\plugins\cordova-sqlite-storage\src\windows\SQLite3-Win-RT\SQLite3\SQLite3.UWP\x64\Debug\resources.resfiles
C:\Users\Corey\pht-dev-syndication-windows\target\sitepad\plugins\cordova-sqlite-storage\src\windows\SQLite3-Win-RT\SQLite3\SQLite3.UWP\x64\Debug\pri.resfiles
C:\Users\Corey\pht-dev-syndication-windows\target\sitepad\plugins\cordova-sqlite-storage\src\windows\SQLite3-Win-RT\SQLite3\SQLite3.UWP\x64\Debug\embed.resfiles
