{
    "namespace" : "PROMIS",
    "language"  : "es",
    "locale"    : "US",
    "direction" : "ltr",
    "resources" : {
        "DISPLAY_NAME"            : "PROMIS",
        "PROMIS_94010_1_Q1_TEXT"  : "En los últimos 7 días…<br>&nbsp;<br>¿En qué medida el dolor interfirió en su capacidad para disfrutar de la vida?",
        "PROMIS_94010_1_Q1_TITLE" : "",
        "PROMIS_94011_3_Q1_TEXT"  : "En los últimos 7 días…<br>&nbsp;<br>¿En qué medida el dolor interfirió en su capacidad para concentrarse?",
        "PROMIS_94011_3_Q1_TITLE" : "",
        "PROMIS_94012_3_Q1_TEXT"  : "En los últimos 7 días…<br>&nbsp;<br>¿En qué medida el dolor interfirió en sus actividades diarias?",
        "PROMIS_94012_3_Q1_TITLE" : "",
        "PROMIS_94020_2_Q1_TEXT"  : "En los últimos 7 días…<br>&nbsp;<br>¿En qué medida el dolor interfirió en su capacidad para disfrutar de actividades recreativas o de ocio?",
        "PROMIS_94020_2_Q1_TITLE" : "",
        "PROMIS_94030_5_Q1_TEXT"  : "En los últimos 7 días…<br>&nbsp;<br>¿En qué medida el dolor interfirió en su capacidad para realizar tareas fuera del hogar (p. ej., hacer la compra o los mandados)?",
        "PROMIS_94030_5_Q1_TITLE" : "",
        "PROMIS_94040_6_Q1_TEXT"  : "En los últimos 7 días…<br>&nbsp;<br>¿Con qué frecuencia el dolor le impidió socializar con otras personas?",
        "PROMIS_94040_6_Q1_TITLE" : "",
        "PROMIS_94010_1_Q1_W0_A0" : "Nada",
        "PROMIS_94010_1_Q1_W0_A1" : "Un poco",
        "PROMIS_94010_1_Q1_W0_A2" : "Algo",
        "PROMIS_94010_1_Q1_W0_A3" : "Mucho",
        "PROMIS_94010_1_Q1_W0_A4" : "Muchísimo",
        "PROMIS_94011_3_Q1_W0_A0" : "Nada",
        "PROMIS_94011_3_Q1_W0_A1" : "Un poco",
        "PROMIS_94011_3_Q1_W0_A2" : "Algo",
        "PROMIS_94011_3_Q1_W0_A3" : "Mucho",
        "PROMIS_94011_3_Q1_W0_A4" : "Muchísimo",
        "PROMIS_94012_3_Q1_W0_A0" : "Nada",
        "PROMIS_94012_3_Q1_W0_A1" : "Un poco",
        "PROMIS_94012_3_Q1_W0_A2" : "Algo",
        "PROMIS_94012_3_Q1_W0_A3" : "Mucho",
        "PROMIS_94012_3_Q1_W0_A4" : "Muchísimo",
        "PROMIS_94020_2_Q1_W0_A0" : "Nada",
        "PROMIS_94020_2_Q1_W0_A1" : "Un poco",
        "PROMIS_94020_2_Q1_W0_A2" : "Algo",
        "PROMIS_94020_2_Q1_W0_A3" : "Mucho",
        "PROMIS_94020_2_Q1_W0_A4" : "Muchísimo",
        "PROMIS_94030_5_Q1_W0_A0" : "Nada",
        "PROMIS_94030_5_Q1_W0_A1" : "Un poco",
        "PROMIS_94030_5_Q1_W0_A2" : "Algo",
        "PROMIS_94030_5_Q1_W0_A3" : "Mucho",
        "PROMIS_94030_5_Q1_W0_A4" : "Muchísimo",
        "PROMIS_94040_6_Q1_W0_A0" : "Nunca",
        "PROMIS_94040_6_Q1_W0_A1" : "Rara vez",
        "PROMIS_94040_6_Q1_W0_A2" : "Algunas veces",
        "PROMIS_94040_6_Q1_W0_A3" : "A menudo",
        "PROMIS_94040_6_Q1_W0_A4" : "Siempre"
    }
}
