{
    "namespace" : "MSQ",
    "language"  : "de",
    "locale"    : "DE",
    "direction" : "ltr",
    "resources" : {
        "DISPLAY_NAME"       : "MSQ",
        "MSQ_9211_Q0_TEXT"   : "Bitte füllen Sie diesen Fragebogen aus. Er soll uns helfen, etwas über die Auswirkungen der Migräne auf Ihre täglichen Aktivitäten zu erfahren.<br>Der Fragebogen ist so aufgebaut, dass er schnell und einfach ausgefüllt werden kann.<br>Vielen Dank für Ihre Zeit.<br><br>Kontaktinformationen und Nutzungserlaubnis für den Fragebogen: Mapi Research Trust, Lyon, France. Internet: https://eprovide.mapi-trust.org",
        "MSQ_9211_Q0_TITLE"  : "",
        "MSQ_9212_Q0_TEXT"   : "Wenn Sie die folgenden Fragen beantworten, denken Sie bitte an ALLE MIGRÄNEANFÄLLE, die Sie IN DEN LETZTEN 4 WOCHEN vielleicht hatten.",
        "MSQ_9212_Q0_TITLE"  : "",
        "MSQ_9213_Q0_TEXT"   : "Wie oft hat Migräne in den LETZTEN 4 WOCHEN Ihr Verhalten gegenüber Ihrer Familie, Freunden und anderen, die Ihnen nahe stehen, BEEINTRÄCHTIGT?",
        "MSQ_9213_Q0_TITLE"  : "",
        "MSQ_9214_Q0_TEXT"   : "Wie oft hat Migräne in den LETZTEN 4 WOCHEN Ihre Freizeitbeschäftigungen, wie etwa Lesen oder körperliche Betätigung, BEEINTRÄCHTIGT?",
        "MSQ_9214_Q0_TITLE"  : "",
        "MSQ_9215_Q0_TEXT"   : "Wie oft hatten Sie in den LETZTEN 4 WOCHEN wegen Migräne SCHWIERIGKEITEN, Ihre Arbeit zu tun oder Ihren täglichen Aktivitäten nachzugehen?",
        "MSQ_9215_Q0_TITLE"  : "",
        "MSQ_9216_Q0_TEXT"   : "Wie oft hat Migräne Sie in den LETZTEN 4 WOCHEN davon ABGEHALTEN bei der Arbeit oder zu Hause soviel zu schaffen wie sonst?",
        "MSQ_9216_Q0_TITLE"  : "",
        "MSQ_9217_Q0_TEXT"   : "Wie oft hat Migräne in den LETZTEN 4 WOCHEN Ihre Fähigkeit EINGESCHRÄNKT, sich auf Ihre Arbeit oder täglichen Aktivitäten zu konzentrieren?",
        "MSQ_9217_Q0_TITLE"  : "",
        "MSQ_9218_Q0_TEXT"   : "Wie oft waren Sie in den LETZTEN 4 WOCHEN wegen Migräne ZU MÜDE zur Arbeit oder für die täglichen Aktivitäten?",
        "MSQ_9218_Q0_TITLE"  : "",
        "MSQ_9219_Q0_TEXT"   : "Wie oft haben Sie sich in den LETZTEN 4 WOCHEN wegen Migräne WENIGER TATKRÄFTIG gefühlt?",
        "MSQ_9219_Q0_TITLE"  : "",
        "MSQ_92110_Q0_TEXT"  : "Wie oft mussten Sie in den LETZTEN 4 WOCHEN von der Arbeit fernbleiben oder tägliche Aktivitäten ABSAGEN, weil Sie Migräne hatten?",
        "MSQ_92110_Q0_TITLE" : "",
        "MSQ_92111_Q0_TEXT"  : "Wie oft haben Sie in den LETZTEN 4 WOCHEN, wenn Sie Migräne hatten, HILFE BENÖTIGT bei der Bewältigung von Routineaufgaben wie alltäglichen Hausarbeiten, bei der Erledigung von Dingen, die getan werden mussten, beim Einkaufen oder sich um andere kümmern?",
        "MSQ_92111_Q0_TITLE" : "",
        "MSQ_92112_Q0_TEXT"  : "Wie oft mussten Sie in den LETZTEN 4 WOCHEN die Arbeit oder tägliche Aktivitäten UNTERBRECHEN, um etwas gegen Migränesymptome zu tun?",
        "MSQ_92112_Q0_TITLE" : "",
        "MSQ_92113_Q0_TEXT"  : "Wie oft KONNTEN Sie in den LETZTEN 4 WOCHEN NICHT an Aktivitäten mit anderen Menschen wie Festen oder Essen mit Freunden teilnehmen, weil Sie Migräne hatten?",
        "MSQ_92113_Q0_TITLE" : "",
        "MSQ_92114_Q0_TEXT"  : "Wie oft waren Sie in den LETZTEN 4 WOCHEN wegen Ihrer Migräne frustriert oder hatten alles SATT?",
        "MSQ_92114_Q0_TITLE" : "",
        "MSQ_92115_Q0_TEXT"  : "Wie oft hatten Sie in den LETZTEN 4 WOCHEN das GEFÜHL, dass Sie anderen wegen Ihrer Migräne eine Last sind?",
        "MSQ_92115_Q0_TITLE" : "",
        "MSQ_92116_Q0_TEXT"  : "Wie oft hatten Sie in den LETZTEN 4 WOCHEN ANGST, andere wegen Ihrer Migräne zu enttäuschen?",
        "MSQ_92116_Q0_TITLE" : "",
        "MSQ_9213_Q0_W0_A0"  : "Nie",
        "MSQ_9213_Q0_W0_A1"  : "Selten",
        "MSQ_9213_Q0_W0_A2"  : "Manchmal",
        "MSQ_9213_Q0_W0_A3"  : "Ziemlich oft",
        "MSQ_9213_Q0_W0_A4"  : "Meistens",
        "MSQ_9213_Q0_W0_A5"  : "Immer",
        "MSQ_9214_Q0_W0_A0"  : "Nie",
        "MSQ_9214_Q0_W0_A1"  : "Selten",
        "MSQ_9214_Q0_W0_A2"  : "Manchmal",
        "MSQ_9214_Q0_W0_A3"  : "Ziemlich oft",
        "MSQ_9214_Q0_W0_A4"  : "Meistens",
        "MSQ_9214_Q0_W0_A5"  : "Immer",
        "MSQ_9215_Q0_W0_A0"  : "Nie",
        "MSQ_9215_Q0_W0_A1"  : "Selten",
        "MSQ_9215_Q0_W0_A2"  : "Manchmal",
        "MSQ_9215_Q0_W0_A3"  : "Ziemlich oft",
        "MSQ_9215_Q0_W0_A4"  : "Meistens",
        "MSQ_9215_Q0_W0_A5"  : "Immer",
        "MSQ_9216_Q0_W0_A0"  : "Nie",
        "MSQ_9216_Q0_W0_A1"  : "Selten",
        "MSQ_9216_Q0_W0_A2"  : "Manchmal",
        "MSQ_9216_Q0_W0_A3"  : "Ziemlich oft",
        "MSQ_9216_Q0_W0_A4"  : "Meistens",
        "MSQ_9216_Q0_W0_A5"  : "Immer",
        "MSQ_9217_Q0_W0_A0"  : "Nie",
        "MSQ_9217_Q0_W0_A1"  : "Selten",
        "MSQ_9217_Q0_W0_A2"  : "Manchmal",
        "MSQ_9217_Q0_W0_A3"  : "Ziemlich oft",
        "MSQ_9217_Q0_W0_A4"  : "Meistens",
        "MSQ_9217_Q0_W0_A5"  : "Immer",
        "MSQ_9218_Q0_W0_A0"  : "Nie",
        "MSQ_9218_Q0_W0_A1"  : "Selten",
        "MSQ_9218_Q0_W0_A2"  : "Manchmal",
        "MSQ_9218_Q0_W0_A3"  : "Ziemlich oft",
        "MSQ_9218_Q0_W0_A4"  : "Meistens",
        "MSQ_9218_Q0_W0_A5"  : "Immer",
        "MSQ_9219_Q0_W0_A0"  : "Nie",
        "MSQ_9219_Q0_W0_A1"  : "Selten",
        "MSQ_9219_Q0_W0_A2"  : "Manchmal",
        "MSQ_9219_Q0_W0_A3"  : "Ziemlich oft",
        "MSQ_9219_Q0_W0_A4"  : "Meistens",
        "MSQ_9219_Q0_W0_A5"  : "Immer",
        "MSQ_92110_Q0_W0_A0" : "Nie",
        "MSQ_92110_Q0_W0_A1" : "Selten",
        "MSQ_92110_Q0_W0_A2" : "Manchmal",
        "MSQ_92110_Q0_W0_A3" : "Ziemlich oft",
        "MSQ_92110_Q0_W0_A4" : "Meistens",
        "MSQ_92110_Q0_W0_A5" : "Immer",
        "MSQ_92111_Q0_W0_A0" : "Nie",
        "MSQ_92111_Q0_W0_A1" : "Selten",
        "MSQ_92111_Q0_W0_A2" : "Manchmal",
        "MSQ_92111_Q0_W0_A3" : "Ziemlich oft",
        "MSQ_92111_Q0_W0_A4" : "Meistens",
        "MSQ_92111_Q0_W0_A5" : "Immer",
        "MSQ_92112_Q0_W0_A0" : "Nie",
        "MSQ_92112_Q0_W0_A1" : "Selten",
        "MSQ_92112_Q0_W0_A2" : "Manchmal",
        "MSQ_92112_Q0_W0_A3" : "Ziemlich oft",
        "MSQ_92112_Q0_W0_A4" : "Meistens",
        "MSQ_92112_Q0_W0_A5" : "Immer",
        "MSQ_92113_Q0_W0_A0" : "Nie",
        "MSQ_92113_Q0_W0_A1" : "Selten",
        "MSQ_92113_Q0_W0_A2" : "Manchmal",
        "MSQ_92113_Q0_W0_A3" : "Ziemlich oft",
        "MSQ_92113_Q0_W0_A4" : "Meistens",
        "MSQ_92113_Q0_W0_A5" : "Immer",
        "MSQ_92114_Q0_W0_A0" : "Nie",
        "MSQ_92114_Q0_W0_A1" : "Selten",
        "MSQ_92114_Q0_W0_A2" : "Manchmal",
        "MSQ_92114_Q0_W0_A3" : "Ziemlich oft",
        "MSQ_92114_Q0_W0_A4" : "Meistens",
        "MSQ_92114_Q0_W0_A5" : "Immer",
        "MSQ_92115_Q0_W0_A0" : "Nie",
        "MSQ_92115_Q0_W0_A1" : "Selten",
        "MSQ_92115_Q0_W0_A2" : "Manchmal",
        "MSQ_92115_Q0_W0_A3" : "Ziemlich oft",
        "MSQ_92115_Q0_W0_A4" : "Meistens",
        "MSQ_92115_Q0_W0_A5" : "Immer",
        "MSQ_92116_Q0_W0_A0" : "Nie",
        "MSQ_92116_Q0_W0_A1" : "Selten",
        "MSQ_92116_Q0_W0_A2" : "Manchmal",
        "MSQ_92116_Q0_W0_A3" : "Ziemlich oft",
        "MSQ_92116_Q0_W0_A4" : "Meistens",
        "MSQ_92116_Q0_W0_A5" : "Immer"
    }
}
