{ 
    "namespace" : "PROMIS",
    "language"  : "de",
    "locale"    : "DE",
    "direction" : "ltr",
    "resources" : {
        "DISPLAY_NAME"            : "PROMIS",
        "PROMIS_94010_1_Q1_TEXT"  : "In den letzten 7 Tagen …<br>&nbsp;<br>Wie sehr beeinträchtigten Schmerzen Ihre Lebensfreude?",
        "PROMIS_94010_1_Q1_TITLE" : "",
        "PROMIS_94011_3_Q1_TEXT"  : "In den letzten 7 Tagen …<br>&nbsp;<br>Wie sehr beeinträchtigten Schmerzen Ihre Konzentrationsfähigkeit?",
        "PROMIS_94011_3_Q1_TITLE" : "",
        "PROMIS_94012_3_Q1_TEXT"  : "In den letzten 7 Tagen …<br>&nbsp;<br>Wie sehr beeinträchtigten Schmerzen Ihre Alltagsaktivitäten?",
        "PROMIS_94012_3_Q1_TITLE" : "",
        "PROMIS_94020_2_Q1_TEXT"  : "In den letzten 7 Tagen …<br>&nbsp;<br>Wie sehr beeinträchtigten Schmerzen Ihre Freude an Freizeitaktivitäten?",
        "PROMIS_94020_2_Q1_TITLE" : "",
        "PROMIS_94030_5_Q1_TEXT"  : "In den letzten 7 Tagen …<br>&nbsp;<br>Wie sehr beeinträchtigten Schmerzen Ihre außerhäuslichen Aufgaben (z. B. Lebensmittel einkaufen, Besorgungen machen)?",
        "PROMIS_94030_5_Q1_TITLE" : "",
        "PROMIS_94040_6_Q1_TEXT"  : "In den letzten 7 Tagen …<br>&nbsp;<br>Wie oft haben Schmerzen Sie davon abgehalten, Kontakte zu anderen Menschen zu pflegen?",
        "PROMIS_94040_6_Q1_TITLE" : "",
        "PROMIS_94010_1_Q1_W0_A0" : "Überhaupt nicht",
        "PROMIS_94010_1_Q1_W0_A1" : "Ein wenig",
        "PROMIS_94010_1_Q1_W0_A2" : "Mäßig",
        "PROMIS_94010_1_Q1_W0_A3" : "Ziemlich",
        "PROMIS_94010_1_Q1_W0_A4" : "Sehr",
        "PROMIS_94011_3_Q1_W0_A0" : "Überhaupt nicht",
        "PROMIS_94011_3_Q1_W0_A1" : "Ein wenig",
        "PROMIS_94011_3_Q1_W0_A2" : "Mäßig",
        "PROMIS_94011_3_Q1_W0_A3" : "Ziemlich",
        "PROMIS_94011_3_Q1_W0_A4" : "Sehr",
        "PROMIS_94012_3_Q1_W0_A0" : "Überhaupt nicht",
        "PROMIS_94012_3_Q1_W0_A1" : "Ein wenig",
        "PROMIS_94012_3_Q1_W0_A2" : "Mäßig",
        "PROMIS_94012_3_Q1_W0_A3" : "Ziemlich",
        "PROMIS_94012_3_Q1_W0_A4" : "Sehr",
        "PROMIS_94020_2_Q1_W0_A0" : "Überhaupt nicht",
        "PROMIS_94020_2_Q1_W0_A1" : "Ein wenig",
        "PROMIS_94020_2_Q1_W0_A2" : "Mäßig",
        "PROMIS_94020_2_Q1_W0_A3" : "Ziemlich",
        "PROMIS_94020_2_Q1_W0_A4" : "Sehr",
        "PROMIS_94030_5_Q1_W0_A0" : "Überhaupt nicht",
        "PROMIS_94030_5_Q1_W0_A1" : "Ein wenig",
        "PROMIS_94030_5_Q1_W0_A2" : "Mäßig",
        "PROMIS_94030_5_Q1_W0_A3" : "Ziemlich",
        "PROMIS_94030_5_Q1_W0_A4" : "Sehr",
        "PROMIS_94040_6_Q1_W0_A0" : "Nie",
        "PROMIS_94040_6_Q1_W0_A1" : "Selten",
        "PROMIS_94040_6_Q1_W0_A2" : "Manchmal",
        "PROMIS_94040_6_Q1_W0_A3" : "Oft",
        "PROMIS_94040_6_Q1_W0_A4" : "Immer"
    }
}
