{
    "namespace" : "MIDAS",
    "language"  : "de",
    "locale"    : "DE", 
    "direction" : "ltr",
    "resources" : {
        "DISPLAY_NAME"                             : "MIDAS", 
        "MIDAS_9311_Q0_TEXT"                       : "Bitte beantworten Sie die folgenden Fragen über ALLE Kopfschmerzattacken, die Sie in den letzten drei Monaten hatten.<br>Schreiben Sie 0, wenn die Antwort negativ ist. ",
        "MIDAS_9311_Q0_TITLE"                      : "",
        "MIDAS_9312_Q0_TEXT"                       : "An wie vielen Tagen in den letzten drei Monaten sind Sie wegen Kopfschmerzen nicht zur Arbeit oder zur Schule gegangen?",
        "MIDAS_9312_Q0_TITLE"                      : "",
        "MIDAS_9313_Q0_TEXT"                       : "An wie vielen Tagen war in den letzten drei Monaten Ihre Leistungsfähigkeit am Arbeitsplatz oder in der Schule um die Hälfte oder mehr eingeschränkt?<br> <br>(Zählen Sie die Tage, die Sie bei Frage 1 angaben, NICHT dazu)",
        "MIDAS_9313_Q0_TITLE"                      : "",
        "MIDAS_9314_Q0_TEXT"                       : "An wie vielen Tagen in den letzten drei Monaten konnten Sie wegen Ihrer Kopfschmerzen keine Hausarbeit verrichten?<br> <br>(Zählen Sie nicht die Tage, die Sie in der vorherigen Frage angegeben haben)",
        "MIDAS_9314_Q0_TITLE"                      : "",
        "MIDAS_9314_1_Q0_TEXT"                       : "An wie vielen Tagen in den letzten drei Monatenwar Ihre Leistungsfähigkeit im Haushalt um die Hälfte oder mehr eingeschränkt?<br><br> (Zählen Sie nicht die Tage, die Sie in der vorherigen Frage angegeben haben)",
        "MIDAS_9314_1_Q0_TITLE"                      : "",
        "MIDAS_9315_Q0_TEXT"                       : "An wie vielen Tagen in den letzten drei Monaten haben Sie an familiären, sozialen oder Freizeitaktivitäten wegen Ihrer Kopfschmerzen nicht teilnehmen können?",
        "MIDAS_9315_Q0_TITLE"                      : "",
        "MIDAS_9316_Q0_TEXT"                       : "An wie vielen Tagen hatten Sie in den letzten drei Monaten Kopfschmerzen?<br> <br>(Wenn die Kopfschmerzen länger als einen Tag angehalten haben, zählen Sie jeden Tag)",
        "MIDAS_9316_Q0_TITLE"                      : "",
        "MIDAS_9317_Q0_TEXT"                       : "Bitte geben Sie die Schmerzintensität auf einer Skala von 0 - 10 an.",
        "MIDAS_9317_Q0_TITLE"                      : "",
        "MIDAS_9317_Q0_W0_DisplayText"             : "NRS",
        "MIDAS_9317_Q0_W0_LeftMarker"              : "<span style='font-size: 13px'>keine Schmerzen</span>",
        "MIDAS_9317_Q0_W0_RightMarker"             : "<span style='font-size: 13px'>unerträgliche Schmerzen</span>",
        "MIDAS_9317_Q0_W0_A1"                        : "1",
        "MIDAS_9317_Q0_W0_A2"                        : "2",
        "MIDAS_9317_Q0_W0_A3"                        : "3",
        "MIDAS_9317_Q0_W0_A4"                        : "4",
        "MIDAS_9317_Q0_W0_A5"                        : "5",
        "MIDAS_9317_Q0_W0_A6"                        : "6",
        "MIDAS_9317_Q0_W0_A7"                        : "7",
        "MIDAS_9317_Q0_W0_A8"                        : "8",
        "MIDAS_9317_Q0_W0_A9"                        : "9",
        "MIDAS_9317_Q0_W0_A10"                       : "10",
        "MIDAS_9312_Q0_W0_modalTitle"              : " ",
        "MIDAS_9312_Q0_W0_labels_label1"           : "Tage",
        "MIDAS_9312_Q0_W0_CLICK_TO_MAKE_SELECTION" : " ",
        "MIDAS_9312_Q0_W0_okButtonText"            : "OK",
        "MIDAS_9312_Q0_W0spinnerInputOptions"      : "OK",
        "MIDAS_9313_Q0_W0_modalTitle"              : " ",
        "MIDAS_9313_Q0_W0_labels_label1"           : "Tage",
        "MIDAS_9313_Q0_W0_CLICK_TO_MAKE_SELECTION" : " ",
        "MIDAS_9313_Q0_W0_okButtonText"            : "OK",
        "MIDAS_9313_Q0_W0spinnerInputOptions"      : "OK",
        "MIDAS_9314_Q0_W0_modalTitle"              : " ",
        "MIDAS_9314_Q0_W0_labels_label1"           : "Tage",
        "MIDAS_9314_Q0_W0_CLICK_TO_MAKE_SELECTION" : " ",
        "MIDAS_9314_Q0_W0_okButtonText"            : "OK",
        "MIDAS_9314_Q0_W0spinnerInputOptions"      : "OK",
        "MIDAS_9314_1_Q0_W0_modalTitle"              : " ",
        "MIDAS_9314_1_Q0_W0_labels_label1"           : "Tage",
        "MIDAS_9314_1_Q0_W0_CLICK_TO_MAKE_SELECTION" : " ",
        "MIDAS_9314_1_Q0_W0_okButtonText"            : "OK",
        "MIDAS_9314_1_Q0_W0spinnerInputOptions"      : "OK",
        "MIDAS_9315_Q0_W0_modalTitle"              : " ",
        "MIDAS_9315_Q0_W0_labels_label1"           : "Tage",
        "MIDAS_9315_Q0_W0_CLICK_TO_MAKE_SELECTION" : " ",
        "MIDAS_9315_Q0_W0_okButtonText"            : "OK",
        "MIDAS_9315_Q0_W0spinnerInputOptions"      : "OK",
        "MIDAS_9316_Q0_W0_modalTitle"              : " ",
        "MIDAS_9316_Q0_W0_labels_label1"           : "Tage",
        "MIDAS_9316_Q0_W0_CLICK_TO_MAKE_SELECTION" : " ",
        "MIDAS_9316_Q0_W0_okButtonText"            : "OK",
        "MIDAS_9316_Q0_W0spinnerInputOptions"      : "OK"
    }
}


