<?xml version="1.0" encoding="utf-8"?>
<!-- Generator: Adobe Illustrator 19.1.0, SVG Export Plug-In . SVG Version: 6.00 Build 0)  -->
<svg version="1.1" id="Layer_1" xmlns="http://www.w3.org/2000/svg" xmlns:xlink="http://www.w3.org/1999/xlink" x="0px" y="0px"
	 viewBox="0 0 50 50" style="enable-background:new 0 0 50 50;" xml:space="preserve">
<style type="text/css">
	.st0{fill:#D0DD40;}
</style>
<path class="st0" d="M47.8,11c0-0.4-0.1-0.7-0.2-1c-0.1-0.3-0.2-0.7-0.3-1c-0.1-0.2-0.1-0.3-0.2-0.5c-0.5-1.5-1.4-2.9-2.6-4.2
	c-0.3-0.3-0.5-0.5-0.8-0.8c-0.1-0.1-0.3-0.2-0.4-0.3c-0.7-0.5-1.5-1-2.4-1.3c-0.2-0.1-0.3-0.1-0.5-0.2C39.3,1.2,38.1,1,36.8,1
	c-1.2,0-2.5,0.2-3.6,0.6c-0.2,0.1-0.3,0.1-0.5,0.2c-0.8,0.3-1.6,0.8-2.4,1.3c-0.1,0.1-0.3,0.2-0.4,0.3C29.6,3.7,29.3,4,29,4.2
	l-8.3,8.3l-4.1,4.1l0,0L4.2,29c-4.3,4.3-4.3,11.3,0,15.6c2.2,2.2,5,3.2,7.8,3.2c2.8,0,5.6-1.1,7.8-3.2l12.4-12.4v0l12.4-12.4
	c0.3-0.3,0.5-0.5,0.8-0.8c0.7-0.9,1.3-1.8,1.7-2.8c0.5-1.2,0.7-2.4,0.8-3.6c0-0.2,0-0.4,0-0.5C47.8,11.7,47.8,11.3,47.8,11z
	 M23.8,14l8.1-8.1c0.6-0.6,1.6-0.6,2.2,0v0c0.6,0.6,0.6,1.6,0,2.2L26,16.2c-0.6,0.6-1.6,0.6-2.2,0S23.2,14.6,23.8,14z M18.1,42.9
	c-1.6,1.6-3.8,2.5-6.1,2.5c-2.3,0-4.5-0.9-6.1-2.5c-1.6-1.6-2.5-3.8-2.5-6.1c0-2.3,0.9-4.5,2.5-6.1l12.4-12.4l12.2,12.2L18.1,42.9z"
	/>
</svg>
