{
  "namespace": "CORE",
  "language": "sv",
  "locale": "FI",
  "localized": "Svenska (Finland)",
  "direction": "ltr",
  "resources": {
    "ABOUT": "Om",
    "ACTIVATED_ELSEWHERE": "En annan enhet har aktiverats för insamling av din studieinformation. Kontakta studiekoordinatorn om du tror att detta var ett misstag.",
    "ACTIVATION_CODE": "Konfigurationskod:",
    "AFFIDAVIT": "Välj OK och sedan Nästa när du är redo att spara dina svar.",
    "AFFIDAVIT_HELP": "Tack. Du har uppgett alla obligatoriska svar. Du kan kontrollera och ändra dina svar genom att välja Bakåt.",
    "ANSWER_ATTEMPT_EXCEEDED": "Du har uppgett ett felaktigt svar för många gånger eller klickat på länken för glömt säkerhetssvar.",
    "APPLICATION_HEADER": "ERT",
    "BACK": "Bakåt",
    "BACK_OUT_CONFIRM": "Är du säker på att du vill avsluta? Svaren i det här formuläret raderas.",
    "CANCEL": "Avbryt",
    "CANCEL_UPDATE": "Avbryt uppdatering",
    "CHANGE_PASSWORD": "Ändra lösenord",
    "CHANGE_SECRET_QUESTION": "Ändra säkerhetsfråga",
    "CONNECTION_REQUIRED": "En Internet-anslutning krävs.",
    "CONNECTION_TIMEOUT": "Anslutningen har passerat tidsgränsen.",
    "CONFIRM_PASSWORD": "Bekräfta lösenordet:",
    "CONTACT_STUDY_COORDINATOR": "Kontakta studiekoordinatorn",
    "CONTACT_UNLOCK_CODE": "Kontakta studiekoordinatorn för att få en upplåsningskod för idag:",
    "CORE_PRODUCT_VERSION_LABEL": "Produktversion:",
    "CURRENT_DATE": "{{{ currentDate }}}",
    "CURRENT_PASSWORD": "Aktuellt lösenord:",
    "DATE_LBL": "Datum:",
    "DEACTIVATED_LABEL": "Din användning av ERT för den här studien har avslutats. Kontakta studiekoordinatorn om detta inte stämmer.",
    "DEVICE_ACTIVATION": "Konfiguration",
    "DEVICE_NOT_SUPPORTED": "Den här enheten stöds inte. Kontakta studiekoordinatorn för information om godkända enheter som används i den här studien.",
    "DEVICE_REACTIVATION": "Enhetsinställningar",
    "DIARY_TIMEOUT": "Det här formuläret har passerat tidsgränsen.",
    "DOWNLOAD_FAILED": "Apphämtningen avbröts. Försök igen när du har en Internet-anslutning eller kontakta ERT-supportcenter.",
    "DOWNLOAD_FAILURE": "Hämtningen avbröts",
    "ENTER_NEW_PASSWORD": "Nytt lösenord:",
    "ERROR": "Fel. Kontakta ERT-supportcenter.",
    "ERROR_AFTER_ACTIVATION_SUCCESSFUL": "Ett fel har inträffat. Du behöver ange konfigurationskod och lösenord.",
    "ERROR_CODE": "Felkod:",
    "ERROR_TITLE": "Fel",
    "FORGOT_PASSWORD": "Har du glömt ditt lösenord?",
    "FORGOT_SECRET_ANSWER": "Har du glömt säkerhetssvaret?",
    "INCORRECT_ANSWER": "Fel svar",
    "INCORRECT_UNLOCK_CODE": "Fel upplåsningskod",
    "INSTALLING": "Installera app",
    "INVALID_CODE": "Ogiltig konfigurationskod",
    "LOCAL_STORAGE_FAILURE": "Lokalt lagringsfel",
    "LOG_IN": "Logga in",
    "LOG_LEVEL": "Loggningsnivå:",
    "LOGOUT": "Logga ut",
    "LOGOUT_CONFIRM": "Är du säker på att du vill logga ut?",
    "NEXT": "Nästa",
    "NEXT_ACTION": " Det är dags för din nästkommande åtgärd i ERT ",
    "NO_DIARIES_TITLE": "Inga formulär att öppna",
    "OK": "OK",
    "PASSWORD": "Lösenord:",
    "PASSWORD_ATTEMPT_EXCEEDED": "Du har uppgett ett felaktigt lösenord för många gånger eller klickat på länken för glömt lösenord.",
    "PASSWORD_CHANGE_FAILED": "En annan enhet har aktiverats för insamling av din studieinformation. Ändra lösenordet på enheten.",
    "PASSWORD_CHANGE_SUCCESS": "Du har uppdaterat lösenordet.",
    "PASSWORD_INVALID": "Fel lösenord",
    "PLEASE_ANSWER_SQ": "Besvara säkerhetsfrågan:",
    "PLEASE_CONFIRM": "Vänligen bekräfta",
    "PLEASE_CONTACT": "Kontakta ERT-supportcenter.",
    "PLEASE_TRY_OR_CONTACT_SUPPORT": "Försök igen eller kontakta ERT-supportcenter.",
    "PLEASE_WAIT": "Vänta...",
    "PORTRAIT_ONLY": "Håll enheten i upprätt läge.",
    "PRIVATE_BROWSING_ON": "Inaktivera privat sökning. Om du har fortsatta svårigheter ska du kontakta studiekoordinatorn.",
    "PRIVACY_POLICY": "Sekretesspolicy",
    "PRIVACY_POLICY_APPLICATION_UNAVAILABILITY": "ERT-sekretesspolicyn är inte tillgänglig just nu.",
    "PRIVACY_POLICY_ACTIVATION_UNAVAILABILITY": "ERT-sekretesspolicyn är inte tillgänglig just nu. ERT-sekretesspolicyn finns att hämta på inställningssidan efter aktiveringen.",
    "PROTOCOL": "Protokoll:",
    "REQUIRED_ANSWER": "Vänligen svara",
    "RETRY": "Försök igen",
    "RESET_PASSWORD": "Återställ lösenord",
    "RESET_SECRET_QUESTION": "Återställ säkerhetsfråga",
    "SECRET_ANSWER": "Säkerhetssvar:",
    "SECRET_QUESTION": "Säkerhetsfråga:",
    "SECRET_QUESTION_CHANGE_FAILED": "En annan enhet har aktiverats för insamling av din studieinformation. Ändra säkerhetsfrågan på enheten.",
    "SECRET_QUESTION_CHANGE_SUCCESS": "Du har uppdaterat lösenordet och säkerhetsfrågan.",
    "SETTINGS": "Inställningar",
    "SITE": "Klinik:",
    "SKIP_QUESTION": "Vill du hoppa över svaren på den här skärmen?",
    "SPONSOR": "Uppdragsgivare/Sponsor:",
    "STORED_REPORTS": "Lagrade rapporter:",
    "STUDY_VERSION": "Studieversion: ",
    "STUDY_URL": "Studie-URL:",
    "SUBJECT_ID": "Patientkod:",
    "TEMPORARY_UNLOCK_CODE": "Ange upplåsningskoden som tillhandahålls av studiekoordinatorn.",
    "TIME_LBL": "Tid:",
    "TRANSMIT_REPORTS": "Uppdatera",
    "UPDATE_CACHED_DELETED": "ERT-uppdateringen gick inte att slutföra. Du behöver en Internet-anslutning för att använda ERT. Kontakta ditt ERT-supportcenter.",
    "UPDATE_FAILED": "ERT-uppdateringen gick inte att slutföra. Säkerställ att den här enheten är ansluten till Internet och försök igen.",
    "UPDATE_FAILURE": "Uppdateringen ej slutförd",
    "UPDATE_SUCCESS": "Uppdatering genomförd",
    "WELCOME": "Välkommen",
    "ALARM_OFF_LBL": "Av",
    "ALARM_TURN_OFF": "Slå av",
    "SET_ALARMS": "Ställ in alarm",
    "SCHED_NO_DIARIES_AVAILABLE": "Inga formulär färdiga den här gången",
    "TRAINER": "Utbildarläge",
    "TRAINER_EXIT": "Avsluta utbildarläge",
    "TRAINER_EXIT_NOTIFICATION": "Du håller på att avsluta utbildarläge",
    "TRAINER_HEADER": "(Utbildarläge)",
    "ELPU_FAILURE": "Din användning av den här ERT-enheten har avslutats, men det har uppstått ett fel. Försök igen.",
    "ELPU_ON_REPLACED_DEVICE": "Din användning av den här ERT-enheten har avslutats. Använd din ersättningsenhet.",
    "SECURITY_QUESTION_0": "Vad är din mors flicknamn?",
    "SECURITY_QUESTION_1": "I vilken stad är du född?",
    "SECURITY_QUESTION_2": "Vad hette ditt första husdjur?",
    "SECURITY_QUESTION_3": "Vilken är din favoritsport?",
    "SECURITY_QUESTION_4": "Vilket år tog du examen?",
    "SECURITY_QUESTION_5": "Vilket mellannamn har ditt äldsta barn?",
    "SECURITY_QUESTION_6": "Vad hette din bästa barndomsvän?",
    "SECURITY_QUESTION_7": "Vad hette din lärare i tredje klass i efternamn?",
    "SECURITY_QUESTION_8": "I vilken stad eller ort hade du ditt första jobb?",
    "SELECT_SITE_USER": "Välj klinikanvändarens namn",
    "SITE_USER_NAME": "Klinikanvändarens namn:",
    "ADD_SITE_USER": "Lägg till en klinikanvändare",
    "INVALID_ENTRY": "Ogiltig inmatning",
    "HANDOFF_MESSAGE": "<strong>Patienten måste fylla i skärmarna som följer för att ställa in pinkoden för formuläret.</strong>",
    "REVERSE_HANDOFF_CONFIRM": "Om du väljer OK startar aktiveringsprocessen om igen. Är du säker på att du vill starta om aktiveringen?",
    "SITE_GATEWAY_TITLE": "Klinikens gateway",
    "USER_ALREADY_EXISTS": "Användaren finns redan",
    "SITE_SIGNATURE": "Signatur: ",
    "SITE_REPORT_AFF": "Jag har angivit, dubbelkontrollerat och bekräftar härmed föregående data.<p><strong>Signatur: {{{ getActiveUserName }}}</strong></p>",
    "CLEAR_SIGNATURE": "Radera signatur",
    "STUDY_ALIAS": "{{{ studyAlias }}}",
    "SITE_ACTIVATED_ELSEWHERE": "En annan enhet har aktiverats för insamling av patientens studieinformation. Kontakta studiekoordinatorn om du tror att detta var ett misstag.",
    "SITE_DEACTIVATED_LABEL": "Patientens användning av ERT för den här studien har avslutats. Kontakta studiekoordinatorn om detta inte stämmer.",
    "SIGNATURE_DATA_LIMIT_EXCEEDED": "Signaturfältet kunde inte representera signaturen exakt som den ritades. Signera med dina initialer istället.",
    "PAIRED": "Hopparad",
    "BLUETOOTH_REG_TITLE": "eSense enhetshopparning",
    "BLUETOOTH_REG_REFRESH_BUTTON": "Uppdatera lista",
    "BLUETOOTH_PAIR_DEVICE": "Para ihop vald enhet",
    "BLUETOOTH_PAIRING_FAILED": "Hopparning med vald enhet misslyckades. Försök igen.",
    "BLUETOOTH_PAIRING_SUCCESS": "Hopparning med vald enhet lyckades.",
    "BLUETOOTH_REG_NO_DEVICES_FOUND": "Inga enheter hittades. Säkerställ att enheten står nära ERT och befinner sig i överföringsläge.",
    "SYNC_FAILED": "Synkronisering med servern misslyckades.",
    "DIARY_REQUIRES_E_SENSE_SUPPORT": "eSense stöds inte. Det här formuläret kräver stöd för eSense.",
    "ERROR_E_SENSE_ENABLE": "eSense kunde inte aktiveras.",
    "E_SENSE_NOT_PAIRED": "Ingen eSense-enhet är hopparad. Det här formuläret kräver en hopparad eSense-enhet.",
    "BLUETOOTH_SYNC_FAILURE_TOP": "ERT kunde inte kommunicera med {{{ eSenseDeviceName }}}-enheten.",
    "BLUETOOTH_SYNC_FAILURE_MIDDLE": "Säkerställ att {{{ eSenseDeviceName }}}-enheten med nummer {{{ eSenseSerialNumber }}} står nära ERT och befinner sig i överföringsläge.",
    "PLUGIN_MISSING": "Kunde inte läsa in krävd plug-in.",
    "WRAPPER_VERSION": "Omslagsversion:",
    "SUPPORT": "Kundsupport",
    "SUPPORT_MESSAGE": "Användare i USA kan ringa till ERT-supportcentret på 800-748-5669. Internationella användare ska välja närmaste land nedan:",
    "SUPPORT_DROPDOWN": "Välj land",
    "SUPPORT_NAME_ARGENTINA": "Argentina",
    "SUPPORT_NUMBER_ARGENTINA": "<bdi>0800 444 0962</bdi>",
    "SUPPORT_NAME_ARMENIA": "Armenien",
    "SUPPORT_NUMBER_ARMENIA": "<bdi>+1 617 681 6306</bdi>",
    "SUPPORT_NAME_AUSTRALIA": "Australien",
    "SUPPORT_NUMBER_AUSTRALIA": "<bdi>1 800 800 051</bdi>",
    "SUPPORT_NAME_AUSTRIA": "Österrike",
    "SUPPORT_NUMBER_AUSTRIA": "<bdi>0800 100 405</bdi>",
    "SUPPORT_NAME_BELARUS": "Vitryssland",
    "SUPPORT_NUMBER_BELARUS": "<bdi>8 820 0321 0036</bdi>",
    "SUPPORT_NAME_BELGIUM": "Belgien",
    "SUPPORT_NUMBER_BELGIUM_1": "(Engelska): <bdi>0800 58 016</bdi>",
    "SUPPORT_NUMBER_BELGIUM_2": "(Franska): <bdi>0800 71 076</bdi>",
    "SUPPORT_NUMBER_BELGIUM_3": "(Tyska): <bdi>0800 71 113</bdi>",
    "SUPPORT_NAME_BRAZIL": "Brasilien",
    "SUPPORT_NUMBER_BRAZIL": "<bdi>0800 891 5909</bdi>",
    "SUPPORT_NAME_BOSNIA": "Bosnien",
    "SUPPORT_NUMBER_BOSNIA": "<bdi>+1 617 681 6306</bdi>",
    "SUPPORT_NAME_BULGARIA": "Bulgarien",
    "SUPPORT_NUMBER_BULGARIA": "<bdi>00800 0010</bdi>, sedan <bdi>866 245 4931</bdi>",
    "SUPPORT_NAME_CANADA": "Kanada",
    "SUPPORT_NUMBER_CANADA": "<bdi>1 800 748 5669</bdi>",
    "SUPPORT_NAME_CHILE": "Chile",
    "SUPPORT_NUMBER_CHILE": "<bdi>123 0020 3408</bdi>",
    "SUPPORT_NAME_CHINA": "Kina",
    "SUPPORT_NUMBER_CHINA_1": "NetCom (norr): <bdi>1 0800 74 40 164</bdi>",
    "SUPPORT_NUMBER_CHINA_2": "Telecom (syd): <bdi>1 0800 44 00 158</bdi>",
    "SUPPORT_NAME_COLOMBIA": "Colombia",
    "SUPPORT_NUMBER_COLOMBIA": "<bdi>01 800 911 0010</bdi>, sedan <bdi>866 310 3707</bdi>",
    "SUPPORT_NAME_COSTA_RICA": "Costa Rica",
    "SUPPORT_NUMBER_COSTA_RICA": "<bdi>0800 013 1210</bdi>",
    "SUPPORT_NAME_CROATIA": "Kroatien",
    "SUPPORT_NUMBER_CROATIA": "<bdi>0800 222 953</bdi>",
    "SUPPORT_NAME_CZECH_REPUBLIC": "Tjeckien",
    "SUPPORT_NUMBER_CZECH_REPUBLIC": "<bdi>800 142 150</bdi>",
    "SUPPORT_NAME_DENMARK": "Danmark",
    "SUPPORT_NUMBER_DENMARK": "<bdi>80 60 00 09</bdi>",
    "SUPPORT_NAME_EGYPT": "Egypten",
    "SUPPORT_NUMBER_EGYPT": "<bdi>02 510 0200</bdi>, sedan <bdi>866 310 3707</bdi>",
    "SUPPORT_NAME_EL_SALVADOR": "El Salvador",
    "SUPPORT_NUMBER_EL_SALVADOR": "<bdi>+1 617 681 6306</bdi>",
    "SUPPORT_NAME_ESTONIA": "Estland",
    "SUPPORT_NUMBER_ESTONIA": "<bdi>800 00 44 154</bdi>",
    "SUPPORT_NAME_FINLAND": "Finland",
    "SUPPORT_NUMBER_FINLAND": "<bdi>0800 11 6366</bdi>",
    "SUPPORT_NAME_FRANCE": "Frankrike",
    "SUPPORT_NUMBER_FRANCE": "<bdi>0800 10 19 79</bdi>",
    "SUPPORT_NAME_GERMANY": "Tyskland",
    "SUPPORT_NUMBER_GERMANY": "<bdi>0800 101 28 21</bdi>",
    "SUPPORT_NAME_GREECE": "Grekland",
    "SUPPORT_NUMBER_GREECE": "<bdi>00 800 1311</bdi>, sedan <bdi>866 310 3707</bdi>",
    "SUPPORT_NAME_GUATEMALA": "Guatemala",
    "SUPPORT_NUMBER_GUATEMALA": "<bdi>1 800 624 0079</bdi>",
    "SUPPORT_NAME_HONG_KONG": "Hongkong",
    "SUPPORT_NUMBER_HONG_KONG": "<bdi>3002 1665</bdi>",
    "SUPPORT_NAME_HUNGARY": "Ungern",
    "SUPPORT_NUMBER_HUNGARY": "<bdi>06 800 14 571</bdi>",
    "SUPPORT_NAME_ICELAND": "Island",
    "SUPPORT_NUMBER_ICELAND": "<bdi>800 8544</bdi>",
    "SUPPORT_NAME_INDIA": "Indien",
    "SUPPORT_NUMBER_INDIA": "<bdi>000 800 440 1125</bdi>",
    "SUPPORT_NAME_INDONESIA": "Indonesien",
    "SUPPORT_NUMBER_INDONESIA": "<bdi>008 800 330 334</bdi>",
    "SUPPORT_NAME_IRELAND": "Irland",
    "SUPPORT_NUMBER_IRELAND": "<bdi>1 800 946 700</bdi>",
    "SUPPORT_NAME_ISRAEL": "Israel",
    "SUPPORT_NUMBER_ISRAEL": "<bdi>1 809 470 062</bdi>",
    "SUPPORT_NAME_ITALY": "Italien",
    "SUPPORT_NUMBER_ITALY": "<bdi>800 90 56 37</bdi>",
    "SUPPORT_NAME_JAPAN": "Japan",
    "SUPPORT_NUMBER_JAPAN": "I ePRO-studieinformationsguiden finns det kostnadsfria telefonnumret för din studie",
    "SUPPORT_NAME_LATVIA": "Lettland",
    "SUPPORT_NUMBER_LATVIA": "<bdi>8000 2151</bdi>",
    "SUPPORT_NAME_LEBANON": "Libanon",
    "SUPPORT_NUMBER_LEBANON": "<bdi>01-426-801</bdi> sedan <bdi>866 310 3707</bdi>",
    "SUPPORT_NAME_LITHUANIA": "Litauen",
    "SUPPORT_NUMBER_LITHUANIA": "<bdi>8800 30207</bdi>",
    "SUPPORT_NAME_MALAYSIA": "Malaysia",
    "SUPPORT_NUMBER_MALAYSIA": "<bdi>1800 80 59 71</bdi>",
    "SUPPORT_NAME_MEXICO": "Mexiko",
    "SUPPORT_NUMBER_MEXICO_1": "(Engelska): <bdi>001 800 748 5669</bdi> ",
    "SUPPORT_NUMBER_MEXICO_2": "(Spanska): <bdi>001 855 631 6952</bdi>",
    "SUPPORT_NAME_MOLDOVA": "Moldavien",
    "SUPPORT_NUMBER_MOLDOVA": "<bdi>617 681 6306</bdi>",
    "SUPPORT_NAME_NETHERLANDS": "Nederländerna",
    "SUPPORT_NUMBER_NETHERLANDS": "<bdi>0800 023 1389</bdi>",
    "SUPPORT_NAME_NEW_ZEALAND": "Nya Zeeland",
    "SUPPORT_NUMBER_NEW_ZEALAND": "<bdi>0800 110 178</bdi>",
    "SUPPORT_NAME_NORWAY": "Norge",
    "SUPPORT_NUMBER_NORWAY": "<bdi>800 62 051</bdi>",
    "SUPPORT_NAME_PAKISTAN": "Pakistan",
    "SUPPORT_NUMBER_PAKISTAN": "<bdi>00 800 0100</bdi>, sedan <bdi>866 237 9767</bdi>",
    "SUPPORT_NAME_PANAMA": "Panama",
    "SUPPORT_NUMBER_PANAMA": "<bdi>001 800 201 3095</bdi>",
    "SUPPORT_NAME_PERU": "Peru",
    "SUPPORT_NUMBER_PERU": "<bdi>0800 5 0974</bdi>",
    "SUPPORT_NAME_PHILIPPINES": "Filippinerna",
    "SUPPORT_NUMBER_PHILIPPINES": "<bdi>1 800 1116 0651</bdi>",
    "SUPPORT_NAME_POLAND": "Polen",
    "SUPPORT_NUMBER_POLAND": "<bdi>00800 331 1262</bdi>",
    "SUPPORT_NAME_PORTUGAL": "Portugal",
    "SUPPORT_NUMBER_PORTUGAL": "<bdi>800 206 172</bdi>",
    "SUPPORT_NAME_PUERTO_RICO": "Puerto Rico (amerikanskt territorium)",
    "SUPPORT_NUMBER_PUERTO_RICO": "<bdi>1 800 748 5669</bdi>",
    "SUPPORT_NAME_ROMANIA": "Rumänien",
    "SUPPORT_NUMBER_ROMANIA": "<bdi>0800 894492</bdi>",
    "SUPPORT_NAME_RUSSIA": "Ryssland",
    "SUPPORT_NUMBER_RUSSIA_1": "(Primärt – Kostnadsfritt): <bdi>8 10 800 249 13011</bdi>",
    "SUPPORT_NUMBER_RUSSIA_2": "(inom Moskva): <bdi>363-2400</bdi> <br> sedan <bdi>866 310 3707</bdi>",
    "SUPPORT_NUMBER_RUSSIA_3": "(utanför Moskva): <bdi>8^(495) 363-2400</bdi> <br> sedan <bdi>866 310 3707</bdi>",
    "SUPPORT_NUMBER_RUSSIA_4": "(inom St. Petersburg): <bdi>363-2400</bdi> <br> sedan <bdi>866 310 3707</bdi>",
    "SUPPORT_NUMBER_RUSSIA_5": "(utanför St. Petersburg): <bdi>8^(495) 363-2400</bdi> <br> sedan <bdi>866 310 3707</bdi>",
    "SUPPORT_NAME_SAUDI_ARABIA": "Saudiarabien",
    "SUPPORT_NUMBER_SAUDI_ARABIA": "<bdi>+1 617 681 6306</bdi>",
    "SUPPORT_NAME_SERBIA": "Serbien",
    "SUPPORT_NUMBER_SERBIA": "<bdi>+1 617 973 1739</bdi>",
    "SUPPORT_NAME_SINGAPORE": "Singapore",
    "SUPPORT_NUMBER_SINGAPORE": "<bdi>800 616 30 03</bdi>",
    "SUPPORT_NAME_SLOVAKIA": "Slovakien",
    "SUPPORT_NUMBER_SLOVAKIA": "<bdi>0800 0044 65</bdi>",
    "SUPPORT_NAME_SLOVENIA": "Slovenien",
    "SUPPORT_NUMBER_SLOVENIA": "<bdi>+1 617 681 6306</bdi>",
    "SUPPORT_NAME_SOUTH_AFRICA": "Sydafrika",
    "SUPPORT_NUMBER_SOUTH_AFRICA": "<bdi>0800 99 5853</bdi>",
    "SUPPORT_NAME_SOUTH_KOREA": "Sydkorea",
    "SUPPORT_NUMBER_SOUTH_KOREA": "<bdi>00308 33 00 08</bdi>",
    "SUPPORT_NAME_SPAIN": "Spanien",
    "SUPPORT_NUMBER_SPAIN": "<bdi>900 90 2541</bdi>",
    "SUPPORT_NAME_SWEDEN": "Sverige",
    "SUPPORT_NUMBER_SWEDEN": "<bdi>020 120 99 69</bdi>",
    "SUPPORT_NAME_SWITZERLAND": "Schweiz",
    "SUPPORT_NUMBER_SWITZERLAND_1": "(Engelska): <bdi>0800 199 325</bdi>",
    "SUPPORT_NUMBER_SWITZERLAND_2": "(Franska): <bdi>0800 891 183</bdi>",
    "SUPPORT_NUMBER_SWITZERLAND_3": "(Tyska): <bdi>0800 891 025</bdi>",
    "SUPPORT_NAME_TAIWAN": "Taiwan",
    "SUPPORT_NUMBER_TAIWAN": "<bdi>00801 33 33 42</bdi>",
    "SUPPORT_NAME_THAILAND": "Thailand",
    "SUPPORT_NUMBER_THAILAND": "<bdi>1 800 33 140 353</bdi>",
    "SUPPORT_NAME_TUNISIA": "Tunisien",
    "SUPPORT_NUMBER_TUNISIA": "<bdi>+1 617 681 6306</bdi>",
    "SUPPORT_NAME_TURKEY": "Turkiet",
    "SUPPORT_NUMBER_TURKEY": "<bdi>00 800 151 1335</bdi>",
    "SUPPORT_NAME_UKRAINE": "Ukraina",
    "SUPPORT_NUMBER_UKRAINE": "<bdi>0^00 11</bdi>, sedan <bdi>866 245 4931</bdi>",
    "SUPPORT_NAME_UAE": "Förenade Arabemiraten",
    "SUPPORT_NUMBER_UAE": "<bdi>8000-021</bdi>, sedan <bdi>866 310 3707</bdi>",
    "SUPPORT_NAME_UK": "Storbritannien",
    "SUPPORT_NUMBER_UK": "<bdi>0800 015 0408</bdi>",
    "SUPPORT_NAME_US": "USA",
    "SUPPORT_NUMBER_US_1": "(Primärt): <bdi>1 800 748 5669</bdi>",
    "SUPPORT_NUMBER_US_2": "(Reserv): <bdi>1 877 748 5669</bdi>",
    "SUPPORT_NAME_VENEZUELA": "Venezuela",
    "SUPPORT_NUMBER_VENEZUELA_1": "(Engelska): <bdi>0 800 552 6288</bdi> <br> sedan <bdi>866 310 3707</bdi> ",
    "SUPPORT_NUMBER_VENEZUELA_2": "(Spanska): <bdi>0 800 100 3063</bdi> ",
    "USER_NAME": "Användarnamn:",
    "SUBJECT_ROLE": "Patientkod: {{{ getParticipantCode }}}",
    "SITE_ROLE": "Klinik",
    "TEMPORARY_PASSWORD_MESSAGE": "Ge det tillfälliga lösenordet till den nya användaren. De uppmanas skapa ett nytt lösenord efter att de har loggat in.",
    "SHARED_PASSWORD_MESSAGE": "Den nya användarens lösenord måste hämtas från StudyWorks.",
    "TEMP_PASSWORD": "Tillfälligt lösenord: ",
    "ROLES": "Roll:",
    "LANGUAGE": "Språk:",
    "FULL_NAME": "Fullständigt namn:",
    "CONFIRM_TEMP_PASS": "Bekräfta tillfälligt lösenord:",
    "PASSWORD_MISMATCH": "Lösenordsbekräftelsen stämmer inte överens med lösenordet",
    "PASSWORD_INVALID_CHARACTERS": "Använd endast nummer",
    "USER_NAME_INVALID_CHARACTERS": "Använd inte specialtecken",
    "USER_NAME_MORE_THAN_25": "Använd 25 tecken eller mindre",
    "PRIVACY_POLICY_VERSION_LABEL": "Version:",
    "PRIVACY_POLICY_VERSION": "1.6.0",
    "PRIVACY_POLICY_LAST_UPDATED_LABEL": "Senast uppdaterad:",
    "PRIVACY_POLICY_LAST_UPDATED": "21 jan 2014",
    "PRIVACY_POLICY_TEXT_LABEL": "Om sekretessen:",
    "PRIVACY_POLICY_TEXT": "ERT Corporation tillhandahåller den programvara du är på väg att installera. ERT samarbetar med kliniken som utför studien för att säkerställa att ingen får information om vem du är utan föregående tillstånd från kliniken. Du har rätt att se dina uppgifter genom att ombesörja en granskning via kliniken.",
    "SUBJECT_REPORT_AFF": "Jag försäkrar härmed att jag har besvarat alla frågorna efter bästa förmåga.",
    "SUBJECT_INITIALS_LABEL": "Patientens initialer:",
	"P_AFFIDAVIT_HEADER": "<div><strong>Klinik: {{{ getSiteCodeForSubject }}}</strong><br /><strong>Deltagarens kod: {{{ getParticipantCodeForSubject }}}</strong></div>",
	"PATIENT_REPORT_AFF": "<hr />Jag har angivit, dubbelkontrollerat och bekräftar härmed föregående data.<p class={{{ showPatientInitials }}}><strong>Deltagarens initialer: {{{ getActiveUserName }}}</strong></p>",
	"SET_TIME": "Ange tid",
	"CODE_ENTRY_NO_SERVER": "Server otillgänglig",
	"SUBJECT": "Patient",
	"NO_RESULTS_FOUND": "No results found.",
	"USER": "Användare",
	"SYNC": "Sync",
    "AF-ZA": "Afrikaans",
    "AR-EG": "Arabiska",
    "BE-BY": "Vitryska",
    "BG-BG": "Bulgariska",
    "BN-IN": "Bengaliska",
    "BS-BA": "Bosniska",
    "CA-ES": "Katalanska",
    "CS-CZ": "Tjeckiska",
    "DA-DK": "Danska",
    "DE-DE": "Tyska (Tyskland)",
    "DE-AT": "Tyska (Österrike)",
    "EL-GR": "Grekiska",
    "EN-GB": "Engelska (UK)",
    "EN-US": "Engelska (US)",
    "ES-ES": "Spanska (Spanien)",
    "ES-US": "Spanska (USA)",
    "ES-PY": "Spanska (global)",
    "ET-EE": "Estländska",
    "FI-FI": "Finska",
    "FR-CA": "Franska (Kanada)",
    "FR-FR": "Franska (Frankrike)",
    "GD-IE": "Gaeliska",
    "GU-IN": "Gujarati",
    "HE-IL": "Hebreiska",
    "HI-IN": "Hindi",
    "HR-HR": "Kroatiska",
    "HU-HU": "Ungerska",
    "IT-IT": "Italienska",
    "JA-JP": "Japanska",
    "KA-GE": "Georgiska",
    "KN-IN": "Kannada",
    "KO-KR": "Koreanska",
    "LV-LV": "Lettiska",
    "LT-LT": "Litauiska",
    "ML-IN": "Malayiska (Indien)",
    "MR-IN": "Marathi",
    "MS-MY": "Malayiska (Malaysia)",
    "NB-NO": "Norska",
    "NL-BE": "Holländska (Belgien)",
    "NL-NL": "Holländska (Nederländerna)",
    "PA-IN": "Punjabi",
    "PL-PL": "Polska",
    "PT-BR": "Portugisiska (Brasilien)",
    "PT-PT": "Portugisiska (Portugal)",
    "RO-RO": "Rumänska",
    "RU-RU": "Ryska",
    "SL-SL": "Slovenska",
    "SK-SK": "Slovakiska",
    "SR-RS": "Serbiska (Latin)",
    "SR-SP": "Serbiska (Kyrilliska)",
    "ST-ZA": "Sotho",
    "SV-SE": "Svenska",
    "TA-IN": "Tamil",
    "TE-IN": "Telugu",
    "TH-TH": "Thai",
    "TL-PH": "Tagalog",
    "TN-ZA": "Tswana",
    "TR-TR": "Turkiska",
    "UK-UA": "Ukrainska",
    "UR-IN": "Urdu",
    "VI-VN": "Vietnamesiska",
    "XH-ZA": "Xhosa",
    "ZH-CN": "Kinesiska (förenklad)",
    "ZH-TW": "Kinesiska (traditionell)",
    "ZU-ZU": "Zulu",
    "NEW_USER": "Lägg till en ny dagbok",
    "NEW_USER_CREATED": "Den nya användaren har skapats.",
    "TIME_ZONE_SET_CONFIRM": "Vill du ställa in tidszonen på {{{selectedTimeZone}}}? <br/> Applikationen startar eventuellt om för att verkställa ändringen.",
    "TIME_ZONE_SET_CONFIRM_NOCHANGE": "Vill du ställa in tidszonen på {{{selectedTimeZone}}}?",
    "TIME_ZONE_SET_HEADER": "Bekräftelse av inställd tidszon",
    "TIME_ZONE_ERROR_HEADER": "Fel på tidszon",
    "TIME_ZONE_ERROR_MSG": "Ett fel inträffade vid hämtning av listan med tidszoner. Kontakta ERT supportcenter om du behöver mer hjälp.",
    "TIME_ZONE_SET_ERROR_MSG": "Ett fel inträffade när tidszonen ställdes in. Kontakta ERT supportcenter om du behöver mer hjälp.",
    "TIME_CONFIRMATION_INSTRUCTIONS": "Enheten måste bekräfta din lokala tid. Ange tid och datum från en pålitlig källa.",
    "LOW_BATTERY": "Varning! Låg batterinivå. Anslut enheten till ett uttag för att ladda den.",
    "CRITICAL_BATTERY": "Varning! Kritiskt låg batterinivå. Anslut enheten till ett uttag så att batteriet kan laddas, annars kommer den att stängas av.",
    "SITE_ADMINISTRATOR": "Platsadministratör",
    "TIME_CONFIRMATION_HEADER": "Bekräfta datum/tid",
    "TIMESLIP_ERROR": "Enheten visar fel tid eller datum. Förflytta dig till en plats med internetanslutning och försök igen. Kontakta ERT:s kundtjänst om du har fortsatta problem."
  },
  "dates": {
    "setDateButtonLabel": "Ange datum",
    "setTimeButtonLabel": "OK",
    "setDurationButtonLabel": "Ange längd",
    "calTodayButtonLabel": "Hoppa till idag",
    "titleDateDialogLabel": "Ange datum",
    "titleTimeDialogLabel": "Ange tid",
    "daysOfWeek": [
      "Söndag",
      "Måndag",
      "Tisdag",
      "Onsdag",
      "Torsdag",
      "Fredag",
      "Lördag"
    ],
    "daysOfWeekShort": [
      "Sö",
      "Må",
      "Ti",
      "On",
      "To",
      "Fr",
      "Lö"
    ],
    "monthsOfYear": [
      "Januari",
      "Februari",
      "Mars",
      "April",
      "Maj",
      "Juni",
      "Juli",
      "Augusti",
      "September",
      "Oktober",
      "November",
      "December"
    ],
    "monthsOfYearShort": [
      "Jan",
      "Feb",
      "Mar",
      "Apr",
      "Maj",
      "Jun",
      "Jul",
      "Aug",
      "Sep",
      "Okt",
      "Nov",
      "Dec"
    ],
    "durationLabel": [
      "Dagar",
      "Timmar",
      "Minuter",
      "Sekunder"
    ],
    "durationDays": [
      "Dag",
      "Dagar"
    ],
    "tooltip": "Öppna datumväljare",
    "nextMonth": "Nästa månad",
    "prevMonth": "Föregående månad",
    "clearButton": "Radera",
    "meridiem": [
      "AM",
      "PM"
    ]
  }
}
