{
    "namespace": "CORE",
    "language": "it",
    "locale": "IT",
    "localized": "Italiano (ITA)",
    "direction": "ltr",
    "resources": {
        "ACTIVE": "Attivo",
        "ACTIVATE_USER": "Attivare un utente",
        "ADD_PATIENT": "Aggiungere un nuovo paziente",
        "ADD_USER": "Aggiungere un utente",
        "AFFIDAVIT": "Selezionare OK e poi Avanti quando si è pronti a salvare le proprie risposte.",
        "AFFIDAVIT_HELP": "Grazie. Ha fornito tutte le risposte richieste. È possibile verificare e modificare le risposte date selezionando Indietro.",
        "ALL_QUESTIONNAIRES_COMPLETED": "Tutti i moduli completati.",
        "APP_NAME": "ERT",
        "APPLICATION_HEADER": "{{{ appHeader }}}",
        "APP_NAME_LBL": "Nome App",
        "APP_VERSION": "Versione App",
        "ASSIGNED_TO": "Assegnato a",
        "AVAILABLE": "Disponibile",
        "BACK": "Indietro",
        "BACK_OUT_CONFIRM": "Uscire? Le risposte relative a questo modulo andranno perse.",
        "BLUETOOTH_REG_REFRESH_BUTTON": "Aggiorna elenco",
        "CANCEL": "Annulla",
        "CHECK_FOR_UPDATES": "Verifica aggiornamenti",
        "CHOOSE_A_SITE": "Assegnare questo dispositivo a un centro specifico.",
        "COMPLETED": "Completato",
        "CONFIRM_PASSWORD": "Confermare la password:",
        "CONFIRM_TEMP_PASS": "Confermare la password temporanea:",
        "CONTINUE": "Continua",
        "COUNTRY": "Paese",
        "CUSTOM_ENVIRONMENT": "Ambiente personalizzato",
        "DEACTIVATE_PATIENT": "Disattivare un paziente",
        "DEACTIVATE_USER": "Disattivare un utente",
        "DEACTIVATED": "Disattivato",
        "DEVICE_ID": "ID dispositivo",
        "DEVICE_REGISTRATION_FAILURE": "Impossibile registrare dispositivo.",
        "DEVICE_UUIID": "UUID dispositivo",
        "BATTERY_LEVEL": "Livello batteria",
        "DEVICE_INFO": "Informazioni sul dispositivo",
        "EDIT_MY_INFO": "Modificare informazioni",
        "EDIT_PATIENT": "Modificare paziente",
        "EDIT_SERVICE_URL": "Modificare la URL del servizio",
        "EDIT_SERVICE_URL_SUCCESS": "La URL del servizio è stata aggiornata.",
        "EDIT_USER": "Modificare utente",
        "EMAIL": "Indirizzo e-mail",
        "ENTER_PATIENT_INFO": "Immettere le informazioni relative al paziente",
        "ENTER_UNLOCK_CODE": "Immettere il codice di sblocco",
        "ENTER_USER_INFO": "Immettere le informazioni relative al nuovo utente del centro",
        "ENVIRONMENT": "Ambiente",
        "FIRST_NAME": "Nome",
        "FORGOT_PASSWORD": "Password dimenticata?",
        "FORM": "Modulo",
        "FORM_GATEWAY": "Schermata del modulo",
        "FORM_NAME": "Nome del modulo",
        "FULL_NAME": "Nome completo:",
        "GO_TO_VISITS": "Visite del paziente",
        "HAND_DEVICE_SITE_TITLE": "Consegnare il dispositivo all’utente del centro",
        "HAND_DEVICE_SITE_BODY": "Si prega di consegnare il dispositivo all’utente del centro.",
        "HELP": "Aiuto",
        "HOME": "Home",
        "IN_PROGRESS": "In corso",
        "INITIALS": "Iniziali",
        "INVALID_URL": "Inserire una URL valida.",
        "INVALID_PERMISSION": "Autorizzazione non valida.",
        "INVALID_PASSWORD": "Password non valida.",
        "LANGUAGE": "Lingua:",
        "LAST_LOGIN": "Ultima connessione",
        "LAST_NAME": "Cognome",
        "LAST_REFRESH_TIME": "Ora ultimo aggiornamento",
        "LOCATION": "Ubicazione",
        "LOGIN": "Connessione",
        "LOGIN_SCREEN": "Connessione",
        "LOGOUT": "Scollegamento",
        "MANAGE_USERS": "Gestione utenti centro",
        "MARK_AS_COMPLETED": "Segnare come Completato",
        "SITE_SIGNATURE": "Firma di: ",
        "SITE_REPORT_AFF": "Ho inserito e controllato i dati precedenti, e li confermo.<p><strong>Firma di: {{{ getActiveUserName }}}</strong></p>",
        "PATIENT_REPORT_AFF": "Ho inserito e controllato i dati precedenti, e li confermo.<p class={{{ getPatientInitials }}}><strong>Iniziali di: {{{ getActiveUserName }}}</strong></p>",
        "CLEAR_SIGNATURE": "Cancella firma",
        "MENU": "Menu",
        "MODE": "Modo",
        "NAME": "Nome",
        "NEW_USER": "Aggiungere diario nuovo utente",
        "NEW_USER_CREATED": "L'utente del centro è stato creato.",
        "NEXT": "Avanti",
        "NO_RESULTS_FOUND": "Non è stato trovato nessun risultato.",
        "NOT_AVAILABLE": "Non disponibile",
        "OK": "OK",
        "ORDER": "Ordine",
        "PASSWORD": "Password:",
        "PATIENT": "Paziente",
        "PATIENT_ID": "ID paziente:",
        "PENDING_TRANSMISSIONS": "Trasmissioni in attesa",
        "PLEASE_WAIT": "Attendere",
        "PLEASE_CONFIRM": "Confermare",
        "REPORTS_AND_FORMS": "Report e moduli",
        "REPORTS_COMPLETED_MESSAGE": "Tutti i moduli sono stati completati. Restituire il dispositivo al personale competente del centro.",
        "REQUIRED_ANSWER": "Completare le informazioni richieste.",
        "RESET_PIN": "Resettare PIN del paziente",
        "RESET_USER_PASSWORD": "Resettare la password dell'utente",
        "ROLES": "Ruolo:",
        "SAVE": "Salva",
        "SEARCH": "Cerca",
        "SECURITY_QUESTION_0": "Qual è il cognome da nubile di Sua madre?",
        "SECURITY_QUESTION_1": "In quale città è nato?",
        "SECURITY_QUESTION_2": "Qual è il nome del Suo primo animale domestico?",
        "SECURITY_QUESTION_3": "Qual è il Suo sport preferito?",
        "SECURITY_QUESTION_4": "In che anno si è diplomato?",
        "SECURITY_QUESTION_5": "Qual è il nome del Suo primo figlio?",
        "SECURITY_QUESTION_6": "Qual è il nome del Suo migliore amico da piccolo?",
        "SECURITY_QUESTION_7": "Qual è il cognome della Suo insegnante delle elementari?",
        "SECURITY_QUESTION_8": "In che città ha trovato il Suo primo lavoro?",
        "SECRET_ANSWER": "Risposta di sicurezza:",
        "SECRET_QUESTION": "Domanda di sicurezza:",
        "SECRET_QUESTION_HELP_TEXT": "Selezionare una domanda di sicurezza dall’elenco che segue. La risposta è utilizzata per consentire la connessione se si dimentica la password.",
        "SECRET_QUESTION_ANSWER": "Domanda di sicurezza e risposta",
        "SELECT_LANGUAGE": "Scegliere la lingua preferita per il centro.",
        "SELECT_SITE_NUMBER": "Selezionare il numero del centro",
        "SERVICE_URL": "URL del servizio",
        "SETTINGS": "Impostazioni",
        "SETUP_COMPLETE": "Impostazione completata",
        "SETUP_COMPLETE_DESC": "Il dispositivo è ora impostato per la consegna.  Nella prossima schermata, selezionare OK e poi spegnere il dispositivo.",
        "SETUP_SITE_USER": "Impostazione utente centro",
        "SETUP_SITE_USER_LEGEND": "Impostare l'utente del centro per questo dispositivo.",
        "SITE": "Centro",
        "SITE_ASSESSMENTS": "Valutazioni del centro",
        "SIGNATURE_DATA_LIMIT_EXCEEDED": "Il riquadro per la firma non può riportare la firma esattamente come è stata fatta. Si prega quindi di firmare con le proprie iniziali.",
        "SITE_NUMBER": "Numero centro",
        "SITE_ROLE": "Utente centro",
        "SITE_SELECTION": "Selezione centro",
        "SKIP_FORM": "Salta modulo",
        "SKIP_QUESTION": "Saltare le risposte di questa schermata?",
        "SKIP_TO_VISIT": "Passa alla visita",
        "SKIP_VISIT": "Salta visita",
        "SKIPPED" : "Saltata",
        "START_FORM": "Inizia modulo",
        "START_VISIT": "Visita di inizio",
        "STATUS": "Stato",
        "STATUS_DATE": "Data dello stato",
        "STUDY": "Studio",
        "STUDYWORKS_LOGIN": "Collegamento a StudyWorks",
        "SUBJECT_ID": "ID paziente",
        "SUBJECT_ROLE": "Paziente",
        "SUBMIT": "Invia",
        "SUPPORT_TOOLS": "Strumenti di supporto",
        "SYNC": "Sincronizza",
        "SYNC_USERS": "Sincronizza utenti",
        "SYNC_TO_DEVICE": "Sincronizza studio per dispositivo",
        "TEMPORARY_PASSWORD_MESSAGE": "Si prega di consegnare la password temporanea ai nuovi utenti. Dopo aver effettuato la connessione, sarà chiesto loro di creare una nuova password.",
        "TEMP_PASSWORD": "Password temporanea: ",
        "UNABLE_TO_GET_SITE_LIST": "Impossibile reperire l'elenco dei centri",
        "UNLOCK_CODE": "Codice di sblocco",
        "UNLOCK_CODE_HELP": "È possibile ottenere il codice di sblocco per l'app ERT Tablet da StudyWorks nello SmartReport \"ERT Unlock Codes\". Per assistenza aggiuntiva, contattare il Centro di Supporto ERT.",
        "USER": "Utente",
        "USER_ALREADY_EXISTS": "Utente già esistente",
        "SUBJECT_ALREADY_EXISTS": "Esiste già un paziente con l'ID {{{ getPatientIDForDuplicate }}}",
        "USER_ROLE": "Ruolo utente",
        "USERNAME": "Nome utente",
        "USER_NAME": "Nome utente:",
        "VISIT": "Visita",
        "VISIT_COMPLETED_MESSAGE": "Non vi sono altri moduli per questa visita.  Ora questa visita è completata.",
        "VISITS": "Visite",
        "VISITS_SKIPPED": "Visite saltate:",
        "VISIT_NAME": "Nome della visita",
        "WELCOME": "Benvenuto",
        "AF-ZA": "Afrikaans",
        "AR-EG": "Arabo",
        "BE-BY": "Bielorusso",
        "BG-BG": "Bulgaro",
        "BN-IN": "Bengalese",
        "BS-BA": "Bosniaco",
        "CA-ES": "Catalano",
        "CS-CZ": "Ceco",
        "DA-DK": "Danese",
        "DE-DE": "Tedesco (Germania)",
        "DE-AT": "Tedesco (Austria)",
        "EL-GR": "Greco",
        "EN-GB": "Inglese (UK)",
        "EN-US": "Inglese (USA)",
        "ES-ES": "Spagnolo (Spagna)",
        "ES-US": "Spagnolo (USA)",
        "ES-PY": "Spagnolo (Universale)",
        "ET-EE": "Estone",
        "FI-FI": "Finlandese",
        "FR-CA": "Francese (Canada)",
        "FR-FR": "Francese (Francia)",
        "GD-IE": "Gaelico",
        "GU-IN": "Gujarati",
        "HE-IL": "Ebraico",
        "HI-IN": "Hindi",
        "HR-HR": "Croato",
        "HU-HU": "Ungherese",
        "IT-IT": "Italiano",
        "JA-JP": "Giapponese",
        "KA-GE": "Georgiano",
        "KN-IN": "Kannada",
        "KO-KR": "Coreano",
        "LV-LV": "Lettone",
        "LT-LT": "Lituano",
        "ML-IN": "Malayalam",
        "MR-IN": "Marathi",
        "MS-MY": "Malese",
        "NB-NO": "Norvegese",
        "NL-BE": "Fiammingo (Belgio)",
        "NL-NL": "Olandese (Paesi Bassi)",
        "PA-IN": "Punjabi",
        "PL-PL": "Polacco",
        "PT-BR": "Portoghese (Brasile)",
        "PT-PT": "Portoghese (Portogallo)",
        "RO-RO": "Romeno",
        "RU-RU": "Russo",
        "SL-SL": "Sloveno",
        "SK-SK": "Slovacco",
        "SR-RS": "Serbo (Latino)",
        "SR-SP": "Serbo (Cirillico)",
        "ST-ZA": "Sotho",
        "SV-SE": "Svedese",
        "TA-IN": "Tamil",
        "TE-IN": "Telugu",
        "TH-TH": "Tailandese",
        "TL-PH": "Tagalog",
        "TN-ZA": "Tswana",
        "TR-TR": "Turco",
        "UK-UA": "Ucraino",
        "UR-IN": "Urdu",
        "VI-VN": "Vietnamita",
        "XH-ZA": "Xhosa",
        "ZH-CN": "Cinese (Cina)",
        "ZH-TW": "Cinese (Taiwan)",
        "ZU-ZU": "Zulu",
        "HAND_DEVICE_SUBJECT_BODY": "Il modulo che segue deve essere compilato da {{{ patientOrRole }}}. Si prega di uscire, quindi di fornire il dispositivo a {{{ patientOrRole }}}.",
        "HAND_DEVICE_SUBJECT_TITLE": "Modulo iniziale {{{ formTitle }}}",
        "SKIP_VISIT_TITLE": "Saltare visita/e?",
        "SKIP_VISIT_TEXT": "Continuando, le visite seguenti saranno saltate:<br/> {{{ skippedVisits }}} Continuare e saltare queste visite adesso?",
        "YES":"Sì",
        "NO":"No",
        "TIME_LBL": "Ora:",
        "SET_TIME": "Impostare ora",
        "DATE_LBL": "Data:",
        "CREATE_PERMANENT_PASSWORD_TITLE": "Creare password",
        "USER_ID": "ID utente:",
        "PHASE": "Fase",
        "LAST_VISIT": "Ultima visita completata",
        "CONNECTION_REQUIRED": "È necessaria una connessione a Internet.",
        "RETRY": "Riprovare",
        "UPDATE_FAILURE": "Aggiornamento non completato.",
        "UPDATE_SUCCESS": "Aggiornamento completato",
        "CANCEL_PERMANENT_PASSWORD_TITLE": "Annullare la creazione della password?",
        "CANCEL_PERMANENT_PASSWORD_TEXT": "Annullando a questo punto, la password non sarà creata. È necessaria una password per cominciare a utilizzare ERT. Annullare?",
        "ACCOUNT_CONFIGURED_TITLE": "Impostazione account completata",
        "ACCOUNT_CONFIGURED_TEXT": "L'impostazione dell'account è stata completata, è ora possibile continuare a utilizzare il sistema eCOA.",
        "LOGGED_IN_AS": "Connessione effettuata come:",
        "EDIT_PATIENT_AFFIDAVIT_HEADER": "<p class='question-title-large'>Firma</p><br />",
        "EDIT_PATIENT_AFF": "Con la firma apposta qui di seguito dichiaro di essere autorizzato a modificare questo paziente.<br /><br />ID paziente: {{{ getPatientIdNumber }}}<br /><br />Firma di: {{{ getActiveUserName }}}",
        "PASSWORD_MISMATCH": "La conferma della password non corrisponde alla password.",
        "FIRST_USER_AFFIDAVIT": "Con la firma apposta qui di seguito dichiaro di essere il ricercatore principale o il delegato autorizzato alla creazione degli account in questo sistema.<br /><br /><strong>Firma di: {{{ getFirstUsername }}}</strong>",
		"INCOMPLETE": "Incompleto",
        "INVALID_ENTRY": "Immissione non valida",
        "PLEASE_ANSWER_SQ": "Si prega di rispondere alla domanda di sicurezza:",
        "FORGOT_SECRET_ANSWER": "Risposta di sicurezza dimenticata?",
        "CONTACT_STUDY_COORDINATOR": "Contattare il Coordinatore dello studio.",
        "ENTER_NEW_PASSWORD": "Nuova password:",
        "CONTACT_UNLOCK_CODE": "Contattare il Coordinatore dello studio per sbloccare il codice per oggi:",
        "CURRENT_DATE": "{{{ currentDate }}}",
        "TEMPORARY_UNLOCK_CODE": "Immettere il codice di sblocco fornito dal Coordinatore dello studio.",
        "RESET_SECRET_QUESTION": "Resettare la domanda di sicurezza",
        "SECRET_QUESTION_CHANGE_SUCCESS": "Aggiornamento della password e della domanda di sicurezza riuscito.",
        "RESET_PASSWORD": "Resettare la password",
        "ANSWER_ATTEMPT_EXCEEDED": "È stata inserita una risposta errata troppe volte oppure è stato fatto clic sul collegamento relativo alla domanda di sicurezza dimenticata.",
        "PASSWORD_ATTEMPT_EXCEEDED": "È stata inserita una password errata troppe volte oppure è stato fatto clic sul collegamento relativo alla password dimenticata.",
        "PASSWORD_CHANGE_SUCCESS": "Aggiornamento della password riuscito.",
        "CHANGE_PASSWORD": "Cambio password",
        "CHANGE_SECRET_QUESTION": "Cambia la domanda di sicurezza",
        "SYNC_COMPLETE": "Sincronizzazione completata",
        "INCORRECT_ANSWER": "Risposta non corretta",
        "INCORRECT_UNLOCK_CODE": "Codice di sblocco errato",
        "PASSWORD_INVALID": "Password non corretta",
        "SUBJECT": "Paziente",
        "PATIENT_ADDED": "Paziente aggiunto",
        "TIME_ZONE": "Fuso orario:",
        "ACTIVATE_USER_CANCEL_CONFIRM":"Annullare attivazione?",
        "ACTIVATE_USER_CANCEL_BODY":"Annullando a questo punto, l'utente del centro non sarà attivato.Annullare?",
        "ACTIVATE_USER_AFF":"Con la firma apposta qui di seguito dichiaro di essere autorizzato ad attivare questo utente del centro.",
        "ACTIVATE_USER_CONFIRM_INFORMATION":"Confermare che le informazioni riportate di seguito appartengono all'utente del centro da attivare.",
        "DEACTIVATE_USER_CANCEL_CONFIRM":"Annullare disattivazione?",
        "DEACTIVATE_USER_CANCEL_BODY":"Annullando a questo punto, l'utente del centro non sarà disattivato.Annullare?",
        "DEACTIVATE_USER_AFF":"Con la firma apposta qui di seguito dichiaro di essere autorizzato a disattivare questo utente del centro.",
        "DEACTIVATE_USER_SIG":"<strong>Utente da disattivare:</strong><br />{{{ getSelectedUsername }}}<p><strong>Firma di:</strong>{{{ getActiveUserName }}}</p>",
        "DEACTIVATE_USER_CONFIRM_INFORMATION":"Confermare che le informazioni riportate di seguito appartengono all'utente del centro da disattivare.",
        "DIARY_TIMEOUT":"Questo modulo è scaduto.",
        "EDIT_PATIENT_QUESTION_1_MAIN_TITLE":"<div class='question-title-large'>Identificativo paziente </div><div>Intervallo ID per il centro:<br /><strong>{{{ patientIDRange }}}</strong></div><div class='edit-patient-id'>ID paziente:<br /><strong>{{{ getPatientIdNumber }}}({{{getPatientInitials}}})</strong</div><br /><br />",
        "EDIT_PATIENT_QUESTION_1":"ID paziente:",
        "EDIT_PATIENT_QUESTION_1_EMPTY":"Compilare l'ID paziente.",
        "EDIT_PATIENT_QUESTION_1_EMPTY_HEADER":"ID paziente",
        "EDIT_PATIENT_QUESTION_1_RANGE":"L'ID paziente immesso non rientra nell'intervallo degli ID consentiti:{{{ patientIDRange }}}.Inserire un ID paziente valido.",
        "EDIT_PATIENT_QUESTION_1_RANGE_HEADER":"ID paziente fuori intervallo",
        "EDIT_PATIENT_QUESTION_1_UNIQUE":"Paziente già esistente.Immettere un altro ID paziente.",
        "EDIT_PATIENT_QUESTION_1_UNIQUE_HEADER":"ID paziente duplicato",
        "EDIT_PATIENT_QUESTION_2":"Iniziali del paziente:",
        "EDIT_PATIENT_QUESTION_2_EMPTY":"Compilare le iniziali del paziente, con almeno 2 caratteri.",
        "EDIT_PATIENT_QUESTION_2_EMPTY_HEADER":"Iniziali del paziente",
        "EDIT_PATIENT_QUESTION_3_TITLE":"<div class='question-title-large'>Selezionare la lingua</div><div>ID paziente:<br /><strong>{{{ getPatientIdNumber }}}({{{getPatientInitials}}})</strong</div><br /><br />",
        "EDIT_PATIENT_QUESTION_3":"Selezionare la lingua per il paziente",
        "EDIT_PATIENT_QUESTION_4_TITLE":"<div class='question-title-large'>Motivo della modifica</div><br /><br />",
        "EDIT_PATIENT_QUESTION_4":"Selezionare il motivo della modifica di un paziente",
        "EDIT_PATIENT_CANCEL_CONFIRM":"Annullare le modifiche al paziente?",
        "EDIT_PATIENT_CANCEL_BODY":"Annullando a questo punto, le impostazioni del paziente non saranno aggiornate.Annullare?",
        "EDIT_PATIENT_NO_CHANGES_CONFIRM":"Nessuna modifica apportata al paziente",
        "EDIT_PATIENT_NO_CHANGES_BODY":"Non sono state apportate modifiche al paziente.Uscire ugualmente?",
        "EDIT_PATIENT_REASON_0":"Correzione errore da parte del medico",
        "EDIT_REASON":"Motivo della modifica:",
        "EDIT_USER_AFF":"Con la firma apposta qui di seguito dichiaro di essere autorizzato a modificare questo utente del centro.<p><strong>Firma di:</strong>{{{ getActiveUserName }}}</p>",
        "EDIT_USER_CANCEL_CONFIRM":"Annullare la modifica dell'utente?",
        "EDIT_USER_CANCEL_BODY":"Annullando a questo punto, le modifiche non saranno applicate.Annullare?",
        "EDIT_USER_NO_CHANGES_HEADER":"Nessuna modifica apportata all'utente del centro",
        "EDIT_USER_NO_CHANGES_BODY":"Non sono state apportate modifiche all'utente del centro.Uscire ugualmente?",
        "ERROR_CODE":"Codice errore:",
        "ERROR_TITLE":"Errore",
        "FIRST_SITE_USER":"Aggiungi primo utente sito",
        "NEW_PATIENT_QUESTION_1_MAIN_TITLE":"<div class='question-title-large'>Immettere le informazioni identificative del paziente</div><div><strong>Centro:{{{ getSiteCode }}}</strong></div><div><strong>Utente:{{{ getUserName }}}</strong</div><br /><br />",
        "NEW_PATIENT_HELP_TEXT_1":"",
        "NEW_PATIENT_HELP_TEXT_2":"",
        "NEW_PATIENT_HELP_TEXT_3":"",
        "NEW_PATIENT_QUESTION_1_TITLE":"ID paziente",
        "NEW_PATIENT_QUESTION_1":"ID paziente:",
        "NEW_PATIENT_QUESTION_1_EMPTY":"Compilare l'ID paziente.",
        "NEW_PATIENT_QUESTION_1_EMPTY_HEADER":"ID paziente",
        "NEW_PATIENT_QUESTION_1_RANGE":"L'ID paziente immesso non rientra nell'intervallo degli ID consentiti:{{{ patientIDRange }}}.Inserire un ID paziente valido.",
        "NEW_PATIENT_QUESTION_1_RANGE_HEADER":"ID paziente fuori intervallo",
        "NEW_PATIENT_QUESTION_1_UNIQUE":"Paziente già esistente.Immettere un altro ID paziente.",
        "NEW_PATIENT_QUESTION_1_UNIQUE_HEADER":"ID paziente duplicato",
        "NEW_PATIENT_QUESTION_2":"Iniziali del paziente:",
        "NEW_PATIENT_QUESTION_2_EMPTY":"Compilare le iniziali del paziente, con almeno 2 caratteri.",
        "NEW_PATIENT_QUESTION_2_EMPTY_HEADER":"Iniziali del paziente",
        "NEW_PATIENT_QUESTION_3_TITLE":"<div class='question-title-large'>Selezionare la lingua</div><div><strong>Sito:{{{ getSiteCode }}}</strong></div><div><strong>Utente:{{{ getUserName }}}</strong</div><div><strong>ID paziente:{{{ getPatientID }}}</strong></div><br /><br />",
        "NEW_PATIENT_QUESTION_3":"Selezionare la lingua per il paziente",
        "NEW_PATIENT_CANCEL_CONFIRM":"Annullare l'aggiunta del paziente?",
        "NEW_PATIENT_CANCEL_BODY":"Annullando a questo punto, il paziente non sarà registrato.Annullare?",
        "NEW_PATIENT_AFFIDAVIT_HEADER":"<div><strong>Centro:{{{ getSiteCode }}}</strong><br /><strong>Utente:{{{ getUserName }}}</strong><br /><strong>ID paziente:{{{ getPatientID }}}</strong></div>",
        "PATIENT_INITIALS":"Iniziali del paziente:",
        "PATIENT_DELETED":"Paziente sconosciuto",
        "PATIENT_DELETED_MSG":"Impossibile trovare il paziente.",
        "PATIENT_DELETED_SUBJECT_MSG":"Impossibile trovare il paziente.Restituire il dispositivo al personale competente del centro.",
        "PLEASE_CONTACT":"Contattare il Centro di Supporto ERT.",
        "PLEASE_TRY_OR_CONTACT_SUPPORT":"Provare di nuovo oppure contattare il Centro di Supporto ERT.",
        "REASON":"Motivo:",
        "SET_TIMEZONE_MESSAGE":"Selezionare il fuso orario:",
        "SKIP_VISITS":"Salta visite",
        "SKIP_VISITS_QUESTION_1":"<div class='question-title-large'><strong>Motivo</strong></div><br /><br /><div>Selezionare un motivo per saltare le visite:</div>",
        "SKIP_VISITS_REASON_0":"Visita scaduta",
        "SKIP_VISITS_REASON_1":"Errore sito relativo all'amministrazione",
        "SKIP_VISITS_REASON_2":"Il soggetto ha mancato l'appuntamento clinico.",
        "SKIP_VISITS_REASON_3":"Non applicabile.",
        "SKIP_VISITS_REASON_4":"La visita è opzionale, non effettuata.",
        "SKIP_VISITS_CANCEL_CONFIRM":"Annullare Salta visite?",
        "SKIP_VISITS_CANCEL_BODY":"Annullando a questo punto, le visite non saranno saltate.Annullare?",
        "SKIPPED_VISITS":"{{{ skippedVisits }}}",
		"USER_EDITED":"L'utente è stato aggiornato.",
        "USER_TO_ACTIVATE":"<strong>Utente da attivare:</strong><br />{{{ getSelectedUsername }}}<p><strong>Firma di:</strong>{{{ getActiveUserName }}}</p>",
        "TIME_CONFIRMATION_INSTRUCTIONS":"È necessario che il dispositivo confermi l'orario locale.Inserire data e ora da una fonte affidabile.",
        "TIME_ZONE_ERROR_HEADER":"Errore fuso orario",
        "TIME_ZONE_ERROR_MSG":"Si è verificato un errore nell'ottenimento dell'elenco dei fusi orari.Per assistenza aggiuntiva, contattare il Centro di Supporto ERT.",
        "TIME_ZONE_SET_ERROR_MSG":"Si è verificato un errore nell'impostazione del fuso orario.Per assistenza aggiuntiva, contattare il Centro di Supporto ERT.",
        "TIME_ZONE_SET_CONFIRM":"Impostare il fuso orario su {{{selectedTimeZone}}}?<br/>L'applicazione potrebbe essere riavviata per consentire di applicare la modifica.",
        "TIME_ZONE_SET_CONFIRM_NOCHANGE":"Impostare il fuso orario su {{{selectedTimeZone}}}?",
        "TIME_ZONE_SET_HEADER":"Conferma impostazione fuso orario",
        "TRAINER":"Modalità addestramento",
        "TRAINER_EXIT":"Uscire dalla modalità addestramento",
        "TRAINER_EXIT_NOTIFICATION":"Uscita dalla modalità addestramento",
        "TRAINER_HEADER":"(Addestramento)",
		"VISIT_INACTIVE_HEADER":"Visita non attiva.",
        "VISIT_INACTIVE_MESSAGE":"La visita non è più attiva.",
        "VISIT_INACTIVE_MESSAGE_SUBJECT":"La visita non è più attiva.Restituire il dispositivo al personale competente del centro.",
        "SITE_ADMINISTRATOR":"Amministratore sito",
        "LOW_BATTERY":"Attenzione:il livello della batteria è basso.Collegare il dispositivo per la ricarica.",
        "CRITICAL_BATTERY":"Attenzione:il livello della batteria è estremamente basso.Collegare il dispositivo per ricaricarlo, altrimenti si spegnerà.",
        "TIME_CONFIRMATION_HEADER":"Conferma data/ora",
        "TIMESLIP_ERROR":"L'orario o la data sul dispositivo non sono corretti.Spostarsi in una posizione con connettività internet e riprovare.Se i problemi persistono, contattare l'assistenza clienti ERT.",
        "SUPPORT": "Supporto al cliente",
        "SUPPORT_MESSAGE": "Gli utenti degli Stati Uniti possono contattare il Centro di Supporto ERT al numero 800-748-5669. Gli utenti internazionali possono selezionare il Paese più vicino dal seguente elenco:",
        "SUPPORT_DROPDOWN": "Selezionare il proprio Paese",
        "SUPPORT_NAME_ARGENTINA": "Argentina",
        "SUPPORT_NUMBER_ARGENTINA": "<bdi>0800 444 0962</bdi>",
        "SUPPORT_NAME_ARMENIA": "Armenia",
        "SUPPORT_NUMBER_ARMENIA": "<bdi>+1 617 681 6306</bdi>",
        "SUPPORT_NAME_AUSTRALIA": "Australia",
        "SUPPORT_NUMBER_AUSTRALIA": "<bdi>1 800 800 051</bdi>",
        "SUPPORT_NAME_AUSTRIA": "Austria",
        "SUPPORT_NUMBER_AUSTRIA": "<bdi>0800 100 405</bdi>",
        "SUPPORT_NAME_BELARUS": "Bielorussia",
        "SUPPORT_NUMBER_BELARUS": "<bdi>8 820 0321 0036</bdi>",
        "SUPPORT_NAME_BELGIUM": "Belgio",
        "SUPPORT_NUMBER_BELGIUM_1": "(Inglese): <bdi>0800 58 016</bdi>",
        "SUPPORT_NUMBER_BELGIUM_2": "(Francese): <bdi>0800 71 076</bdi>",
        "SUPPORT_NUMBER_BELGIUM_3": "(Tedesco): <bdi>0800 71 113</bdi>",
        "SUPPORT_NAME_BRAZIL": "Brasile",
        "SUPPORT_NUMBER_BRAZIL": "<bdi>0800 891 5909</bdi>",
        "SUPPORT_NAME_BOSNIA": "Bosnia",
        "SUPPORT_NUMBER_BOSNIA": "<bdi>+1 617 681 6306</bdi>",
        "SUPPORT_NAME_BULGARIA": "Bulgaria",
        "SUPPORT_NUMBER_BULGARIA": "<bdi>00800 0010</bdi>, poi <bdi>866 245 4931</bdi>",
        "SUPPORT_NAME_CANADA": "Canada",
        "SUPPORT_NUMBER_CANADA": "<bdi>1 800 748 5669</bdi>",
        "SUPPORT_NAME_CHILE": "Cile",
        "SUPPORT_NUMBER_CHILE": "<bdi>123 0020 3408</bdi>",
        "SUPPORT_NAME_CHINA": "Cina",
        "SUPPORT_NUMBER_CHINA_1": "NetCom (Nord): <bdi>1 0800 74 40 164</bdi>",
        "SUPPORT_NUMBER_CHINA_2": "Telecom (Sud): <bdi>1 0800 44 00 158</bdi>",
        "SUPPORT_NAME_COLOMBIA": "Colombia",
        "SUPPORT_NUMBER_COLOMBIA": "<bdi>01 800 911 0010</bdi>, poi <bdi>866 310 3707</bdi>",
        "SUPPORT_NAME_COSTA_RICA": "Costa Rica",
        "SUPPORT_NUMBER_COSTA_RICA": "<bdi>0800 013 1210</bdi>",
        "SUPPORT_NAME_CROATIA": "Croazia",
        "SUPPORT_NUMBER_CROATIA": "<bdi>0800 222 953</bdi>",
        "SUPPORT_NAME_CZECH_REPUBLIC": "Repubblica Ceca",
        "SUPPORT_NUMBER_CZECH_REPUBLIC": "<bdi>800 142 150</bdi>",
        "SUPPORT_NAME_DENMARK": "Danimarca",
        "SUPPORT_NUMBER_DENMARK": "<bdi>80 60 00 09</bdi>",
        "SUPPORT_NAME_EGYPT": "Egitto",
        "SUPPORT_NUMBER_EGYPT": "<bdi>02 510 0200</bdi>, poi <bdi>866 310 3707</bdi>",
        "SUPPORT_NAME_EL_SALVADOR": "El Salvador",
        "SUPPORT_NUMBER_EL_SALVADOR": "<bdi>+1 617 681 6306</bdi>",
        "SUPPORT_NAME_ESTONIA": "Estonia",
        "SUPPORT_NUMBER_ESTONIA": "<bdi>800 00 44 154</bdi>",
        "SUPPORT_NAME_FINLAND": "Finlandia",
        "SUPPORT_NUMBER_FINLAND": "<bdi>0800 11 6366</bdi>",
        "SUPPORT_NAME_FRANCE": "Francia",
        "SUPPORT_NUMBER_FRANCE": "<bdi>0800 10 19 79</bdi>",
        "SUPPORT_NAME_GERMANY": "Germania",
        "SUPPORT_NUMBER_GERMANY": "<bdi>0800 101 28 21</bdi>",
        "SUPPORT_NAME_GREECE": "Grecia",
        "SUPPORT_NUMBER_GREECE": "<bdi>00 800 1311</bdi>, poi <bdi>866 310 3707</bdi>",
        "SUPPORT_NAME_GUATEMALA": "Guatemala",
        "SUPPORT_NUMBER_GUATEMALA": "<bdi>1 800 624 0079</bdi>",
        "SUPPORT_NAME_HONG_KONG": "Hong Kong",
        "SUPPORT_NUMBER_HONG_KONG": "<bdi>3002 1665</bdi>",
        "SUPPORT_NAME_HUNGARY": "Ungheria",
        "SUPPORT_NUMBER_HUNGARY": "<bdi>06 800 14 571</bdi>",
        "SUPPORT_NAME_ICELAND": "Islanda",
        "SUPPORT_NUMBER_ICELAND": "<bdi>800 8544</bdi>",
        "SUPPORT_NAME_INDIA": "India",
        "SUPPORT_NUMBER_INDIA": "<bdi>000 800 440 1125</bdi>",
        "SUPPORT_NAME_INDONESIA": "Indonesia",
        "SUPPORT_NUMBER_INDONESIA": "<bdi>008 800 330 334</bdi>",
        "SUPPORT_NAME_IRELAND": "Irlanda",
        "SUPPORT_NUMBER_IRELAND": "<bdi>1 800 946 700</bdi>",
        "SUPPORT_NAME_ISRAEL": "Israele",
        "SUPPORT_NUMBER_ISRAEL": "<bdi>1 809 470 062</bdi>",
        "SUPPORT_NAME_ITALY": "Italia",
        "SUPPORT_NUMBER_ITALY": "<bdi>800 90 56 37</bdi>",
        "SUPPORT_NAME_JAPAN": "Giappone",
        "SUPPORT_NUMBER_JAPAN": "Per il numero verde, fare riferimento alla Guida informativa dello studio ePRO",
        "SUPPORT_NAME_LATVIA": "Lettonia",
        "SUPPORT_NUMBER_LATVIA": "<bdi>8000 2151</bdi>",
        "SUPPORT_NAME_LEBANON": "Libano",
        "SUPPORT_NUMBER_LEBANON": "<bdi>01-426-801</bdi> poi <bdi>866 310 3707</bdi>",
        "SUPPORT_NAME_LITHUANIA": "Lituania",
        "SUPPORT_NUMBER_LITHUANIA": "<bdi>8800 30207</bdi>",
        "SUPPORT_NAME_MALAYSIA": "Malesia",
        "SUPPORT_NUMBER_MALAYSIA": "<bdi>1800 80 59 71</bdi>",
        "SUPPORT_NAME_MEXICO": "Messico",
        "SUPPORT_NUMBER_MEXICO_1": "(Inglese): <bdi>001 800 748 5669</bdi> ",
        "SUPPORT_NUMBER_MEXICO_2": "(Spagnolo): <bdi>001 855 631 6952</bdi>",
        "SUPPORT_NAME_MOLDOVA": "Moldavia",
        "SUPPORT_NUMBER_MOLDOVA": "<bdi>617 681 6306</bdi>",
        "SUPPORT_NAME_NETHERLANDS": "Paesi Bassi",
        "SUPPORT_NUMBER_NETHERLANDS": "<bdi>0800 023 1389</bdi>",
        "SUPPORT_NAME_NEW_ZEALAND": "Nuova Zelanda",
        "SUPPORT_NUMBER_NEW_ZEALAND": "<bdi>0800 110 178</bdi>",
        "SUPPORT_NAME_NORWAY": "Norvegia",
        "SUPPORT_NUMBER_NORWAY": "<bdi>800 62 051</bdi>",
        "SUPPORT_NAME_PAKISTAN": "Pakistan",
        "SUPPORT_NUMBER_PAKISTAN": "<bdi>00 800 0100</bdi>, poi <bdi>866 237 9767</bdi>",
        "SUPPORT_NAME_PANAMA": "Panama",
        "SUPPORT_NUMBER_PANAMA": "<bdi>001 800 201 3095</bdi>",
        "SUPPORT_NAME_PERU": "Perù",
        "SUPPORT_NUMBER_PERU": "<bdi>0800 5 0974</bdi>",
        "SUPPORT_NAME_PHILIPPINES": "Filippine",
        "SUPPORT_NUMBER_PHILIPPINES": "<bdi>1 800 1116 0651</bdi>",
        "SUPPORT_NAME_POLAND": "Polonia",
        "SUPPORT_NUMBER_POLAND": "<bdi>00800 331 1262</bdi>",
        "SUPPORT_NAME_PORTUGAL": "Portogallo",
        "SUPPORT_NUMBER_PORTUGAL": "<bdi>800 206 172</bdi>",
        "SUPPORT_NAME_PUERTO_RICO": "Portorico (Territorio USA)",
        "SUPPORT_NUMBER_PUERTO_RICO": "<bdi>1 800 748 5669</bdi>",
        "SUPPORT_NAME_ROMANIA": "Romania",
        "SUPPORT_NUMBER_ROMANIA": "<bdi>0800 894492</bdi>",
        "SUPPORT_NAME_RUSSIA": "Russia",
        "SUPPORT_NUMBER_RUSSIA_1": "(Primario - Numero verde): <bdi>8 10 800 249 13011</bdi>",
        "SUPPORT_NUMBER_RUSSIA_2": "(A Mosca): <bdi>363-2400</bdi> <br>, poi <bdi>866 310 3707</bdi>",
        "SUPPORT_NUMBER_RUSSIA_3": "(Al di fuori di Mosca): <bdi>8^(495) 363-2400</bdi> <br>, poi <bdi>866 310 3707</bdi>",
        "SUPPORT_NUMBER_RUSSIA_4": "(A San Pietroburgo): <bdi>363-2400</bdi> <br>, poi <bdi>866 310 3707</bdi>",
        "SUPPORT_NUMBER_RUSSIA_5": "(Al di fuori di San Pietroburgo): <bdi>8^(495) 363-2400</bdi> <br>, poi <bdi>866 310 3707</bdi>",
        "SUPPORT_NAME_SAUDI_ARABIA": "Arabia Saudita",
        "SUPPORT_NUMBER_SAUDI_ARABIA": "<bdi>+1 617 681 6306</bdi>",
        "SUPPORT_NAME_SERBIA": "Serbia",
        "SUPPORT_NUMBER_SERBIA": "<bdi>+1 617 973 1739</bdi>",
        "SUPPORT_NAME_SINGAPORE": "Singapore",
        "SUPPORT_NUMBER_SINGAPORE": "<bdi>800 616 30 03</bdi>",
        "SUPPORT_NAME_SLOVAKIA": "Slovacchia",
        "SUPPORT_NUMBER_SLOVAKIA": "<bdi>0800 0044 65</bdi>",
        "SUPPORT_NAME_SLOVENIA": "Slovenia",
        "SUPPORT_NUMBER_SLOVENIA": "<bdi>+1 617 681 6306</bdi>",
        "SUPPORT_NAME_SOUTH_AFRICA": "Sudafrica",
        "SUPPORT_NUMBER_SOUTH_AFRICA": "<bdi>0800 99 5853</bdi>",
        "SUPPORT_NAME_SOUTH_KOREA": "Corea del Sud",
        "SUPPORT_NUMBER_SOUTH_KOREA": "<bdi>00308 33 00 08</bdi>",
        "SUPPORT_NAME_SPAIN": "Spagna",
        "SUPPORT_NUMBER_SPAIN": "<bdi>900 90 2541</bdi>",
        "SUPPORT_NAME_SWEDEN": "Svezia",
        "SUPPORT_NUMBER_SWEDEN": "<bdi>020 120 99 69</bdi>",
        "SUPPORT_NAME_SWITZERLAND": "Svizzera",
        "SUPPORT_NUMBER_SWITZERLAND_1": "(Inglese): <bdi>0800 199 325</bdi>",
        "SUPPORT_NUMBER_SWITZERLAND_2": "(Francese): <bdi>0800 891 183</bdi>",
        "SUPPORT_NUMBER_SWITZERLAND_3": "(Tedesco): <bdi>0800 891 025</bdi>",
        "SUPPORT_NAME_TAIWAN": "Taiwan",
        "SUPPORT_NUMBER_TAIWAN": "<bdi>00801 33 33 42</bdi>",
        "SUPPORT_NAME_THAILAND": "Tailandia",
        "SUPPORT_NUMBER_THAILAND": "<bdi>1 800 33 140 353</bdi>",
        "SUPPORT_NAME_TUNISIA": "Tunisia",
        "SUPPORT_NUMBER_TUNISIA": "<bdi>+1 617 681 6306</bdi>",
        "SUPPORT_NAME_TURKEY": "Turchia",
        "SUPPORT_NUMBER_TURKEY": "<bdi>00 800 151 1335</bdi>",
        "SUPPORT_NAME_UKRAINE": "Ucraina",
        "SUPPORT_NUMBER_UKRAINE": "<bdi>0^00 11</bdi>, poi <bdi>866 245 4931</bdi>",
        "SUPPORT_NAME_UAE": "Emirati Arabi Uniti",
        "SUPPORT_NUMBER_UAE": "<bdi>8000-021</bdi>, poi <bdi>866 310 3707</bdi>",
        "SUPPORT_NAME_UK": "Regno Unito",
        "SUPPORT_NUMBER_UK": "<bdi>0800 015 0408</bdi>",
        "SUPPORT_NAME_US": "Stati Uniti",
        "SUPPORT_NUMBER_US_1": "(Primario): <bdi>1 800 748 5669</bdi>",
        "SUPPORT_NUMBER_US_2": "(Di recupero): <bdi>1 877 748 5669</bdi>",
        "SUPPORT_NAME_VENEZUELA": "Venezuela",
        "SUPPORT_NUMBER_VENEZUELA_1": "(Inglese): <bdi>0 800 552 6288</bdi> <br> poi <bdi>866 310 3707</bdi> ",
        "SUPPORT_NUMBER_VENEZUELA_2": "(Spagnolo): <bdi>0 800 100 3063</bdi> ",
        "ABOUT": "Cos’è",
        "CORE_PRODUCT_VERSION_LABEL": "Versione prodotto:",
        "PROTOCOL": "Protocollo:",
        "SPONSOR": "Sponsor:",
        "STORED_REPORTS": "Moduli memorizzati:",
        "STUDY_VERSION": "Versione studio: ",
        "STUDY_URL": "URL dello studio:",
        "P_AFFIDAVIT_HEADER": "<div><strong>Centro: {{{ getSiteCode }}}</strong><br /><strong>ID paziente: {{{ getPatientIdNumber }}}</strong></div>",
		"SET_TIMEZONE": "Impostare il fuso orario",
		"DEVICE_SERIAL_NUMBER": "Numero di serie del dispositivo",
		"NONEXISTENT_USER": "Tentativo di aggiornare un utente non esistente.",
		"SCREENING" : "Screening",
		"TREATMENT" : "Trattamento",
		"RANDOMIZATION" : "Randomizzazione",
		"FOLLOWUP" : "Follow-up",
		"TERMINATION" : "Interruzione",
        "ACCEPT": "Accetto",
        "DECLINE": "Rifiuto",
		"EULA": "LICENZA UTENTE FINALE",
        "EULA_TEXT": "<p><strong><span class=\"text-underline\">IMPORTANTE</span>:  NON FARE CLIC SUL PULSANTE DI ACCETTAZIONE FINO A QUANDO NON SI È LETTO IL PRESENTE ACCORDO.  FACENDO CLIC SUL PULSANTE DI ACCETTAZIONE, SI ACCETTANO TUTTI I TERMINI DI QUESTO ACCORDO.  SE NON SI ACCETTANO TUTTI I TERMINI DEL PRESENTE ACCORDO (1) NON FARE CLIC SUL PULSANTE \"ACCETTO\", (2) SOSPENDERE L'INSTALLAZIONE E IL PROCESSO DI CONCESSIONE DELLE LICENZE FACENDO CLIC SUL PULSANTE \"RIFIUTO\".</strong></p><p>eResearchTechnology, Inc. (\"Licenziante\") le concede il diritto non esclusivo e non trasferibile all'uso del software eResearchTechnology, Inc. incluso nel presente dispositivo (\"Software\") in relazione alla sua partecipazione all'accordo sulla sperimentazione clinica: <strong>{{{ clinicalTrial }}}</strong>.  Il software eResearchTechnology, Inc. è coperto dai brevetti emessi e da altri brevetti in fase di approvazione.  Questo accordo non conferisce alcun diritto di proprietà in relazione ad alcun software (o eventuali copie di esso), ma costituisce solo una licenza a utilizzare il software conformemente a tutti i termini del presente accordo.  Titolo del software e di tutte le parti di esso, e tutti i relativi diritti proprietari e di proprietà intellettuale, rimangono sempre prerogativa del licenziante.</p><p>Lei accetta, direttamente o indirettamente, di non (i) reingegnerizzare, smontare o decompilare il software; (ii) copiare, distribuire, produrre, adattare, creare opere derivate, tradurre, localizzare, convertire o altrimenti modificare il software; o (iii) rimuovere o alterare qualunque copyright, segreto commerciale o altre informative legali contenute nel software.  CONFERMA E ACCETTA CHE IL SOFTWARE PUÒ CONTENERE UN CODICE CHE IMPEDISCE L'USO NON AUTORIZZATO DEL SOFTWARE.</p><br><p>SE ACCETTA TUTTO QUANTO INDICATO IN PRECEDENZA, selezioni – <strong>Accetto</strong> – Facendo clic su \"Accetto\" accetta i termini della licenza.</p><p>SE NON ACCETTA QUANTO INDICATO IN PRECEDENZA, o non è autorizzato all'accettazione, selezioni – <strong>Rifiuto</strong> – in questo caso l'ulteriore accesso al software sarà interdetto.  Nel caso fosse autorizzato, può accettare in un secondo momento.</p>",
        "VISIT_EXPIRED_HEADER": "Visita scaduta.",
        "VISIT_EXPIRED_MESSAGE": "Questa visita non è più disponibile perché è scaduta.",
        "VISIT_EXPIRED_MESSAGE_SUBJECT": "Questa visita non è più disponibile perché è scaduta. Restituire il dispositivo al personale competente del centro.",
        "SQ-AL": "Albanese",
        "IMAGE_FOLDER": "{{{ imageFolder }}}",
		"MODAL_OK_TEXT": "OK",
        "BROWSER_LOAD_ERROR": "Pagina non trovata. Controllare la connessione internet e riprovare.",
		"NO_USER_OF_ROLE" : "Non trovato alcun utente con questo ruolo.",
        "EDIT_PATIENT_REASON_1": "Correzione dati attributi",
		"EDIT_PATIENT_REASON_2": "Modifica ID",
		"EDIT_PATIENT_REASON_3": "Selezionata lingua errata",
		"START_VISIT_OUTSIDE_WINDOW_MSG" : "Inserire {{{ getVisitName }}} al di fuori della finestra temporale configurata:<br /> {{{ startDate }}} - {{{ endDate }}}",
		"START_VISIT_HARD_STOP_MSG" : "Impossibile inserire {{{ getVisitName }}} al di fuori della finestra temporale configurata:<br /> {{{ startDate }}} - {{{ endDate }}}",
		"USER_NAME_INVALID_CHARACTERS" : "Si prega di non usare caratteri speciali",
		"ERROR_PATIENT_SAVE" : "Si è verificato un errore durante l’aggiunta del nuovo paziente",
		"PASSWORD_CHANGE_FAILED" : "È stato attivato un nuovo dispositivo per la raccolta dei dati di questo studio. Si prega di cambiare la password su tale dispositivo.",
		"ERROR" : "Errore.  Contattare il Centro di Supporto ERT.",
		"ERROR_AFTER_ACTIVATION_SUCCESSFUL" : "Si è verificato un errore. È necessario inserire il codice di configurazione e la password.",
		"CONNECTION_TIMEOUT" : "Connessione scaduta.",
		"UPDATE_FAILED" : "L’aggiornamento ERT non è stato completato. Controllare che il dispositivo sia collegato a Internet e riprovare."
    },
    "dates": {
        "setDateButtonLabel": "Impostare data:",
        "setTimeButtonLabel": "OK",
        "setDurationButtonLabel": "Impostare durata",
        "calTodayButtonLabel": "Passare a oggi",
        "titleDateDialogLabel": "Impostare data",
        "titleTimeDialogLabel": "Impostare ora",
        "daysOfWeek": [
            "Domenica",
            "Lunedì",
            "Martedì",
            "Mercoledì",
            "Giovedì",
            "Venerdì",
            "Sabato"
        ],
        "daysOfWeekShort": [
            "Dom",
            "Lun",
            "Mar",
            "Mer",
            "Gio",
            "Ven",
            "Sab"
        ],
        "monthsOfYear": [
            "gennaio",
            "febbraio",
            "marzo",
            "aprile",
            "maggio",
            "giugno",
            "luglio",
            "agosto",
            "settembre",
            "ottobre",
            "novembre",
            "dicembre"
        ],
        "monthsOfYearShort": [
            "gen",
            "feb",
            "mar",
            "apr",
            "mag",
            "giu",
            "lug",
            "ago",
            "set",
            "ott",
            "nov",
            "dic"
        ],
        "durationLabel": [
            "Giorni",
            "Ore",
            "Minuti",
            "Secondi"
        ],
        "durationDays": [
            "Giorno",
            "Giorni"
        ],
        "tooltip": "Seleziona data",
        "nextMonth": "Mese succ.",
        "prevMonth": "Mese prec.",
        "clearButton": "Canc.",
        "meridiem": [
            "AM",
            "PM"
        ]
    }
}
