{
    "namespace": "CORE",
    "language": "fr",
    "locale": "FR",
    "localized": "Français (France)",
    "direction": "ltr",
    "resources": {
        "ACTIVE": "Actif",
        "ACTIVATE_USER": "Activer l'utilisateur",
        "ADD_PATIENT": "Ajouter nouveau patient",
        "ADD_USER": "Ajouter utilisateur",
        "AFFIDAVIT": "Sélectionnez OK puis Suivant lorsque vous êtes prêt à enregistrer vos réponses.",
        "AFFIDAVIT_HELP": "Merci. Vous avez fourni toutes les réponses requises. Vous pouvez vérifier et modifier vos réponses en sélectionnant le bouton Précédent.",
        "ALL_QUESTIONNAIRES_COMPLETED": "Tous les formulaires sont complétés",
        "APP_NAME": "ERT",
        "APPLICATION_HEADER": "{{{ appHeader }}}",
        "APP_NAME_LBL": "Nom de l'application",
        "APP_VERSION": "Version de l'appli ",
        "ASSIGNED_TO": "Attribué à",
        "AVAILABLE": "Disponible",
        "BACK": "Précédent",
        "BACK_OUT_CONFIRM": "Êtes-vous sûr de vouloir quitter ? Les réponses de ce formulaire seront perdues.",
        "BLUETOOTH_REG_REFRESH_BUTTON": "Rafraîchir la liste",
        "CANCEL": "Annuler",
        "CHECK_FOR_UPDATES": "Vérifier les mises à jour",
        "CHOOSE_A_SITE": "Attribuez ce dispositif à un centre particulier.",
        "COMPLETED": "Terminé",
        "CONFIRM_PASSWORD": "Confirmer le mot de passe:",
        "CONFIRM_TEMP_PASS": "Confirmer le mot de passe temporaire :",
        "CONTINUE": "Continuer",
        "COUNTRY": "Pays",
        "CUSTOM_ENVIRONMENT": "Environnement personnalisé",
        "DEACTIVATE_PATIENT": "Désactiver le patient",
        "DEACTIVATE_USER": "Désactiver l'utilisateur",
        "DEACTIVATED": "Désactivé",
        "DEVICE_ID": "ID du dispositif",
        "DEVICE_REGISTRATION_FAILURE": "L'enregistrement du dispositif a échoué.",
        "DEVICE_UUIID": "Identifiant unique universel du dispositif",
        "BATTERY_LEVEL": "Niveau de la batterie",
        "DEVICE_INFO": "Informations sur le dispositif",
        "EDIT_MY_INFO": "Modifier mes informations",
        "EDIT_PATIENT": "Modifier le patient",
        "EDIT_SERVICE_URL": "Modifier l'URL du service",
        "EDIT_SERVICE_URL_SUCCESS": "L'URL du service a été mise à jour.",
        "EDIT_USER": "Modifier l'utilisateur",
        "EMAIL": "Adresse e-mail",
        "ENTER_PATIENT_INFO": "Saisir les informations du patient",
        "ENTER_UNLOCK_CODE": "Entrez le code de déblocage.",
        "ENTER_USER_INFO": "Entrer les nouvelles informations de l'utilisateur du centre",
        "ENVIRONMENT": "Environnement",
        "FIRST_NAME": "Prénom",
        "FORGOT_PASSWORD": "Mot de passe oublié ?",
        "FORM": "Formulaire",
        "FORM_GATEWAY": "Passerelle du formulaire",
        "FORM_NAME": "Nom du formulaire",
        "FULL_NAME": "Nom et prénom:",
        "GO_TO_VISITS": "Visites du patient",
        "HAND_DEVICE_SITE_TITLE": "Remettre le dispositif à l'utilisateur du centre",
        "HAND_DEVICE_SITE_BODY": "Remettez le dispositif à l'utilisateur du centre.",
        "HELP": "Aide",
        "HOME": "Accueil",
        "IN_PROGRESS": "En cours",
        "INITIALS": "Initiales",
        "INVALID_URL": "Entrez une URL valide.",
        "INVALID_PERMISSION": "Autorisation non valide.",
        "INVALID_PASSWORD": "Mot de passe non valide.",
        "LANGUAGE": "Langue:",
        "LAST_LOGIN": "Dernière connexion",
        "LAST_NAME": "Nom",
        "LAST_REFRESH_TIME": "Heure de la dernière actualisation",
        "LOCATION": "Emplacement",
        "LOGIN": "Connexion",
        "LOGIN_SCREEN": "Connexion",
        "LOGOUT": "Déconnexion",
        "MANAGE_USERS": "Gérer les utilisateurs du centre",
        "MARK_AS_COMPLETED": "Marquer comme terminé",
        "SITE_SIGNATURE": "Signature de : ",
        "SITE_REPORT_AFF": "J'ai saisi, vérifié et je confirme les données précédentes.<p><strong>Signature de : {{{ getActiveUserName }}}</strong></p>",
        "PATIENT_REPORT_AFF": "J'ai saisi, vérifié et je confirme les données précédentes.<p class={{{ getPatientInitials }}}><strong>Initiales de : {{{ getActiveUserName }}}</strong></p>",
        "CLEAR_SIGNATURE": "Effacer la signature",
        "MENU": "Menu",
        "MODE": "Mode",
        "NAME": "Nom",
        "NEW_USER": "Ajouter un nouveau journal d'utilisateur",
        "NEW_USER_CREATED": "L'utilisateur du centre a été créé.",
        "NEXT": "Suivant",
        "NO_RESULTS_FOUND": "Aucun résultat trouvé.",
        "NOT_AVAILABLE": "Non disponible",
        "OK": "OK",
        "ORDER": "Ordre",
        "PASSWORD": "Mot de passe:",
        "PATIENT": "Patient",
        "PATIENT_ID": "ID patient :",
        "PENDING_TRANSMISSIONS": "Transmissions en attente",
        "PLEASE_WAIT": "Veuillez patienter",
        "PLEASE_CONFIRM": "Veuillez confirmer",
        "REPORTS_AND_FORMS": "Rapports et formulaires",
        "REPORTS_COMPLETED_MESSAGE": "Vous avez complété tous vos formulaires. Remettez le dispositif au membre du personnel concerné du centre.",
        "REQUIRED_ANSWER": "Veuillez indiquer les informations demandées.",
        "RESET_PIN": "Réinitialiser le PIN du patient",
        "RESET_USER_PASSWORD": "Réinitialiser le mot de passe de l'utilisateur",
        "ROLES": "Rôle:",
        "SAVE": "Enregistrer",
        "SEARCH": "Rechercher",
        "SECURITY_QUESTION_0": "Quel est le nom de jeune fille de votre mère ?",
        "SECURITY_QUESTION_1": "Quelle est votre ville natale ?",
        "SECURITY_QUESTION_2": "Quel est le nom de votre premier animal domestique ?",
        "SECURITY_QUESTION_3": "Quel est votre sport préféré ?",
        "SECURITY_QUESTION_4": "En quelle année avez-vous obtenu votre diplôme ?",
        "SECURITY_QUESTION_5": "Quel est le second prénom de votre aîné ?",
        "SECURITY_QUESTION_6": "Quel est le nom de votre meilleur ami d'enfance ?",
        "SECURITY_QUESTION_7": "Quel était le nom de votre professeur de CE2 ?",
        "SECURITY_QUESTION_8": "Dans quelle ville avez-vous trouvé votre premier emploi ?",
        "SECRET_ANSWER": "Réponse de sécurité :",
        "SECRET_QUESTION": "Question de sécurité :",
        "SECRET_QUESTION_HELP_TEXT": "Sélectionnez une question de sécurité dans la liste ci-dessous. La réponse vous permettra de vous connecter si vous oubliez votre mot de passe.",
        "SECRET_QUESTION_ANSWER": "Question et réponse de sécurité :",
        "SELECT_LANGUAGE": "Sélectionnez une langue préférée pour le centre.",
        "SELECT_SITE_NUMBER": "Sélectionnez le numéro du centre.",
        "SERVICE_URL": "URL du service",
        "SETTINGS": "Réglages",
        "SETUP_COMPLETE": "Configuration terminée",
        "SETUP_COMPLETE_DESC": "Le dispositif est désormais configuré et prêt pour l'expédition.  Appuyez sur OK puis éteignez le dispositif à l'écran suivant.",
        "SETUP_SITE_USER": "Configurer utilisateur du centre",
        "SETUP_SITE_USER_LEGEND": "Configurez l'utilisateur du centre pour ce dispositif.",
        "SITE": "Centre ",
        "SITE_ASSESSMENTS": "Évaluations du centre",
        "SIGNATURE_DATA_LIMIT_EXCEEDED": "La zone de signature n'a pas pu représenter votre signature exactement telle qu'elle a été tracée. Signez plutôt à l'aide de vos initiales.",
        "SITE_NUMBER": "Numéro du centre",
        "SITE_ROLE": "Utilisateur du centre",
        "SITE_SELECTION": "Sélection du centre",
        "SKIP_FORM": "Ignorer le formulaire",
        "SKIP_QUESTION": "Êtes-vous sûr de vouloir ignorer les réponses de cet écran ?",
        "SKIP_TO_VISIT": "Passer à la visite",
        "SKIP_VISIT": "Ignorer la visite",
        "SKIPPED" : "Ignoré",
        "START_FORM": "Démarrer le formulaire",
        "START_VISIT": "Commencer la visite",
        "STATUS": "État",
        "STATUS_DATE": "Date de l'état",
        "STUDY": "Étude",
        "STUDYWORKS_LOGIN": "Connexion à StudyWorks",
        "SUBJECT_ID": "ID patient",
        "SUBJECT_ROLE": "Patient",
        "SUBMIT": "Envoyer",
        "SUPPORT_TOOLS": "Outils d'assistance",
        "SYNC": "Synchroniser",
        "SYNC_USERS": "Synchroniser les utilisateurs",
        "SYNC_TO_DEVICE": "Synchroniser l'étude avec le dispositif",
        "TEMPORARY_PASSWORD_MESSAGE": "Remettez le mot de passe temporaire au nouvel utilisateur. Il sera invité à créer un nouveau mot de passe après sa connexion.",
        "TEMP_PASSWORD": "Mot de passe temporaire : ",
        "UNABLE_TO_GET_SITE_LIST": "Impossible d'obtenir la liste du centre",
        "UNLOCK_CODE": "Code de déblocage ",
        "UNLOCK_CODE_HELP": "Pour obtenir le code de déblocage de l'application du ERT Tablet, consultez le SmartReport des codes de déblocage du ERT dans StudyWorks. Pour obtenir de l'aide, contactez le centre d'assistance ERT.",
        "USER": "Utilisateur",
        "USER_ALREADY_EXISTS": "Utilisateur déjà existant",
        "SUBJECT_ALREADY_EXISTS": "Un patient avec l'identifiant {{{ getPatientIDForDuplicate }}} existe déjà.",
        "USER_ROLE": "Rôle utilisateur",
        "USERNAME": "Nom d'utilisateur",
        "USER_NAME": "Nom d'utilisateur :",
        "VISIT": "Visite",
        "VISIT_COMPLETED_MESSAGE": "Il n'existe aucun autre formulaire pour cette visite.  Cette visite est terminée.",
        "VISITS": "Visites",
        "VISITS_SKIPPED": "Visites ignorées :",
        "VISIT_NAME": "Nom de la visite",
        "WELCOME": "Bienvenue",
        "AF-ZA": "Afrikaans",
        "AR-EG": "Arabe",
        "BE-BY": "Biélorusse",
        "BG-BG": "Bulgare",
        "BN-IN": "Bengali",
        "BS-BA": "Bosniaque",
        "CA-ES": "Catalan",
        "CS-CZ": "Tchèque",
        "DA-DK": "Danois",
        "DE-DE": "Allemand (Allemagne)",
        "DE-AT": "Allemand (Autriche)",
        "EL-GR": "Grec",
        "EN-GB": "Anglais (Royaume-Uni)",
        "EN-US": "Anglais (États-Unis)",
        "ES-ES": "Espagnol (Espagne)",
        "ES-US": "Espagnol (États-Unis)",
        "ES-PY": "Espagnol (universel)",
        "ET-EE": "Estonien",
        "FI-FI": "Finnois",
        "FR-CA": "Français (Canada)",
        "FR-FR": "Français (France)",
        "GD-IE": "Gaélique",
        "GU-IN": "Gujarati",
        "HE-IL": "Hébreu",
        "HI-IN": "Hindi",
        "HR-HR": "Croate",
        "HU-HU": "Hongrois",
        "IT-IT": "Italien",
        "JA-JP": "Japonais",
        "KA-GE": "Géorgien",
        "KN-IN": "Kannada",
        "KO-KR": "Coréen",
        "LV-LV": "Letton",
        "LT-LT": "Lituanien",
        "ML-IN": "Malayalam",
        "MR-IN": "Marathi",
        "MS-MY": "Malais",
        "NB-NO": "Norvégien",
        "NL-BE": "Néerlandais (Belgique)",
        "NL-NL": "Néerlandais (Pays-Bas)",
        "PA-IN": "Punjabi",
        "PL-PL": "Polonais",
        "PT-BR": "Portugais (Brésil)",
        "PT-PT": "Portugais (Portugal)",
        "RO-RO": "Roumain",
        "RU-RU": "Russe",
        "SL-SL": "Slovène",
        "SK-SK": "Slovaque",
        "SR-RS": "Serbe (latin)",
        "SR-SP": "Serbe (cyrillique)",
        "ST-ZA": "Sotho",
        "SV-SE": "Suédois",
        "TA-IN": "Tamil",
        "TE-IN": "Télougou",
        "TH-TH": "Thaï",
        "TL-PH": "Tagalog",
        "TN-ZA": "Bechouana",
        "TR-TR": "Turc",
        "UK-UA": "Ukrainien",
        "UR-IN": "Ourdou",
        "VI-VN": "Vietnamien",
        "XH-ZA": "Xhosa",
        "ZH-CN": "Chinois (Chine)",
        "ZH-TW": "Chinois (Taiwan)",
        "ZU-ZU": "Zoulou",
        "HAND_DEVICE_SUBJECT_BODY": "Le formulaire suivant doit être rempli par le {{{ patientOrRole }}}. Veuillez vous déconnecter, puis remettre le dispositif au {{{ patientOrRole }}}.",
        "HAND_DEVICE_SUBJECT_TITLE": "Démarrer le formulaire {{{ formTitle }}}",
        "SKIP_VISIT_TITLE": "Ignorer la/les visite(s) ?",
        "SKIP_VISIT_TEXT": "Si vous continuez, les visites suivantes seront ignorées :<br/> {{{ skippedVisits }}} Continuer et ignorer ces visites maintenant ?",
        "YES":"Oui",
        "NO":"Non",
        "TIME_LBL": "Heure :",
        "SET_TIME": "Régler l'heure",
        "DATE_LBL": "Date :",
        "CREATE_PERMANENT_PASSWORD_TITLE": "Créer le mot de passe",
        "USER_ID": "ID utilisateur :",
        "PHASE": "Phase",
        "LAST_VISIT": "Dernière visite effectuée",
        "CONNECTION_REQUIRED": "Une connexion à Internet est nécessaire.",
        "RETRY": "Réessayer",
        "UPDATE_FAILURE": "Mise à jour inachevée",
        "UPDATE_SUCCESS": "Mise à jour réussie",
        "CANCEL_PERMANENT_PASSWORD_TITLE": "Annuler la création du mot de passe ?",
        "CANCEL_PERMANENT_PASSWORD_TEXT": "Si vous annulez maintenant, le mot de passe ne sera pas créé. Vous aurez besoin d'un mot de passe pour commencer à utiliser le ERT. Êtes-vous sûr de vouloir annuler ?",
        "ACCOUNT_CONFIGURED_TITLE": "Configuration du compte terminée",
        "ACCOUNT_CONFIGURED_TEXT": "La configuration de votre compte est désormais terminée. Vous pouvez continuer à utiliser le système eCOA.",
        "LOGGED_IN_AS": "Connecté en tant que",
        "EDIT_PATIENT_AFFIDAVIT_HEADER": "<p class='question-title-large'>Signature</p><br />",
        "EDIT_PATIENT_AFF": "En signant ci-dessous, j’atteste que je suis autorisé à modifier ce patient.<br /><br />ID patient : {{{ getPatientIdNumber }}}<br /><br />Signature de : {{{ getActiveUserName }}}",
        "PASSWORD_MISMATCH": "Le mot de passe de confirmation ne correspond pas au mot de passe.",
        "FIRST_USER_AFFIDAVIT": "En signant ci-dessous, j’atteste que je suis l'investigateur principal ou la personne autorisée à créer des comptes dans le système.<br /><br /><strong>Signature de : {{{ getFirstUsername }}}</strong>",
		"INCOMPLETE": "Incomplet",
        "INVALID_ENTRY": "Saisie non valide",
        "PLEASE_ANSWER_SQ": "Répondez à votre question de sécurité :",
        "FORGOT_SECRET_ANSWER": "Réponse de sécurité oubliée ?",
        "CONTACT_STUDY_COORDINATOR": "Contacter le coordinateur de l'étude",
        "ENTER_NEW_PASSWORD": "Nouveau mot de passe :",
        "CONTACT_UNLOCK_CODE": "Contactez le coordinateur de l'étude afin de recevoir le code de déblocage pour aujourd'hui :",
        "CURRENT_DATE": "{{{ currentDate }}}",
        "TEMPORARY_UNLOCK_CODE": "Entrez le code de déblocage remis par le coordinateur de l’étude.",
        "RESET_SECRET_QUESTION": "Réinitialiser la question de sécurité",
        "SECRET_QUESTION_CHANGE_SUCCESS": "Votre mot de passe et votre question de sécurité ont bien été mis à jour.",
        "RESET_PASSWORD": "Réinitialiser le mot de passe",
        "ANSWER_ATTEMPT_EXCEEDED": "Vous avez entré un trop grand nombre de réponses incorrectes ou cliqué sur le lien d'oubli de la réponse de sécurité.",
        "PASSWORD_ATTEMPT_EXCEEDED": "Vous avez entré un trop grand nombre de mots de passe incorrects ou cliqué sur le lien d'oubli du mot de passe.",
        "PASSWORD_CHANGE_SUCCESS": "Votre mot de passe a bien été mis à jour.",
        "CHANGE_PASSWORD": "Changer le mot de passe",
        "CHANGE_SECRET_QUESTION": "Changer la question de sécurité",
        "SYNC_COMPLETE": "Synchronisation terminée",
        "INCORRECT_ANSWER": "Réponse incorrecte",
        "INCORRECT_UNLOCK_CODE": "Code de déblocage incorrect",
        "PASSWORD_INVALID": "Mot de passe incorrect",
        "SUBJECT": "Patient",
        "PATIENT_ADDED": "Patient ajouté",
        "TIME_ZONE": "Fuseau horaire :",
        "ACTIVATE_USER_CANCEL_CONFIRM": "Annuler l'activation ?",
        "ACTIVATE_USER_CANCEL_BODY": "Si vous annulez maintenant, l'utilisateur du centre ne sera pas activé. Êtes-vous sûr de vouloir annuler ?",
        "ACTIVATE_USER_AFF": "En signant ci-dessous, j’atteste que je suis autorisé à activer cet utilisateur du centre.",
        "ACTIVATE_USER_CONFIRM_INFORMATION": "Veuillez confirmer que les informations ci-dessous correspondent à l'utilisateur du centre à activer.",
        "DEACTIVATE_USER_CANCEL_CONFIRM": "Annuler la désactivation ?",
        "DEACTIVATE_USER_CANCEL_BODY": "Si vous annulez maintenant, l'utilisateur du centre ne sera pas désactivé. Êtes-vous sûr de vouloir annuler ?",
        "DEACTIVATE_USER_AFF": "En signant ci-dessous, j’atteste que je suis autorisé à désactiver cet utilisateur du centre.",
        "DEACTIVATE_USER_SIG": "<strong>Utilisateur à désactiver :</strong> <br />{{{ getSelectedUsername }}}<p><strong>Signature de :</strong> {{{ getActiveUserName }}}</p>",
        "DEACTIVATE_USER_CONFIRM_INFORMATION": "Veuillez confirmer que les informations ci-dessous correspondent à l'utilisateur du centre à désactiver.",
        "DIARY_TIMEOUT": "Ce formulaire a expiré.",
        "EDIT_PATIENT_QUESTION_1_MAIN_TITLE": "<div class='question-title-large'>ID patient </div><div>Plage des identifiants pour ce centre :<br /><strong> 0100 à 0600.</strong></div><div class='edit-patient-id'>ID patient :<br /><strong>{{{ getPatientIdNumber }}} ({{{getPatientInitials}}})</strong</div><br /><br />",
        "EDIT_PATIENT_QUESTION_1": "ID patient :",
        "EDIT_PATIENT_QUESTION_1_EMPTY": "Veuillez indiquer l'ID patient.",
        "EDIT_PATIENT_QUESTION_1_EMPTY_HEADER": "ID patient",
        "EDIT_PATIENT_QUESTION_1_RANGE": "L'ID patient saisi ne se trouve pas dans la plage des identifiants autorisés : {{{ patientIDRange }}}.  Veuillez saisir un ID patient valide.",
        "EDIT_PATIENT_QUESTION_1_RANGE_HEADER": "L'ID patient est hors de la plage",
        "EDIT_PATIENT_QUESTION_1_UNIQUE": "Le patient existe déjà.  Veuillez saisir un autre ID patient.",
        "EDIT_PATIENT_QUESTION_1_UNIQUE_HEADER": "L'ID patient est en double",
        "EDIT_PATIENT_QUESTION_2": "Initiales du patient :",
        "EDIT_PATIENT_QUESTION_2_EMPTY": "Veuillez indiquer les initiales du patient (2 caractères minimum).",
        "EDIT_PATIENT_QUESTION_2_EMPTY_HEADER": "Initiales du patient",
        "EDIT_PATIENT_QUESTION_3_TITLE": "<div class='question-title-large'>Sélection de la langue</div><div>ID patient :<br /><strong>{{{ getPatientIdNumber }}} ({{{getPatientInitials}}})</strong</div><br /><br />",
        "EDIT_PATIENT_QUESTION_3": "Sélectionnez la langue pour le patient.",
        "EDIT_PATIENT_QUESTION_4_TITLE": "<div class='question-title-large'>Raison de la modification</div><br /><br />",
        "EDIT_PATIENT_QUESTION_4": "Sélectionnez la raison pour laquelle vous modifiez le patient.",
        "EDIT_PATIENT_CANCEL_CONFIRM": "Annuler les modifications apportées au patient ?",
        "EDIT_PATIENT_CANCEL_BODY": "Si vous annulez maintenant, les paramètres relatifs au patient ne seront pas modifiés.  Êtes-vous sûr de vouloir annuler ?",
        "EDIT_PATIENT_NO_CHANGES_CONFIRM": "Aucune modification apportée au patient",
        "EDIT_PATIENT_NO_CHANGES_BODY": "Aucune modification n'a été apportée pour ce patient. Quitter quand même ?",
        "EDIT_PATIENT_REASON_0": "Correction d'une erreur par le clinicien",
        "EDIT_REASON": "Raison de la modification :",
        "EDIT_USER_AFF": "En signant ci-dessous, j’atteste que je suis autorisé à modifier cet utilisateur du centre. <p><strong>Signature de : </strong>{{{ getActiveUserName }}}</p>",
        "EDIT_USER_CANCEL_CONFIRM": "Annuler la modification de l'utilisateur ?",
        "EDIT_USER_CANCEL_BODY": "Si vous annulez maintenant, les modifications apportées pour l'utilisateur du centre ne seront pas enregistrées. Êtes-vous sûr de vouloir annuler ?",
        "EDIT_USER_NO_CHANGES_HEADER": "Aucune modification apportée à l'utilisateur du centre",
        "EDIT_USER_NO_CHANGES_BODY": "Aucune modification n'a été apportée pour cet utilisateur du centre. Quitter quand même ?",
        "ERROR_CODE": "Code d'erreur :",
        "ERROR_TITLE": "Erreur",
        "FIRST_SITE_USER": "Ajouter un premier utilisateur du centre",
        "NEW_PATIENT_QUESTION_1_MAIN_TITLE": "<div class='question-title-large'>Saisir les informations d'identification du patient</div><div>Centre :<strong> {{{ getSiteCode }}}</strong></div><div><strong>Utilisateur : {{{ getUserName }}}</strong</div><br /><br />",
        "NEW_PATIENT_HELP_TEXT_1": "",
        "NEW_PATIENT_HELP_TEXT_2": "",
        "NEW_PATIENT_HELP_TEXT_3": "",
        "NEW_PATIENT_QUESTION_1_TITLE": "ID patient",
        "NEW_PATIENT_QUESTION_1": "ID patient :",
        "NEW_PATIENT_QUESTION_1_EMPTY": "Veuillez indiquer l'ID patient.",
        "NEW_PATIENT_QUESTION_1_EMPTY_HEADER": "ID patient",
        "NEW_PATIENT_QUESTION_1_RANGE": "L'ID patient saisi ne se trouve pas dans la plage des identifiants autorisés : {{{ patientIDRange }}}.  Veuillez saisir un ID patient valide.",
        "NEW_PATIENT_QUESTION_1_RANGE_HEADER": "L'ID patient est hors de la plage",
        "NEW_PATIENT_QUESTION_1_UNIQUE": "Le patient existe déjà.  Veuillez saisir un autre ID patient.",
        "NEW_PATIENT_QUESTION_1_UNIQUE_HEADER": "L'ID patient est en double",
        "NEW_PATIENT_QUESTION_2": "Initiales du patient :",
        "NEW_PATIENT_QUESTION_2_EMPTY": "Veuillez indiquer les initiales du patient (2 caractères minimum).",
        "NEW_PATIENT_QUESTION_2_EMPTY_HEADER": "Initiales du patient",
        "NEW_PATIENT_QUESTION_3_TITLE": "<div class='question-title-large'>Sélection de la langue</div><div><strong>Centre : {{{ getSiteCode }}}</strong></div><div><strong>Utilisateur : {{{ getUserName }}}</strong</div><div><strong>ID patient : {{{ getPatientID }}}</strong></div><br /><br />",
        "NEW_PATIENT_QUESTION_3": "Sélectionnez la langue pour le patient.",
        "NEW_PATIENT_CANCEL_CONFIRM": "Annuler l'ajout du patient ?",
        "NEW_PATIENT_CANCEL_BODY": "Si vous annulez, le patient ne sera pas enregistré.  Êtes-vous sûr de vouloir annuler ?",
        "NEW_PATIENT_AFFIDAVIT_HEADER": "<div><strong>Centre : {{{ getSiteCode }}}</strong><br /><strong>Utilisateur : {{{ getUserName }}}</strong><br /><strong>ID patient : {{{ getPatientID }}}</strong></div>",
        "PATIENT_INITIALS": "Initiales du patient :",
        "PATIENT_DELETED": "Patient inconnu",
        "PATIENT_DELETED_MSG": "Patient introuvable.",
        "PATIENT_DELETED_SUBJECT_MSG": "Patient introuvable. Remettez le dispositif au membre du personnel concerné du centre.",
        "PLEASE_CONTACT": "Contactez le centre d'assistance ERT.",
        "PLEASE_TRY_OR_CONTACT_SUPPORT": "Réessayez ou contactez le centre d'assistance ERT.",
        "REASON": "Raison :",
        "SET_TIMEZONE_MESSAGE": "Sélectionnez votre fuseau horaire :",
        "SKIP_VISITS": "Ignorer les visites",
        "SKIP_VISITS_QUESTION_1": "<div class='question-title-large'><strong>Raison</strong></div><br /><br /><div>Sélectionnez la raison pour laquelle les visites sont ignorées :</div>",
        "SKIP_VISITS_REASON_0": "Visite expirée",
        "SKIP_VISITS_REASON_1": "Erreur du centre dans l'administration",
        "SKIP_VISITS_REASON_2": "Le sujet a manqué un rendez-vous clinique.",
        "SKIP_VISITS_REASON_3": "Sans objet.",
        "SKIP_VISITS_REASON_4": "Visite facultative, non réalisée.",
        "SKIP_VISITS_CANCEL_CONFIRM": "Ne pas ignorer les visites ?",
        "SKIP_VISITS_CANCEL_BODY": "Si vous annulez maintenant, les visites ne seront pas ignorées. Êtes-vous sûr de vouloir annuler ?",
        "SKIPPED_VISITS": "{{{ skippedVisits }}}",
		"USER_EDITED": "L'utilisateur a été mis à jour.",
        "USER_TO_ACTIVATE": "<strong>Utilisateur à activer :</strong> <br />{{{ getSelectedUsername }}}<p><strong>Signature de :</strong> {{{ getActiveUserName }}}</p>",
        "TIME_CONFIRMATION_INSTRUCTIONS": "L'appareil doit confirmer l'heure locale. Entrez la date et l'heure locales à partir d'une source fiable.",
        "TIME_ZONE_ERROR_HEADER": "Erreur de fuseau horaire",
        "TIME_ZONE_ERROR_MSG": "Erreur survenue pendant l'obtention de la liste des fuseaux horaires. Pour obtenir de l'aide, contactez le centre d'assistance ERT.",
        "TIME_ZONE_SET_ERROR_MSG": "Erreur survenue pendant le réglage du fuseau horaire. Pour obtenir de l'aide, contactez le centre d'assistance ERT.",
        "TIME_ZONE_SET_CONFIRM": "Êtes-vous sûr de vouloir régler le fuseau horaire sur {{{selectedTimeZone}}} ? <br/> L'application peut redémarrer afin d'appliquer la modification.",
        "TIME_ZONE_SET_CONFIRM_NOCHANGE": "Êtes-vous sûr de vouloir régler le fuseau horaire sur {{{selectedTimeZone}}} ?",
        "TIME_ZONE_SET_HEADER": "Confirmation de réglage du fuseau horaire",
        "TRAINER": "Mode Formation",
        "TRAINER_EXIT": "Quitter le mode Formation",
        "TRAINER_EXIT_NOTIFICATION": "Vous quittez le mode Formation",
        "TRAINER_HEADER": "(Formation)",
		"VISIT_INACTIVE_HEADER": "Visite inactive.",
        "VISIT_INACTIVE_MESSAGE": "Cette visite n'est plus active.",
        "VISIT_INACTIVE_MESSAGE_SUBJECT": "Cette visite n'est plus active. Remettez le dispositif au membre du personnel concerné du centre.",
        "SITE_ADMINISTRATOR": "Administrateur du centre",
        "LOW_BATTERY": "Attention : Le niveau de charge de la batterie est faible. Branchez l'appareil pour le recharger.",
        "CRITICAL_BATTERY": "Attention : Le niveau de charge de la batterie est très faible. Branchez l'appareil pour le recharger, sans quoi il va s'arrêter.",
        "TIME_CONFIRMATION_HEADER": "Confirmer date/heure",
        "TIMESLIP_ERROR": "L'heure ou la date de votre appareil est incorrecte. Recherchez un endroit disposant d'une connexion Internet et réessayez. Si les problèmes persistent, contactez le service client ERT.",
         "SUPPORT": "Assistance client",
        "SUPPORT_MESSAGE": "Les utilisateurs aux États-Unis peuvent contacter le centre d'assistance ERT au 800-748-5669. Les utilisateurs hors des États-Unis peuvent sélectionner le pays le plus proche ci-dessous :",
        "SUPPORT_DROPDOWN": "Sélectionnez votre pays",
        "SUPPORT_NAME_ARGENTINA": "Argentine",
        "SUPPORT_NUMBER_ARGENTINA": "<bdi>0800 444 0962</bdi>",
        "SUPPORT_NAME_ARMENIA": "Arménie",
        "SUPPORT_NUMBER_ARMENIA": "<bdi>+1 617 681 6306</bdi>",
        "SUPPORT_NAME_AUSTRALIA": "Australie",
        "SUPPORT_NUMBER_AUSTRALIA": "<bdi>1 800 800 051</bdi>",
        "SUPPORT_NAME_AUSTRIA": "Autriche",
        "SUPPORT_NUMBER_AUSTRIA": "<bdi>0800 100 405</bdi>",
        "SUPPORT_NAME_BELARUS": "Biélorussie",
        "SUPPORT_NUMBER_BELARUS": "<bdi>8 820 0321 0036</bdi>",
        "SUPPORT_NAME_BELGIUM": "Belgique",
        "SUPPORT_NUMBER_BELGIUM_1": "(anglais) : <bdi>0800 58 016</bdi>",
        "SUPPORT_NUMBER_BELGIUM_2": "(français) : <bdi>0800 71 076</bdi>",
        "SUPPORT_NUMBER_BELGIUM_3": "(allemand) : <bdi>0800 71 113</bdi>",
        "SUPPORT_NAME_BRAZIL": "Brésil",
        "SUPPORT_NUMBER_BRAZIL": "<bdi>0800 891 5909</bdi>",
        "SUPPORT_NAME_BOSNIA": "Bosnie",
        "SUPPORT_NUMBER_BOSNIA": "<bdi>+1 617 681 6306</bdi>",
        "SUPPORT_NAME_BULGARIA": "Bulgarie",
        "SUPPORT_NUMBER_BULGARIA": "<bdi>00800 0010</bdi>, puis <bdi>866 245 4931</bdi>",
        "SUPPORT_NAME_CANADA": "Canada",
        "SUPPORT_NUMBER_CANADA": "<bdi>1 800 748 5669</bdi>",
        "SUPPORT_NAME_CHILE": "Chili",
        "SUPPORT_NUMBER_CHILE": "<bdi>123 0020 3408</bdi>",
        "SUPPORT_NAME_CHINA": "Chine",
        "SUPPORT_NUMBER_CHINA_1": "NetCom (Nord) : <bdi>1 0800 74 40 164</bdi>",
        "SUPPORT_NUMBER_CHINA_2": "Telecom (Sud) : <bdi>1 0800 44 00 158</bdi>",
        "SUPPORT_NAME_COLOMBIA": "Colombie",
        "SUPPORT_NUMBER_COLOMBIA": "<bdi>01 800 911 0010</bdi>, puis <bdi>866 310 3707</bdi>",
        "SUPPORT_NAME_COSTA_RICA": "Costa Rica",
        "SUPPORT_NUMBER_COSTA_RICA": "<bdi>0800 013 1210</bdi>",
        "SUPPORT_NAME_CROATIA": "Croatie",
        "SUPPORT_NUMBER_CROATIA": "<bdi>0800 222 953</bdi>",
        "SUPPORT_NAME_CZECH_REPUBLIC": "République tchèque",
        "SUPPORT_NUMBER_CZECH_REPUBLIC": "<bdi>800 142 150</bdi>",
        "SUPPORT_NAME_DENMARK": "Danemark",
        "SUPPORT_NUMBER_DENMARK": "<bdi>80 60 00 09</bdi>",
        "SUPPORT_NAME_EGYPT": "Égypte",
        "SUPPORT_NUMBER_EGYPT": "<bdi>02 510 0200</bdi>, puis <bdi>866 310 3707</bdi>",
        "SUPPORT_NAME_EL_SALVADOR": "El Salvador",
        "SUPPORT_NUMBER_EL_SALVADOR": "<bdi>+1 617 681 6306</bdi>",
        "SUPPORT_NAME_ESTONIA": "Estonie",
        "SUPPORT_NUMBER_ESTONIA": "<bdi>800 00 44 154</bdi>",
        "SUPPORT_NAME_FINLAND": "Finlande",
        "SUPPORT_NUMBER_FINLAND": "<bdi>0800 11 6366</bdi>",
        "SUPPORT_NAME_FRANCE": "France",
        "SUPPORT_NUMBER_FRANCE": "<bdi>0800 10 19 79</bdi>",
        "SUPPORT_NAME_GERMANY": "Allemagne",
        "SUPPORT_NUMBER_GERMANY": "<bdi>0800 101 28 21</bdi>",
        "SUPPORT_NAME_GREECE": "Grèce",
        "SUPPORT_NUMBER_GREECE": "<bdi>00 800 1311</bdi>, puis <bdi>866 310 3707</bdi>",
        "SUPPORT_NAME_GUATEMALA": "Guatemala",
        "SUPPORT_NUMBER_GUATEMALA": "<bdi>1 800 624 0079</bdi>",
        "SUPPORT_NAME_HONG_KONG": "Hong Kong",
        "SUPPORT_NUMBER_HONG_KONG": "<bdi>3002 1665</bdi>",
        "SUPPORT_NAME_HUNGARY": "Hongrie",
        "SUPPORT_NUMBER_HUNGARY": "<bdi>06 800 14 571</bdi>",
        "SUPPORT_NAME_ICELAND": "Islande",
        "SUPPORT_NUMBER_ICELAND": "<bdi>800 8544</bdi>",
        "SUPPORT_NAME_INDIA": "Inde",
        "SUPPORT_NUMBER_INDIA": "<bdi>000 800 440 1125</bdi>",
        "SUPPORT_NAME_INDONESIA": "Indonésie",
        "SUPPORT_NUMBER_INDONESIA": "<bdi>008 800 330 334</bdi>",
        "SUPPORT_NAME_IRELAND": "Irlande",
        "SUPPORT_NUMBER_IRELAND": "<bdi>1 800 946 700</bdi>",
        "SUPPORT_NAME_ISRAEL": "Israël",
        "SUPPORT_NUMBER_ISRAEL": "<bdi>1 809 470 062</bdi>",
        "SUPPORT_NAME_ITALY": "Italie",
        "SUPPORT_NUMBER_ITALY": "<bdi>800 90 56 37</bdi>",
        "SUPPORT_NAME_JAPAN": "Japon",
        "SUPPORT_NUMBER_JAPAN": "Consultez le guide d'information de l'étude ePRO pour connaître le numéro gratuit correspondant à votre étude.",
        "SUPPORT_NAME_LATVIA": "Lettonie",
        "SUPPORT_NUMBER_LATVIA": "<bdi>8000 2151</bdi>",
        "SUPPORT_NAME_LEBANON": "Liban",
        "SUPPORT_NUMBER_LEBANON": "<bdi>01-426-801</bdi> puis <bdi>866 310 3707</bdi>",
        "SUPPORT_NAME_LITHUANIA": "Lituanie",
        "SUPPORT_NUMBER_LITHUANIA": "<bdi>8800 30207</bdi>",
        "SUPPORT_NAME_MALAYSIA": "Malaisie",
        "SUPPORT_NUMBER_MALAYSIA": "<bdi>1800 80 59 71</bdi>",
        "SUPPORT_NAME_MEXICO": "Mexique",
        "SUPPORT_NUMBER_MEXICO_1": "(anglais) : <bdi>001 800 748 5669</bdi> ",
        "SUPPORT_NUMBER_MEXICO_2": "(espagnol) : <bdi>001 855 631 6952</bdi>",
        "SUPPORT_NAME_MOLDOVA": "Moldavie",
        "SUPPORT_NUMBER_MOLDOVA": "<bdi>617 681 6306</bdi>",
        "SUPPORT_NAME_NETHERLANDS": "Pays-Bas",
        "SUPPORT_NUMBER_NETHERLANDS": "<bdi>0800 023 1389</bdi>",
        "SUPPORT_NAME_NEW_ZEALAND": "Nouvelle-Zélande",
        "SUPPORT_NUMBER_NEW_ZEALAND": "<bdi>0800 110 178</bdi>",
        "SUPPORT_NAME_NORWAY": "Norvège",
        "SUPPORT_NUMBER_NORWAY": "<bdi>800 62 051</bdi>",
        "SUPPORT_NAME_PAKISTAN": "Pakistan",
        "SUPPORT_NUMBER_PAKISTAN": "<bdi>00 800 0100</bdi>, puis <bdi>866 237 9767</bdi>",
        "SUPPORT_NAME_PANAMA": "Panama",
        "SUPPORT_NUMBER_PANAMA": "<bdi>001 800 201 3095</bdi>",
        "SUPPORT_NAME_PERU": "Pérou",
        "SUPPORT_NUMBER_PERU": "<bdi>0800 5 0974</bdi>",
        "SUPPORT_NAME_PHILIPPINES": "Philippines",
        "SUPPORT_NUMBER_PHILIPPINES": "<bdi>1 800 1116 0651</bdi>",
        "SUPPORT_NAME_POLAND": "Pologne",
        "SUPPORT_NUMBER_POLAND": "<bdi>00800 331 1262</bdi>",
        "SUPPORT_NAME_PORTUGAL": "Portugal",
        "SUPPORT_NUMBER_PORTUGAL": "<bdi>800 206 172</bdi>",
        "SUPPORT_NAME_PUERTO_RICO": "Porto Rico (territoire américain)",
        "SUPPORT_NUMBER_PUERTO_RICO": "<bdi>1 800 748 5669</bdi>",
        "SUPPORT_NAME_ROMANIA": "Roumanie",
        "SUPPORT_NUMBER_ROMANIA": "<bdi>0800 894492</bdi>",
        "SUPPORT_NAME_RUSSIA": "Russie",
        "SUPPORT_NUMBER_RUSSIA_1": "(numéro principal - gratuit) : <bdi>8 10 800 249 13011</bdi>",
        "SUPPORT_NUMBER_RUSSIA_2": "(à Moscou) : <bdi>363-2400</bdi> <br> puis <bdi>866 310 3707</bdi>",
        "SUPPORT_NUMBER_RUSSIA_3": "(hors de Moscou) : <bdi>8^(495) 363-2400</bdi> <br> puis <bdi>866 310 3707</bdi>",
        "SUPPORT_NUMBER_RUSSIA_4": "(à Saint-Pétersbourg) : <bdi>363-2400</bdi> <br> puis <bdi>866 310 3707</bdi>",
        "SUPPORT_NUMBER_RUSSIA_5": "(hors de Saint-Pétersbourg) : <bdi>8^(495) 363-2400</bdi> <br> puis <bdi>866 310 3707</bdi>",
        "SUPPORT_NAME_SAUDI_ARABIA": "Arabie saoudite",
        "SUPPORT_NUMBER_SAUDI_ARABIA": "<bdi>+1 617 681 6306</bdi>",
        "SUPPORT_NAME_SERBIA": "Serbie",
        "SUPPORT_NUMBER_SERBIA": "<bdi>+1 617 973 1739</bdi>",
        "SUPPORT_NAME_SINGAPORE": "Singapour",
        "SUPPORT_NUMBER_SINGAPORE": "<bdi>800 616 30 03</bdi>",
        "SUPPORT_NAME_SLOVAKIA": "Slovaquie",
        "SUPPORT_NUMBER_SLOVAKIA": "<bdi>0800 0044 65</bdi>",
        "SUPPORT_NAME_SLOVENIA": "Slovénie",
        "SUPPORT_NUMBER_SLOVENIA": "<bdi>+1 617 681 6306</bdi>",
        "SUPPORT_NAME_SOUTH_AFRICA": "Afrique du Sud",
        "SUPPORT_NUMBER_SOUTH_AFRICA": "<bdi>0800 99 5853</bdi>",
        "SUPPORT_NAME_SOUTH_KOREA": "Corée du Sud",
        "SUPPORT_NUMBER_SOUTH_KOREA": "<bdi>00308 33 00 08</bdi>",
        "SUPPORT_NAME_SPAIN": "Espagne",
        "SUPPORT_NUMBER_SPAIN": "<bdi>900 90 2541</bdi>",
        "SUPPORT_NAME_SWEDEN": "Suède",
        "SUPPORT_NUMBER_SWEDEN": "<bdi>020 120 99 69</bdi>",
        "SUPPORT_NAME_SWITZERLAND": "Suisse",
        "SUPPORT_NUMBER_SWITZERLAND_1": "(anglais) : <bdi>0800 199 325</bdi>",
        "SUPPORT_NUMBER_SWITZERLAND_2": "(français) : <bdi>0800 891 183</bdi>",
        "SUPPORT_NUMBER_SWITZERLAND_3": "(allemand) : <bdi>0800 891 025</bdi>",
        "SUPPORT_NAME_TAIWAN": "Taïwan",
        "SUPPORT_NUMBER_TAIWAN": "<bdi>00801 33 33 42</bdi>",
        "SUPPORT_NAME_THAILAND": "Thaïlande",
        "SUPPORT_NUMBER_THAILAND": "<bdi>1 800 33 140 353</bdi>",
        "SUPPORT_NAME_TUNISIA": "Tunisie",
        "SUPPORT_NUMBER_TUNISIA": "<bdi>+1 617 681 6306</bdi>",
        "SUPPORT_NAME_TURKEY": "Turquie",
        "SUPPORT_NUMBER_TURKEY": "<bdi>00 800 151 1335</bdi>",
        "SUPPORT_NAME_UKRAINE": "Ukraine",
        "SUPPORT_NUMBER_UKRAINE": "<bdi>0^00 11</bdi>, puis <bdi>866 245 4931</bdi>",
        "SUPPORT_NAME_UAE": "Émirats arabes unis",
        "SUPPORT_NUMBER_UAE": "<bdi>8000-021</bdi>, puis <bdi>866 310 3707</bdi>",
        "SUPPORT_NAME_UK": "Royaume-Uni",
        "SUPPORT_NUMBER_UK": "<bdi>0800 015 0408</bdi>",
        "SUPPORT_NAME_US": "États-Unis",
        "SUPPORT_NUMBER_US_1": "(numéro principal) : <bdi>1 800 748 5669</bdi>",
        "SUPPORT_NUMBER_US_2": "(numéro secondaire) : <bdi>1 877 748 5669</bdi>",
        "SUPPORT_NAME_VENEZUELA": "Venezuela",
        "SUPPORT_NUMBER_VENEZUELA_1": "(anglais) : <bdi>0 800 552 6288</bdi> <br> puis <bdi>866 310 3707</bdi> ",
        "SUPPORT_NUMBER_VENEZUELA_2": "(espagnol) : <bdi>0 800 100 3063</bdi> ",
        "ABOUT": "A propos de",
        "CORE_PRODUCT_VERSION_LABEL": "Version du produit :",
        "PROTOCOL": "Protocole :",
        "SPONSOR": "Sponsor :",
        "STORED_REPORTS": "Formulaires conservés :",
        "STUDY_VERSION": "Version de l’étude : ",
        "STUDY_URL": "URL de l'étude :",
        "P_AFFIDAVIT_HEADER": "<div><strong>Centre : {{{ getSiteCode }}}</strong><br /><strong>ID patient : {{{ getPatientIdNumber }}}</strong></div>",
		"SET_TIMEZONE": "Régler le fuseau horaire",
		"DEVICE_SERIAL_NUMBER": "Numéro de série de l'appareil",
		"NONEXISTENT_USER": "Tentative de mise à jour d'un utilisateur inexistant.",
		"SCREENING" : "Sélection",
		"TREATMENT" : "Traitement",
		"RANDOMIZATION" : "Randomisation",
		"FOLLOWUP" : "Suivi",
		"TERMINATION" : "Fin",
        "ACCEPT": "J'accepte",
        "DECLINE": "Je n'accepte pas",
		"EULA": "LICENCE D'UTILISATION",
        "EULA_TEXT": "<p><strong><span class=\"text-underline\">IMPORTANT</span> :  NE CLIQUEZ PAS SUR LE BOUTON « J'ACCEPTE » AVANT D'AVOIR LU CE CONTRAT.  EN CLIQUANT SUR LE BOUTON « J'ACCEPTE », VOUS ACCEPTEZ TOUTES LES CONDITIONS DE CE CONTRAT.  SI VOUS N'ACCEPTEZ PAS TOUTES LES CONDITIONS DE CE CONTRAT (1) NE CLIQUEZ PAS SUR LE BOUTON \"J'ACCEPTE\", MAIS (2) CLIQUEZ SUR LE BOUTON \"JE N'ACCEPTE PAS\" POUR INTERROMPRE L'INSTALLATION ET L'ACQUISITION DE LA LICENCE.</strong></p><p>eResearchTechnology, Inc. (\"concédant de licence\") vous accorde le droit non exclusif et non transférable d'utiliser le logiciel d'eResearchTechnology, Inc. intégré sur ce dispositif (\"logiciel\") pendant votre participation à l'essai clinique : <strong>{{{ clinicalTrial }}}</strong>.  Le logiciel d'eResearchTechnology, Inc. est couvert par des brevets délivrés et d'autres en attente.  Ce contrat ne vous donne aucun droit de propriété sur un quelconque logiciel (ou une copie de logiciel) ; il constitue uniquement une licence d'utilisation du logiciel selon les conditions décrites par les présentes.  La propriété du logiciel et de toutes ses parties, ainsi que tous les droits de propriété et de propriété intellectuelle énoncés dans les présentes demeurent en toute circonstance la propriété du concédant de licence.</p><p>Vous acceptez de ne pas, directement ou indirectement, (i) rétroconcevoir, désassembler ni décompiler le logiciel, (ii) copier, distribuer, fabriquer, adapter, traduire, localiser, porter ni modifier le logiciel de quelque façon que ce soit, ni créer des versions dérivées, ni (iii) supprimer ou altérer tout droit d'auteur, secret commercial ou autre avis juridique contenu dans ou sur le logiciel.  VOUS ACCEPTEZ ET RECONNAISSEZ QUE LE LOGICIEL PEUT CONTENIR UN CODE QUI EMPÊCHE TOUTE UTILISATION NON AUTORISÉE DU LOGICIEL.</p><br><p>SI VOUS ACCEPTEZ TOUTES LES CONDITIONS PRÉCÉDENTES, veuillez sélectionner <strong>J'accepte</strong> ; en cliquant sur \"J'accepte\", vous acceptez les conditions du contrat de licence.</p><p>SI VOUS N'ACCEPTEZ PAS TOUTES LES CONDITIONS PRÉCÉDENTES, ou que vous n'êtes pas autorisé(e) à les accepter, sélectionnez <strong>Je n'accepte pas</strong> ; dans ce cas, tout accès ultérieur au logiciel sera bloqué.  Si vous êtes autorisé(e) à les accepter par la suite, vous pourrez les accepter à un autre moment.</p>",
        "VISIT_EXPIRED_HEADER": "Visite expirée.",
        "VISIT_EXPIRED_MESSAGE": "Cette visite n'est plus disponible car sa date est dépassée.",
        "VISIT_EXPIRED_MESSAGE_SUBJECT": "Cette visite n'est plus disponible car sa date est dépassée. Remettez l'appareil au membre du personnel concerné du centre.",
        "SQ-AL": "Albanais",
        "IMAGE_FOLDER": "{{{ imageFolder }}}",
		"MODAL_OK_TEXT": "OK",
        "BROWSER_LOAD_ERROR": "Page introuvable. Vérifiez votre connexion Internet et réessayez.",
		"NO_USER_OF_ROLE" : "Aucun utilisateur avec ce rôle n'a été trouvé.",
        "EDIT_PATIENT_REASON_1": "Correction des données descriptives",
		"EDIT_PATIENT_REASON_2": "Modification de l'ID",
		"EDIT_PATIENT_REASON_3": "Mauvaise langue sélectionnée",
		"START_VISIT_OUTSIDE_WINDOW_MSG" : "Commencer la {{{ getVisitName }}} en dehors de la période configurée :<br /> {{{ startDate }}} - {{{ endDate }}}",
		"START_VISIT_HARD_STOP_MSG" : "Vous ne pouvez pas commencer la {{{ getVisitName }}} en dehors de la période configurée :<br /> {{{ startDate }}} - {{{ endDate }}}",
		"USER_NAME_INVALID_CHARACTERS" : "N'utilisez pas de caractères spéciaux",
		"ERROR_PATIENT_SAVE" : "Une erreur est survenue lors de l'ajout du nouveau patient",
		"PASSWORD_CHANGE_FAILED" : "Un autre appareil a été activé pour le recueil de vos données d'étude. Modifiez votre mot de passe sur cet appareil.",
		"ERROR" : "Erreur.  Contactez le centre d'assistance ERT.",
		"ERROR_AFTER_ACTIVATION_SUCCESSFUL" : "Une erreur s'est produite. Vous devrez saisir votre code de configuration et votre mot de passe.",
		"CONNECTION_TIMEOUT" : "Connexion expirée.",
		"UPDATE_FAILED" : "La mise à jour d'ERT a échoué. Vérifiez que cet appareil est connecté à Internet et réessayez."
    },
    "dates": {
        "setDateButtonLabel": "Régler la date",
        "setTimeButtonLabel": "OK",
        "setDurationButtonLabel": "Régler la durée",
        "calTodayButtonLabel": "Passer à aujourd'hui",
        "titleDateDialogLabel": "Régler la date",
        "titleTimeDialogLabel": "Régler l'heure",
        "daysOfWeek": [
            "Dimanche",
            "Lundi",
            "Mardi",
            "Mercredi",
            "Jeudi",
            "Vendredi",
            "Samedi"
        ],
        "daysOfWeekShort": [
            "Dim",
            "Lun",
            "Mar",
            "Mer",
            "Jeu",
            "Ven",
            "Sam"
        ],
        "monthsOfYear": [
            "janvier",
            "février",
            "mars",
            "avril",
            "mai",
            "juin",
            "juillet",
            "août",
            "septembre",
            "octobre",
            "novembre",
            "décembre"
        ],
        "monthsOfYearShort": [
            "janv.",
            "fév.",
            "mars",
            "avr",
            "mai",
            "juin",
            "juil",
            "août",
            "sept",
            "oct",
            "nov",
            "déc"
        ],
        "durationLabel": [
            "Jours",
            "Heures",
            "Minutes",
            "Secondes"
        ],
        "durationDays": [
            "Jour",
            "Jours"
        ],
        "tooltip": "Ouvrir le sélectionneur de dates",
        "nextMonth": "Mois suivant",
        "prevMonth": "Mois précédent",
        "clearButton": "Effacer",
        "meridiem": [
            "a.m.",
            "p.m."
        ]
    }
}
