{
    "namespace": "CORE",
    "language": "nb",
    "locale": "NO",
    "localized": "Norsk",
    "direction": "ltr",
    "resources": {
        "ACTIVE": "Aktiv",
        "ACTIVATE_USER": "Aktiver bruker",
        "ACTIVATE_USER_CANCEL_CONFIRM": "Avbryte aktivering?",
        "ACTIVATE_USER_CANCEL_BODY": "Hvis du avbryter nå, blir studiestedbrukeren ikke aktivert. Er du sikker på at du vil avbryte?",
        "ACTIVATE_USER_AFF": "Ved å signere nedenfor erklærer jeg herved at jeg er autorisert til å aktivere denne studiestedbrukeren.",
        "ACTIVATE_USER_CONFIRM_INFORMATION": "Bekreft at informasjonen nedenfor tilhører studiestedbrukeren du ønsker å aktivere.",
        "ADD_PATIENT": "Legg til ny pasient",
        "ADD_USER": "Legg til bruker",
        "AFFIDAVIT": "Velg OK og deretter Neste, når du er klar til å lagre svarene.",
        "AFFIDAVIT_HELP": "Takk. Du har avgitt alle de påkrevde svarene. Du kan se over og endre svarene dine ved å velge Tilbake.",
        "ALL_QUESTIONNAIRES_COMPLETED": "Alle skjemaer er fullført",
        "APP_NAME": "ERT",
        "APPLICATION_HEADER": "{{{ appHeader }}}",
        "APP_NAME_LBL": "Appnavn",
        "APP_VERSION": "Appversjon",
        "ASSIGNED_TO": "Tilordnet til",
        "AVAILABLE": "Tilgjengelig",
        "BACK": "Tilbake",
        "BACK_OUT_CONFIRM": "Er du sikker på at du vil avslutte? Svarene for dette skjemaet går tapt.",
        "BLUETOOTH_REG_REFRESH_BUTTON": "Oppdater liste",
        "CANCEL": "Avbryt",
        "CHECK_FOR_UPDATES": "Se etter oppdateringer",
        "CHOOSE_A_SITE": "Tilordne denne enheten til et bestemt studiested.",
        "COMPLETED": "Fullført",
        "CONFIRM_PASSWORD": "Bekreft passord:",
        "CONFIRM_TEMP_PASS": "Bekreft midlertidig passord:",
        "CONTINUE": "Fortsett",
        "COUNTRY": "Land",
        "CUSTOM_ENVIRONMENT": "Tilpasset miljø",
        "DEACTIVATE_PATIENT": "Deaktiver pasient",
        "DEACTIVATE_USER": "Deaktiver bruker",
        "DEACTIVATED": "Deaktivert",
        "DEACTIVATE_USER_CANCEL_CONFIRM": "Avbryte deaktivering?",
        "DEACTIVATE_USER_CANCEL_BODY": "Hvis du avbryter nå, blir studiestedbrukeren ikke deaktivert. Er du sikker på at du vil avbryte?",
        "DEACTIVATE_USER_AFF": "Ved å signere nedenfor erklærer jeg herved at jeg er autorisert til å deaktivere denne studiestedbrukeren.",
        "DEACTIVATE_USER_SIG": "<strong>Bruker som skal deaktiveres:</strong> <br />{{{ getSelectedUsername }}}<p><strong>Underskriften til:</strong> {{{ getActiveUserName }}}</p>",
        "DEACTIVATE_USER_CONFIRM_INFORMATION": "Bekreft at informasjonen nedenfor tilhører studiestedbrukeren du ønsker å deaktivere.",
        "DEVICE_ID": "Enhets-ID",
        "DEVICE_REGISTRATION_FAILURE": "Registrering av enheten mislyktes.",
        "DEVICE_UUIID": "Enhets-UUID",
        "BATTERY_LEVEL": "Batterinivå",
        "DEVICE_INFO": "Enhetsinformasjon",
        "DIARY_TIMEOUT": "Dette skjemaet har fått tidsavbrudd.",
        "EDIT_MY_INFO": "Rediger min info",
        "EDIT_PATIENT": "Rediger pasient",
        "EDIT_PATIENT_QUESTION_1_MAIN_TITLE": "<div class='question-title-large'>Pasientidentifikasjon </div><div>ID-område for dette studiestedet:<br /><strong> 0100 – 0600</strong></div><div class='edit-patient-id'>Pasient-ID:<br /><strong>{{{ getPatientIdNumber }}} ({{{getPatientInitials}}})</strong</div><br /><br />",
        "EDIT_PATIENT_QUESTION_1": "Pasient-ID:",
        "EDIT_PATIENT_QUESTION_1_EMPTY": "Fyll ut pasient-ID-en.",
        "EDIT_PATIENT_QUESTION_1_EMPTY_HEADER": "Pasient-ID",
        "EDIT_PATIENT_QUESTION_1_RANGE": "Pasient-ID-en du har angitt, er ikke innenfor området for tillate ID-er: {{{ patientIDRange }}}.  Angi en gyldig pasient-ID.",
        "EDIT_PATIENT_QUESTION_1_RANGE_HEADER": "Pasient-ID-en er utenfor området",
        "EDIT_PATIENT_QUESTION_1_UNIQUE": "Pasienten finnes allerede.  Angi en annen pasient-ID.",
        "EDIT_PATIENT_QUESTION_1_UNIQUE_HEADER": "Pasient-ID-en er et duplikat",
        "EDIT_PATIENT_QUESTION_2": "Pasientinitialer:",
        "EDIT_PATIENT_QUESTION_2_EMPTY": "Fyll ut pasientinitialene, med minimum 2 tegn.",
        "EDIT_PATIENT_QUESTION_2_EMPTY_HEADER": "Pasientinitialer",
        "EDIT_PATIENT_QUESTION_3_TITLE": "<div class='question-title-large'>Velg språk</div><div>Pasient-ID:<br /><strong>{{{ getPatientIdNumber }}} ({{{getPatientInitials}}})</strong</div><br /><br />",
        "EDIT_PATIENT_QUESTION_3": "Velg språk for pasienten",
        "EDIT_PATIENT_QUESTION_4_TITLE": "<div class='question-title-large'>Rediger grunn</div><br /><br />",
        "EDIT_PATIENT_QUESTION_4": "Velg grunnen for redigering av en pasient",
        "EDIT_PATIENT_CANCEL_CONFIRM": "Avbryte endringer for pasient?",
        "EDIT_PATIENT_CANCEL_BODY": "Hvis du avbryter nå, blir pasientinnstillingene ikke oppdatert.  Er du sikker på at du vil avbryte?",
        "EDIT_PATIENT_NO_CHANGES_CONFIRM": "Ingen endringer er foretatt for pasienten",
        "EDIT_PATIENT_NO_CHANGES_BODY": "Ingen endringer er foretatt for denne pasienten. Avslutte likevel?",
        "EDIT_PATIENT_REASON_0": "Rette feil av kliniker",
        "EDIT_REASON": "Rediger grunn:",
        "EDIT_SERVICE_URL": "Rediger URL-tjenesteadresse",
        "EDIT_SERVICE_URL_SUCCESS": "URL-tjenesteadressen er oppdatert.",
        "EDIT_USER": "Rediger bruker",
        "EDIT_USER_AFF": "Ved å signere nedenfor erklærer jeg herved at jeg er autorisert til å redigere denne studiestedbrukeren. <p><strong>Underskriften til: </strong>{{{ getActiveUserName }}}</p>",
        "EDIT_USER_CANCEL_CONFIRM": "Avbryte redigering av bruker?",
        "EDIT_USER_CANCEL_BODY": "Hvis du avbryter nå, blir endringer for studiestedbrukeren ikke bli tatt i bruk. Er du sikker på at du vil avbryte?",
        "EDIT_USER_NO_CHANGES_HEADER": "Ingen endringer er foretatt for studiestedbrukeren",
        "EDIT_USER_NO_CHANGES_BODY": "Ingen endringer er foretatt for denne studiestedbrukeren. Avslutte likevel?",
        "EMAIL": "E-postadresse",
        "ENTER_PATIENT_INFO": "Angi pasientinformasjon",
        "ENTER_UNLOCK_CODE": "Angi opplåsingskoden",
        "ENTER_USER_INFO": "Angi informasjon for ny studiestedbruker",
        "ENVIRONMENT": "Miljø",
        "ERROR_CODE": "Feilkode:",
        "ERROR_TITLE": "Feil",
        "FIRST_NAME": "Fornavn",
        "FORGOT_PASSWORD": "Glemt passordet?",
        "FORM": "Skjema",
        "FORM_GATEWAY": "Skjemagateway",
        "FORM_NAME": "Skjemanavn",
        "FULL_NAME": "Fullt navn:",
        "GO_TO_VISITS": "Pasientbesøk",
        "HAND_DEVICE_SITE_TITLE": "Gi enhet til studiestedbruker",
        "HAND_DEVICE_SITE_BODY": "Gi enheten til studiestedbrukeren.",
        "HELP": "Hjelp",
        "HOME": "Hjem",
        "IN_PROGRESS": "Pågår",
        "INITIALS": "Initialer",
        "INVALID_URL": "Angi en gyldig URL-adresse.",
        "INVALID_PERMISSION": "Ugyldig tillatelse.",
        "INVALID_PASSWORD": "Ugyldig passord.",
        "LANGUAGE": "Språk:",
        "LAST_LOGIN": "Siste pålogging",
        "LAST_NAME": "Etternavn",
        "LAST_REFRESH_TIME": "Siste oppdateringstidspunkt",
        "LOCATION": "Sted",
        "LOGIN": "Logg inn",
        "LOGIN_SCREEN": "Pålogging",
        "LOGOUT": "Logg ut",
        "MANAGE_USERS": "Administrer studiestedbrukere",
        "MARK_AS_COMPLETED": "Merk som fullført",
        "SITE_SIGNATURE": "Underskriften til: ",
        "SITE_REPORT_AFF": "Jeg har ført opp, dobbeltkontrollert og bekrefter herved foregående data.<p><strong>Underskriften til: {{{ getActiveUserName }}}</strong></p>",
        "PATIENT_REPORT_AFF": "Jeg har ført opp, dobbeltkontrollert og bekrefter herved foregående data.<p class={{{ getPatientInitials }}}><strong>Initialene til: {{{ getActiveUserName }}}</strong></p>",
        "CLEAR_SIGNATURE": "Slett signatur",
        "MENU": "Meny",
        "MODE": "Modus",
        "NAME": "Navn",
        "NEW_USER": "Legg til ny brukerdagbok",
        "FIRST_SITE_USER": "Legg til første studiestedbruker",
        "NEW_USER_CREATED": "Studiestedbrukeren er opprettet.",
        "NEW_PATIENT_QUESTION_1_MAIN_TITLE": "<div class='question-title-large'>Angi informasjon om pasientidentifikasjon</div><div><strong>Studiested: {{{ getSiteCode }}}</strong></div><div><strong>Bruker: {{{ getUserName }}}</strong</div><br /><br />",
        "NEW_PATIENT_HELP_TEXT_1": "",
        "NEW_PATIENT_HELP_TEXT_2": "",
        "NEW_PATIENT_HELP_TEXT_3": "",
        "NEW_PATIENT_QUESTION_1_TITLE": "Pasient-ID",
        "NEW_PATIENT_QUESTION_1": "Pasient-ID:",
        "NEW_PATIENT_QUESTION_1_EMPTY": "Fyll ut pasient-ID-en.",
        "NEW_PATIENT_QUESTION_1_EMPTY_HEADER": "Pasient-ID",
        "NEW_PATIENT_QUESTION_1_RANGE": "Pasient-ID-en du har angitt, er ikke innenfor området for tillate ID-er: {{{ patientIDRange }}}.  Angi en gyldig pasient-ID.",
        "NEW_PATIENT_QUESTION_1_RANGE_HEADER": "Pasient-ID-en er utenfor området",
        "NEW_PATIENT_QUESTION_1_UNIQUE": "Pasienten finnes allerede.  Angi en annen pasient-ID.",
        "NEW_PATIENT_QUESTION_1_UNIQUE_HEADER": "Pasient-ID-en er et duplikat",
        "NEW_PATIENT_QUESTION_2": "Pasientinitialer:",
        "NEW_PATIENT_QUESTION_2_EMPTY": "Fyll ut pasientinitialene, med minimum 2 tegn.",
        "NEW_PATIENT_QUESTION_2_EMPTY_HEADER": "Pasientinitialer",
        "NEW_PATIENT_QUESTION_3_TITLE": "<div class='question-title-large'>Velg språk</div><div><strong>Studiested: {{{ getSiteCode }}}</strong></div><div><strong>Bruker: {{{ getUserName }}}</strong</div><div><strong>Pasient-ID: {{{ getPatientID }}}</strong></div><br /><br />",
        "NEW_PATIENT_QUESTION_3": "Velg språk for pasienten",
        "NEW_PATIENT_CANCEL_CONFIRM": "Avbryte tilføying av en pasient?",
        "NEW_PATIENT_CANCEL_BODY": "Hvis du avbryter, blir pasienten ikke registrert.  Er du sikker på at du vil avbryte?",
        "NEW_PATIENT_AFFIDAVIT_HEADER": "<div><strong>Studiested: {{{ getSiteCode }}}</strong><br /><strong>Bruker: {{{ getUserName }}}</strong><br /><strong>Pasient-ID: {{{ getPatientID }}}</strong></div>",
        "NEXT": "Neste",
        "NO_RESULTS_FOUND": "Finner ingen resultater.",
        "NOT_AVAILABLE": "Ikke tilgjengelig",
        "OK": "OK",
        "ORDER": "Rekkefølge",
        "PASSWORD": "Passord:",
        "PATIENT": "Pasient",
        "PATIENT_ID": "Pasient-ID:",
        "PATIENT_INITIALS": "Pasientinitialer:",
        "PATIENT_DELETED": "Ukjent pasient",
        "PATIENT_DELETED_MSG": "Finner ikke pasienten.",
        "PATIENT_DELETED_SUBJECT_MSG": "Finner ikke pasienten. Lever enheten tilbake til ansvarlig personell på studiestedet.",
        "PENDING_TRANSMISSIONS": "Ventende overføringer",
        "PLEASE_WAIT": "Vent litt",
        "PLEASE_CONFIRM": "Bekreft",
        "PLEASE_CONTACT": "Kontakt ERTs kundestøttesenter.",
        "PLEASE_TRY_OR_CONTACT_SUPPORT": "Prøv på nytt eller kontakt ERTs kundestøttesenter.",
        "REASON": "Grunn:",
        "REPORTS_AND_FORMS": "Rapporter og skjemaer",
        "REPORTS_COMPLETED_MESSAGE": "Du har fullført alle skjemaene dine. Lever enheten tilbake til ansvarlig personell på studiestedet.",
        "REQUIRED_ANSWER": "Fyll ut nødvendig informasjon.",
        "RESET_PIN": "Tilbakestill pasientens PIN-nummer",
        "RESET_USER_PASSWORD": "Tilbakestill brukerpassord",
        "ROLES": "Rolle:",
        "SAVE": "Lagre",
        "SEARCH": "Søk",
        "SECURITY_QUESTION_0": "Hva er pikenavnet til moren din?",
        "SECURITY_QUESTION_1": "I hvilken by ble du født?",
        "SECURITY_QUESTION_2": "Hva het det første kjæledyret ditt?",
        "SECURITY_QUESTION_3": "Hva er favorittsporten din?",
        "SECURITY_QUESTION_4": "Hvilket år fullførte du skolen?",
        "SECURITY_QUESTION_5": "Hva er mellomnavnet til det eldste barnet ditt?",
        "SECURITY_QUESTION_6": "Hva het bestevennen din da du var liten?",
        "SECURITY_QUESTION_7": "Hva var etternavnet til læreren du hadde i tredjeklasse?",
        "SECURITY_QUESTION_8": "I hvilken by hadde du din første jobb?",
        "SECRET_ANSWER": "Svar på sikkerhetsspørsmål:",
        "SECRET_QUESTION": "Sikkerhetsspørsmål:",
        "SECRET_QUESTION_HELP_TEXT": "Velg et sikkerhetsspørsmål fra listen nedenfor. Svaret brukes til å tillate innlogging hvis du har glemt passordet.",
        "SECRET_QUESTION_ANSWER": "Sikkerhetsspørsmål og svar",
        "SELECT_LANGUAGE": "Velg ønsket språk for studiestedet.",
        "SET_TIMEZONE_MESSAGE": "Velg tidssonen din:",
        "SELECT_SITE_NUMBER": "Velg studiestedsnummer",
        "SERVICE_URL": "URL-tjenesteadresse",
        "SETTINGS": "Innstillinger",
        "SETUP_COMPLETE": "Oppsettet er fullført",
        "SETUP_COMPLETE_DESC": "Enheten er nå satt opp og klar for forsendelse.  Trykk på OK og slå deretter av enheten på neste skjermbilde.",
        "SETUP_SITE_USER": "Sett opp studiestedbruker",
        "SETUP_SITE_USER_LEGEND": "Sett opp studiestedbrukeren for denne enheten.",
        "SITE": "Studiested",
        "SITE_ASSESSMENTS": "Studiestedvurderinger",
        "SIGNATURE_DATA_LIMIT_EXCEEDED": "Signaturboksen kunne ikke representere signaturen din nøyaktig slik den ble tegnet. Logg inn med initialene dine istedenfor.",
        "SITE_NUMBER": "Studiestednummer",
        "SITE_ROLE": "Studiestedbruker",
        "SITE_SELECTION": "Valg av studiested",
        "SKIP_FORM": "Hopp over skjema",
        "SKIP_QUESTION": "Er du sikker på at du vil hoppe over svarene på dette skjermbildet?",
        "SKIP_TO_VISIT": "Hopp over til besøk",
        "SKIP_VISIT": "Hopp over besøk",
        "SKIP_VISITS": "Hopp over besøk",
        "SKIP_VISITS_QUESTION_1": "<div class='question-title-large'><strong>Grunn</strong></div><br /><br /><div>Velg en grunn for å hoppe over besøkene:</div>",
        "SKIP_VISITS_REASON_0": "Besøk utløpt",
        "SKIP_VISITS_REASON_1": "Studiestedfeil i administrasjon",
        "SKIP_VISITS_REASON_2": "Forsøksperson gikk glipp av klinisk avtale.",
        "SKIP_VISITS_REASON_3": "Ikke aktuelt.",
        "SKIP_VISITS_REASON_4": "Besøk er valgfritt, ikke gjennomført.",
        "SKIP_VISITS_CANCEL_CONFIRM": "Avbryte hopping over besøk?",
        "SKIP_VISITS_CANCEL_BODY": "Hvis du avbryter nå, blir besøkene ikke hoppet over. Er du sikker på at du vil avbryte?",
        "SKIPPED" : "Hoppet over",
        "SKIPPED_VISITS": "{{{ skippedVisits }}}",
        "START_FORM": "Start fra",
        "START_VISIT": "Start besøk",
        "STATUS": "Status",
        "STATUS_DATE": "Statusdato",
        "STUDY": "Studie",
        "STUDYWORKS_LOGIN": "StudyWorks-pålogging",
        "SUBJECT_ID": "Pasient-ID",
        "SUBJECT_ROLE": "Pasient",
        "SUBMIT": "Send inn",
        "SUPPORT_TOOLS": "Støtteverktøy",
        "SYNC": "Synkroniser",
        "SYNC_USERS": "Synkroniser brukere",
        "SYNC_TO_DEVICE": "Synkroniser studie til enheten",
        "TEMPORARY_PASSWORD_MESSAGE": "Gi det midlertidige passordet til den nye brukeren. De vil bli bedt om å opprette et nytt passord etter at de har logget inn.",
        "TEMP_PASSWORD": "Midlertidig passord: ",
        "UNABLE_TO_GET_SITE_LIST": "Kunne ikke hente studiestedliste",
        "UNLOCK_CODE": "Opplåsingskode",
        "UNLOCK_CODE_HELP": "Opplåsingskoden for ERT Tablet kan fås fra StudyWorks i SmartReport \"ERT-opplåsingskoder\". Ta kontakt med ERTs kundestøttesenter for å få ytterligere hjelp.",
        "USER": "Bruker",
        "USER_ALREADY_EXISTS": "Bruker finnes allerede",
        "USER_EDITED": "Brukeren er oppdatert.",
        "USER_TO_ACTIVATE": "<strong>Brukeren som skal aktiveres:</strong> <br />{{{ getSelectedUsername }}}<p><strong>Underskriften til:</strong> {{{ getActiveUserName }}}</p>",
        "SUBJECT_ALREADY_EXISTS": "En pasient med ID-en {{{ getPatientIDForDuplicate }}} finnes allerede",
        "TIME_CONFIRMATION_INSTRUCTIONS": "Enheten må bekrefte din lokaltid. Bruk en pålitelig kilde for angivelse av datoen og klokkeslettet.",
        "TIME_ZONE_ERROR_HEADER": "Tidssonefeil",
        "TIME_ZONE_ERROR_MSG": "Det oppstod en feil under henting av tidssonelisten. Ta kontakt med ERTs kundestøttesenter for å få ytterligere hjelp.",
        "TIME_ZONE_SET_ERROR_MSG": "Det oppstod en feil under angivelse av tidssone. Ta kontakt med ERTs kundestøttesenter for å få ytterligere hjelp.",
        "TIME_ZONE_SET_CONFIRM": "Er du sikker på at du vil sette tidssonen til {{{selectedTimeZone}}}? <br/> Programmet vil kanskje starte på nytt for å ta i bruk endringen.",
        "TIME_ZONE_SET_CONFIRM_NOCHANGE": "Er du sikker på at du vil sette tidssonen til {{{selectedTimeZone}}}?",
        "TIME_ZONE_SET_HEADER": "Bekreftelse av angitt tidssone",
        "TRAINER": "Trenermodus",
        "TRAINER_EXIT": "Gå ut av trenermodus",
        "TRAINER_EXIT_NOTIFICATION": "Du går ut av trenermodusen",
        "TRAINER_HEADER": "(Trener)",
        "USER_ROLE": "Brukerrolle",
        "USERNAME": "Brukernavn",
        "USER_NAME": "Brukernavn:",
        "VISIT": "Besøk",
        "VISIT_COMPLETED_MESSAGE": "Det er ingen andre skjemaer for dette besøket.  Dette besøket er nå fullført.",
        "VISIT_INACTIVE_HEADER": "Inaktivt besøk.",
        "VISIT_INACTIVE_MESSAGE": "Dette besøket er ikke lenger aktivt.",
        "VISIT_INACTIVE_MESSAGE_SUBJECT": "Dette besøket er ikke lenger aktivt. Lever enheten tilbake til ansvarlig personell på studiestedet.",
        "VISITS": "Besøk",
        "VISITS_SKIPPED": "Besøkene det ble hoppet over:",
        "VISIT_NAME": "Besøksnavn",
        "WELCOME": "Velkommen",
        "AF-ZA": "Afrikaans",
        "AR-EG": "Arabisk",
        "BE-BY": "Hviterussisk",
        "BG-BG": "Bulgarsk",
        "BN-IN": "Bengali",
        "BS-BA": "Bosnisk",
        "CA-ES": "Katalansk",
        "CS-CZ": "Tsjekkisk",
        "DA-DK": "Dansk",
        "DE-DE": "Tysk (Tyskland)",
        "DE-AT": "Tysk (Østerrike)",
        "EL-GR": "Gresk",
        "EN-GB": "Engelsk (Storbritannia)",
        "EN-US": "Engelsk (USA)",
        "ES-ES": "Spansk (Spania)",
        "ES-US": "Spansk (USA)",
        "ES-PY": "Spansk (universell)",
        "ET-EE": "Estlandsk",
        "FI-FI": "Finsk",
        "FR-CA": "Fransk (Canada)",
        "FR-FR": "Fransk (Frankrike)",
        "GD-IE": "Gælisk",
        "GU-IN": "Gujarati",
        "HE-IL": "Hebraisk",
        "HI-IN": "Hindi",
        "HR-HR": "Kroatisk",
        "HU-HU": "Ungarsk",
        "IT-IT": "Italiensk",
        "JA-JP": "Japansk",
        "KA-GE": "Georgisk",
        "KN-IN": "Kannada",
        "KO-KR": "Koreansk",
        "LV-LV": "Latvisk",
        "LT-LT": "Litauisk",
        "ML-IN": "Malayalam",
        "MR-IN": "Marathi",
        "MS-MY": "Malay",
        "NB-NO": "Norsk",
        "NL-BE": "Nederlandsk (Belgia)",
        "NL-NL": "Nederlandsk (Nederland)",
        "PA-IN": "Punjabi",
        "PL-PL": "Polsk",
        "PT-BR": "Portugisisk (Brasil)",
        "PT-PT": "Portugisisk (Portugal)",
        "RO-RO": "Romansk",
        "RU-RU": "Russisk",
        "SL-SL": "Slovensk",
        "SK-SK": "Slovakisk",
        "SR-RS": "Serbisk (latinsk)",
        "SR-SP": "Serbisk (kyrillisk)",
        "ST-ZA": "Sotho",
        "SV-SE": "Svensk",
        "TA-IN": "Tamil",
        "TE-IN": "Telugu",
        "TH-TH": "Thai",
        "TL-PH": "Tagalog",
        "TN-ZA": "Tswana",
        "TR-TR": "Tyrkisk",
        "UK-UA": "Ukrainsk",
        "UR-IN": "Urdu",
        "VI-VN": "Vietnamesisk",
        "XH-ZA": "Xhosa",
        "ZH-CN": "Kinesisk (Kina)",
        "ZH-TW": "Kinesisk (Taiwan)",
        "ZU-ZU": "Zulu",
        "HAND_DEVICE_SUBJECT_BODY": "Det neste skjemaet må fylles ut av {{{ patientOrRole }}}. Logg ut, og gi deretter enheten til {{{ patientOrRole }}}.",
        "HAND_DEVICE_SUBJECT_TITLE": "Startskjema {{{ formTitle }}}",
        "SKIP_VISIT_TITLE": "Hoppe over besøk?",
        "SKIP_VISIT_TEXT": "Hvis du fortsetter, vil følgende besøk bli hoppet over:<br/> {{{ skippedVisits }}} Fortsette og hoppe over disse besøkene nå?",
        "YES":"Ja",
        "NO":"Nei",
        "TIME_LBL": "Klokkeslett:",
        "SET_TIME": "Angi klokkeslett",
        "DATE_LBL": "Dato:",
        "CREATE_PERMANENT_PASSWORD_TITLE": "Opprett permanent passord",
        "USER_ID": "Bruker-ID:",
        "PHASE": "Fase",
        "LAST_VISIT": "Siste fullførte besøk",
        "CONNECTION_REQUIRED": "En Internett-tilkobling er påkrevd.",
        "RETRY": "Prøv på nytt.",
        "UPDATE_FAILURE": "Oppdatering ikke fullført",
        "UPDATE_SUCCESS": "Oppdatering vellykket",
        "CANCEL_PERMANENT_PASSWORD_TITLE": "Avbryte oppretting av permanent passord?",
        "CANCEL_PERMANENT_PASSWORD_TEXT": "Hvis du avbryter nå, blir det permanente passordet ikke opprettet. Du trenger et permanent passord for å kunne bruke ERT. Er du sikker på at du vil avbryte?",
        "ACCOUNT_CONFIGURED_TITLE": "Kontooppsettet er fullført",
        "ACCOUNT_CONFIGURED_TEXT": "Du har nå fullført oppsett av kontoen din. Du kan nå fortsette å bruke eCOA-systemet.",
        "LOGGED_IN_AS": "Logget inn som",
        "EDIT_PATIENT_AFFIDAVIT_HEADER": "<p class='question-title-large'>Signatur</p><br />",
        "EDIT_PATIENT_AFF": "Ved å signere nedenfor erklærer jeg herved at jeg er autorisert til å redigere denne pasienten.<br /><br />Pasient-ID: {{{ getPatientIdNumber }}}<br /><br />Underskriften til: {{{ getActiveUserName }}}",
        "PASSWORD_MISMATCH": "Passordbekreftelsen samsvarer ikke med passordet.",
        "FIRST_USER_AFFIDAVIT": "Ved å signere nedenfor erklærer jeg herved at jeg er hovedutprøveren eller en autorisert representant for å opprette kontoer på dette systemet.<br /><br /><strong>Signaturen til: {{{ getFirstUsername }}}</strong>",
		"INCOMPLETE": "Ufullstendig",
        "INVALID_ENTRY": "Ugyldig oppføring",
        "PLEASE_ANSWER_SQ": "Svar på sikkerhetsspørsmålet:",
        "FORGOT_SECRET_ANSWER": "Glemt svar på sikkerhetsspørsmål?",
        "CONTACT_STUDY_COORDINATOR": "Kontakt studiekoordinator",
        "ENTER_NEW_PASSWORD": "Nytt passord:",
        "CONTACT_UNLOCK_CODE": "Kontakt din studiekoordinator for dagens opplåsingskode:",
        "CURRENT_DATE": "{{{ currentDate }}}",
        "TEMPORARY_UNLOCK_CODE": "Skriv inn opplåsingskoden du får av studiekoordinator.",
        "RESET_SECRET_QUESTION": "Tilbakestill sikkerhetsspørsmål",
        "SECRET_QUESTION_CHANGE_SUCCESS": "Du har nå oppdatert passordet og sikkerhetsspørsmålet ditt.",
        "RESET_PASSWORD": "Tilbakestill passord",
        "ANSWER_ATTEMPT_EXCEEDED": "Du har skrevet inn galt svar for mange ganger eller trykket på linken for glemt svar på sikkerhetsspørsmål.",
        "PASSWORD_ATTEMPT_EXCEEDED": "Du har skrevet inn galt passord for mange ganger eller klikket på koblingen for glemt passord.",
        "PASSWORD_CHANGE_SUCCESS": "Du har nå oppdatert passordet ditt.",
        "CHANGE_PASSWORD": "Endre passord",
        "CHANGE_SECRET_QUESTION": "Endre sikkerhetsspørsmål",
        "SYNC_COMPLETE": "Synkronisering er fullført",
        "INCORRECT_ANSWER": "Galt svar",
        "INCORRECT_UNLOCK_CODE": "Feil opplåsingskode",
        "PASSWORD_INVALID": "Feil passord",
        "SUBJECT": "Pasient",
        "PATIENT_ADDED": "Pasient lagt til",
        "SITE_ADMINISTRATOR": "Studiestedsadministrator",
        "LOW_BATTERY": "Advarsel: Batterinivået er lavt. Plugg inn enheten for opplading.",
        "CRITICAL_BATTERY": "Advarsel: Batterinivået er kritisk lavt. Koble enheten til strøm for å lade den opp, ellers slår den seg av.",
        "TIME_CONFIRMATION_HEADER": "Bekreft dato/klokkeslett",
        "TIMESLIP_ERROR": "Klokkeslettet eller datoen på enheten din er feil. Flytt den til et sted med Internett-tilkobling, og prøv på nytt. Hvis du fortsetter å ha problemer, kan du kontakte ERTs kundeservice.",
		"SUPPORT": "Kundestøtte",
		"SUPPORT_MESSAGE": "Brukere i USA kan nå sitt ERT-kundestøttesenter på 800-748-5669. Internasjonale brukere kan velge det nærmeste landet under:",
		"SUPPORT_DROPDOWN": "Velg landet ditt:",
		"SUPPORT_NAME_ARGENTINA": "Argentina",
		"SUPPORT_NUMBER_ARGENTINA": "<bdi>0800 444 0962</bdi>",
		"SUPPORT_NAME_ARMENIA": "Armenia",
		"SUPPORT_NUMBER_ARMENIA": "<bdi>+1 617 681 6306</bdi>",
		"SUPPORT_NAME_AUSTRALIA": "Australia",
		"SUPPORT_NUMBER_AUSTRALIA": "<bdi>1 800 800 051</bdi>",
		"SUPPORT_NAME_AUSTRIA": "Østerrike",
		"SUPPORT_NUMBER_AUSTRIA": "<bdi>0800 100 405</bdi>",
		"SUPPORT_NAME_BELARUS": "Hviterussland",
		"SUPPORT_NUMBER_BELARUS": "<bdi>8 820 0321 0036</bdi>",
		"SUPPORT_NAME_BELGIUM": "Belgia",
		"SUPPORT_NUMBER_BELGIUM_1": "(Engelsk): <bdi>0800 58 016</bdi>",
		"SUPPORT_NUMBER_BELGIUM_2": "(Fransk): <bdi>0800 71 076</bdi>",
		"SUPPORT_NUMBER_BELGIUM_3": "(Tysk): <bdi>0800 71 113</bdi>",
		"SUPPORT_NAME_BRAZIL": "Brasil",
		"SUPPORT_NUMBER_BRAZIL": "<bdi>0800 891 5909</bdi>",
		"SUPPORT_NAME_BOSNIA": "Bosnia",
		"SUPPORT_NUMBER_BOSNIA": "<bdi>+1 617 681 6306</bdi>",
		"SUPPORT_NAME_BULGARIA": "Bulgaria",
		"SUPPORT_NUMBER_BULGARIA": "<bdi>00800 0010</bdi>, deretter <bdi>866 245 4931</bdi>",
		"SUPPORT_NAME_CANADA": "Canada",
		"SUPPORT_NUMBER_CANADA": "<bdi>1 800 748 5669</bdi>",
		"SUPPORT_NAME_CHILE": "Chile",
		"SUPPORT_NUMBER_CHILE": "<bdi>123 0020 3408</bdi>",
		"SUPPORT_NAME_CHINA": "Kina",
		"SUPPORT_NUMBER_CHINA_1": "NetCom (Nord): <bdi>1 0800 74 40 164</bdi>",
		"SUPPORT_NUMBER_CHINA_2": "Telecom (Sør): <bdi>1 0800 44 00 158</bdi>",
		"SUPPORT_NAME_COLOMBIA": "Colombia",
		"SUPPORT_NUMBER_COLOMBIA": "<bdi>01 800 911 0010</bdi>, deretter <bdi>866 310 3707</bdi>",
		"SUPPORT_NAME_COSTA_RICA": "Costa Rica",
		"SUPPORT_NUMBER_COSTA_RICA": "<bdi>0800 013 1210</bdi>",
		"SUPPORT_NAME_CROATIA": "Kroatia",
		"SUPPORT_NUMBER_CROATIA": "<bdi>0800 222 953</bdi>",
		"SUPPORT_NAME_CZECH_REPUBLIC": "Tsjekkia",
		"SUPPORT_NUMBER_CZECH_REPUBLIC": "<bdi>800 142 150</bdi>",
		"SUPPORT_NAME_DENMARK": "Danmark",
		"SUPPORT_NUMBER_DENMARK": "<bdi>80 60 00 09</bdi>",
		"SUPPORT_NAME_EGYPT": "Egypt",
		"SUPPORT_NUMBER_EGYPT": "<bdi>02 510 0200</bdi>, deretter <bdi>866 310 3707</bdi>",
		"SUPPORT_NAME_EL_SALVADOR": "El Salvador",
		"SUPPORT_NUMBER_EL_SALVADOR": "<bdi>+1 617 681 6306</bdi>",
		"SUPPORT_NAME_ESTONIA": "Estland",
		"SUPPORT_NUMBER_ESTONIA": "<bdi>800 00 44 154</bdi>",
		"SUPPORT_NAME_FINLAND": "Finland",
		"SUPPORT_NUMBER_FINLAND": "<bdi>0800 11 6366</bdi>",
		"SUPPORT_NAME_FRANCE": "Frankrike",
		"SUPPORT_NUMBER_FRANCE": "<bdi>0800 10 19 79</bdi>",
		"SUPPORT_NAME_GERMANY": "Tyskland",
		"SUPPORT_NUMBER_GERMANY": "<bdi>0800 101 28 21</bdi>",
		"SUPPORT_NAME_GREECE": "Hellas",
		"SUPPORT_NUMBER_GREECE": "<bdi>00 800 1311</bdi>, deretter <bdi>866 310 3707</bdi>",
		"SUPPORT_NAME_GUATEMALA": "Guatemala",
		"SUPPORT_NUMBER_GUATEMALA": "<bdi>1 800 624 0079</bdi>",
		"SUPPORT_NAME_HONG_KONG": "Hong Kong",
		"SUPPORT_NUMBER_HONG_KONG": "<bdi>3002 1665</bdi>",
		"SUPPORT_NAME_HUNGARY": "Ungarn",
		"SUPPORT_NUMBER_HUNGARY": "<bdi>06 800 14 571</bdi>",
		"SUPPORT_NAME_ICELAND": "Island",
		"SUPPORT_NUMBER_ICELAND": "<bdi>800 8544</bdi>",
		"SUPPORT_NAME_INDIA": "India",
		"SUPPORT_NUMBER_INDIA": "<bdi>000 800 440 1125</bdi>",
		"SUPPORT_NAME_INDONESIA": "Indonesia",
		"SUPPORT_NUMBER_INDONESIA": "<bdi>008 800 330 334</bdi>",
		"SUPPORT_NAME_IRELAND": "Irland",
		"SUPPORT_NUMBER_IRELAND": "<bdi>1 800 946 700</bdi>",
		"SUPPORT_NAME_ISRAEL": "Israel",
		"SUPPORT_NUMBER_ISRAEL": "<bdi>1 809 470 062</bdi>",
		"SUPPORT_NAME_ITALY": "Italia",
		"SUPPORT_NUMBER_ITALY": "<bdi>800 90 56 37</bdi>",
		"SUPPORT_NAME_JAPAN": "Japan",
		"SUPPORT_NUMBER_JAPAN": "Se din ePRO-studieinformasjonsveiledning for gratisnummeret til din studie",
		"SUPPORT_NAME_LATVIA": "Latvia",
		"SUPPORT_NUMBER_LATVIA": "<bdi>8000 2151</bdi>",
		"SUPPORT_NAME_LEBANON": "Libanon",
		"SUPPORT_NUMBER_LEBANON": "<bdi>01-426-801</bdi> deretter <bdi>866 310 3707</bdi>",
		"SUPPORT_NAME_LITHUANIA": "Litauen",
		"SUPPORT_NUMBER_LITHUANIA": "<bdi>8800 30207</bdi>",
		"SUPPORT_NAME_MALAYSIA": "Malaysia",
		"SUPPORT_NUMBER_MALAYSIA": "<bdi>1800 80 59 71</bdi>",
		"SUPPORT_NAME_MEXICO": "Mexico",
		"SUPPORT_NUMBER_MEXICO_1": "(Engelsk): <bdi>001 800 748 5669</bdi> ",
		"SUPPORT_NUMBER_MEXICO_2": "(Spansk): <bdi>001 855 631 6952</bdi>",
		"SUPPORT_NAME_MOLDOVA": "Moldova",
		"SUPPORT_NUMBER_MOLDOVA": "<bdi>617 681 6306</bdi>",
		"SUPPORT_NAME_NETHERLANDS": "Nederland",
		"SUPPORT_NUMBER_NETHERLANDS": "<bdi>0800 023 1389</bdi>",
		"SUPPORT_NAME_NEW_ZEALAND": "New Zealand",
		"SUPPORT_NUMBER_NEW_ZEALAND": "<bdi>0800 110 178</bdi>",
		"SUPPORT_NAME_NORWAY": "Norge",
		"SUPPORT_NUMBER_NORWAY": "<bdi>800 62 051</bdi>",
		"SUPPORT_NAME_PAKISTAN": "Pakistan",
		"SUPPORT_NUMBER_PAKISTAN": "<bdi>00 800 0100</bdi>, deretter <bdi>866 237 9767</bdi>",
		"SUPPORT_NAME_PANAMA": "Panama",
		"SUPPORT_NUMBER_PANAMA": "<bdi>001 800 201 3095</bdi>",
		"SUPPORT_NAME_PERU": "Peru",
		"SUPPORT_NUMBER_PERU": "<bdi>0800 5 0974</bdi>",
		"SUPPORT_NAME_PHILIPPINES": "Filippinene",
		"SUPPORT_NUMBER_PHILIPPINES": "<bdi>1 800 1116 0651</bdi>",
		"SUPPORT_NAME_POLAND": "Polen",
		"SUPPORT_NUMBER_POLAND": "<bdi>00800 331 1262</bdi>",
		"SUPPORT_NAME_PORTUGAL": "Portugal",
		"SUPPORT_NUMBER_PORTUGAL": "<bdi>800 206 172</bdi>",
		"SUPPORT_NAME_PUERTO_RICO": "Puerto Rico (USA)",
		"SUPPORT_NUMBER_PUERTO_RICO": "<bdi>1 800 748 5669</bdi>",
		"SUPPORT_NAME_ROMANIA": "Romania",
		"SUPPORT_NUMBER_ROMANIA": "<bdi>0800 894492</bdi>",
		"SUPPORT_NAME_RUSSIA": "Russland",
		"SUPPORT_NUMBER_RUSSIA_1": "(Primær – gratisnummer): <bdi>8 10 800 249 13011</bdi>",
		"SUPPORT_NUMBER_RUSSIA_2": "(I Moskva): <bdi>363-2400</bdi> <br> deretter <bdi>866 310 3707</bdi>",
		"SUPPORT_NUMBER_RUSSIA_3": "(Utenfor Moskva): <bdi>8^(495) 363-2400</bdi> <br> deretter <bdi>866 310 3707</bdi>",
		"SUPPORT_NUMBER_RUSSIA_4": "(I St. Petersburg): <bdi>363-2400</bdi> <br> deretter <bdi>866 310 3707</bdi>",
		"SUPPORT_NUMBER_RUSSIA_5": "(Utenfor St. Petersburg): <bdi>8^(495) 363-2400</bdi> <br> deretter <bdi>866 310 3707</bdi>",
		"SUPPORT_NAME_SAUDI_ARABIA": "Saudi Arabia",
		"SUPPORT_NUMBER_SAUDI_ARABIA": "<bdi>+1 617 681 6306</bdi>",
		"SUPPORT_NAME_SERBIA": "Serbia",
		"SUPPORT_NUMBER_SERBIA": "<bdi>+1 617 973 1739</bdi>",
		"SUPPORT_NAME_SINGAPORE": "Singapore",
		"SUPPORT_NUMBER_SINGAPORE": "<bdi>800 616 30 03</bdi>",
		"SUPPORT_NAME_SLOVAKIA": "Slovakia",
		"SUPPORT_NUMBER_SLOVAKIA": "<bdi>0800 0044 65</bdi>",
		"SUPPORT_NAME_SLOVENIA": "Slovenia",
		"SUPPORT_NUMBER_SLOVENIA": "<bdi>+1 617 681 6306</bdi>",
		"SUPPORT_NAME_SOUTH_AFRICA": "Sør-Afrika",
		"SUPPORT_NUMBER_SOUTH_AFRICA": "<bdi>0800 99 5853</bdi>",
		"SUPPORT_NAME_SOUTH_KOREA": "Sør-Korea",
		"SUPPORT_NUMBER_SOUTH_KOREA": "<bdi>00308 33 00 08</bdi>",
		"SUPPORT_NAME_SPAIN": "Spania",
		"SUPPORT_NUMBER_SPAIN": "<bdi>900 90 2541</bdi>",
		"SUPPORT_NAME_SWEDEN": "Sverige",
		"SUPPORT_NUMBER_SWEDEN": "<bdi>020 120 99 69</bdi>",
		"SUPPORT_NAME_SWITZERLAND": "Sveits",
		"SUPPORT_NUMBER_SWITZERLAND_1": "(Engelsk): <bdi>0800 199 325</bdi>",
		"SUPPORT_NUMBER_SWITZERLAND_2": "(Fransk): <bdi>0800 891 183</bdi>",
		"SUPPORT_NUMBER_SWITZERLAND_3": "(Tysk): <bdi>0800 891 025</bdi>",
		"SUPPORT_NAME_TAIWAN": "Taiwan",
		"SUPPORT_NUMBER_TAIWAN": "<bdi>00801 33 33 42</bdi>",
		"SUPPORT_NAME_THAILAND": "Thailand",
		"SUPPORT_NUMBER_THAILAND": "<bdi>1 800 33 140 353</bdi>",
		"SUPPORT_NAME_TUNISIA": "Tunisia",
		"SUPPORT_NUMBER_TUNISIA": "<bdi>+1 617 681 6306</bdi>",
		"SUPPORT_NAME_TURKEY": "Tyrkia",
		"SUPPORT_NUMBER_TURKEY": "<bdi>00 800 151 1335</bdi>",
		"SUPPORT_NAME_UKRAINE": "Ukraina",
		"SUPPORT_NUMBER_UKRAINE": "<bdi>0^00 11</bdi>, deretter <bdi>866 245 4931</bdi>",
		"SUPPORT_NAME_UAE": "De Forente Arabiske Emirater",
		"SUPPORT_NUMBER_UAE": "<bdi>8000-021</bdi>, deretter <bdi>866 310 3707</bdi>",
		"SUPPORT_NAME_UK": "Storbritannia",
		"SUPPORT_NUMBER_UK": "<bdi>0800 015 0408</bdi>",
		"SUPPORT_NAME_US": "USA",
		"SUPPORT_NUMBER_US_1": "(Hovednummer): <bdi>1 800 748 5669</bdi>",
		"SUPPORT_NUMBER_US_2": "(Reservenummer): <bdi>1 877 748 5669</bdi>",
		"SUPPORT_NAME_VENEZUELA": "Venezuela",
		"SUPPORT_NUMBER_VENEZUELA_1": "(Engelsk): <bdi>0 800 552 6288</bdi> <br> deretter <bdi>866 310 3707</bdi> ",
		"SUPPORT_NUMBER_VENEZUELA_2": "(Spansk): <bdi>0 800 100 3063</bdi> ",
		"STUDY_VERSION": "Studieversjon: ",
		"STUDY_URL": "Studie-URL:",
		"PROTOCOL": "Protokoll:",
		"SPONSOR": "Sponsor:",
		"STORED_REPORTS": "Lagrede skjemaer:",
		"CORE_PRODUCT_VERSION_LABEL": "Produktversjon:",
		"ABOUT": "Om",
        "P_AFFIDAVIT_HEADER": "<div><strong>Studiested: {{{ getSiteCode }}}</strong><br /><strong>Pasient-ID: {{{ getPatientIdNumber }}}</strong></div>",
		"SET_TIMEZONE": "Angi tidssone",
		"DEVICE_SERIAL_NUMBER": "Enhetens serienummer",
		"NONEXISTENT_USER": "Forsøkte å oppdatere en ikke-eksisterende bruker.",
		"SCREENING" : "Screening",
		"TREATMENT" : "Behandling",
		"RANDOMIZATION" : "Randomisering",
		"FOLLOWUP" : "Oppfølging",
		"TERMINATION" : "Avslutning",
        "ACCEPT": "Jeg godtar",
        "DECLINE": "Jeg avslår",
		"EULA": "SLUTTBRUKERLISENS",
        "EULA_TEXT": "<p><strong><span class=\"text-underline\">VIKTIG</span>:  IKKE KLIKK PÅ GODTA-KNAPPEN FØR DU HAR LEST DENNE AVTALEN.  VED Å KLIKKE PÅ GODTA-KNAPPEN GODTAR DU ALLE VILKÅRENE I DENNE AVTALEN.  HVIS DU IKKE GODTAR ALLE VILKÅRENE I DENNE AVTALEN, SKAL DU (1) IKKE KLIKKE PÅ KNAPPEN \"JEG GODTAR\", (2) AVBRYTE INSTALLASJONS- OG LISENSIERINGSPROSESSEN VED Å KLIKKE PÅ KNAPPEN \"JEG AVSLÅR\".</strong></p><p>eResearchTechnology, Inc. (\"lisensgiver\") gir deg en ikke-eksklusiv, ikke-overførbar rett til å bruke programvaren fra eResearchTechnology, Inc. som ligger på denne enheten (\"programvare\"), i forbindelse med din deltakelse i avtalen om den kliniske studien: <strong>{{{ clinicalTrial }}}</strong>.  Programvaren fra eResearchTechnology, Inc. er dekket av utstedte patenter og andre patenter det er søkt om.  Avtalen gir deg ingen eierrettigheter til noe av programvaren (eller kopier av denne), men utgjør bare en lisens til å bruke programvaren i samsvar med alle vilkårene i denne avtalen.  Eiendomsretten til programvaren og alle deler av denne, og alle eiendomsrettigheter og immaterielle rettigheter i denne, ligger hos lisensgiveren til enhver tid.</p><p>Du godtar at du ikke skal, direkte eller indirekte, (i) foreta omvendt utvikling, demontere eller dekompilere programvaren; (ii) kopiere, distribuere, produsere, tilpasse, lage avledede verk fra, oversette, lokalisere, portere eller på annen måte endre programvaren; eller (iii) fjerne eller endre merknader om opphavsrett, forretningshemmeligheter eller andre juridiske forhold på eller i programvaren.  DU ERKJENNER OG GODTAR AT PROGRAMVAREN KAN INNEHOLDE KODE SOM HINDRER UAUTORISERT BRUK AV PROGRAMVAREN.</p><br><p>HVIS DU GODTAR ALT DET FOREGÅENDE, velger du – <strong>Jeg godtar</strong> – ved å klikke \"Jeg godtar\" tilkjennegir du at du godtar lisensvilkårene.</p><p>HVIS DU IKKE GODTAR ALT DET FOREGÅENDE, eller ikke er autorisert til å godta, velger du – <strong>Jeg avslår</strong> – i så fall blir videre tilgang til programvaren blokkert.  Hvis du er autorisert, kan du godta en annen gang.</p>",
        "VISIT_EXPIRED_HEADER": "Utløpt besøk.",
        "VISIT_EXPIRED_MESSAGE": "Dette besøket er ikke lenger tilgjengelig, fordi det har utløpt.",
        "VISIT_EXPIRED_MESSAGE_SUBJECT": "Dette besøket er ikke lenger tilgjengelig, fordi det har utløpt. Lever enheten tilbake til ansvarlig personell på studiestedet.",
        "SQ-AL": "Albansk",
        "IMAGE_FOLDER": "{{{ imageFolder }}}",
		"MODAL_OK_TEXT": "OK",
        "BROWSER_LOAD_ERROR": "Finner ikke siden. Kontroller Internett-forbindelsen, og prøv på nytt.",
		"NO_USER_OF_ROLE" : "Finner ingen bruker med den rollen.",
        "EDIT_PATIENT_REASON_1": "Retting av attributtdata",
		"EDIT_PATIENT_REASON_2": "ID-endring",
		"EDIT_PATIENT_REASON_3": "Feil språk valgt",
		"START_VISIT_OUTSIDE_WINDOW_MSG" : "Angi {{{ getVisitName }}} utenfor det konfigurerte tidsvinduet:<br /> {{{ startDate }}} - {{{ endDate }}}",
		"START_VISIT_HARD_STOP_MSG" : "Du kan ikke angi {{{ getVisitName }}} utenfor det konfigurerte tidsvinduet:<br /> {{{ startDate }}} - {{{ endDate }}}",
		"USER_NAME_INVALID_CHARACTERS" : "Ikke bruk spesialtegn",
		"ERROR_PATIENT_SAVE" : "Det oppsto en feil ved tilføying av ny pasient",
		"PASSWORD_CHANGE_FAILED" : "En annen enhet er blitt aktivert for innhenting av data for studien. Endre passord på den enheten.",
		"ERROR" : "Feil.  Kontakt ERTs kundestøttesenter.",
		"ERROR_AFTER_ACTIVATION_SUCCESSFUL" : "Det har oppstått en feil. Du må skrive inn konfigurasjonskoden og passordet ditt.",
		"CONNECTION_TIMEOUT" : "Forbindelsen fikk tidsavbrudd.",
		"UPDATE_FAILED" : "ERT-oppdateringen ble ikke gjennomført. Kontroller at denne enheten er koblet til Internett, og prøv på nytt."
    },
    "dates": {
        "setDateButtonLabel": "Angi dato",
        "setTimeButtonLabel": "OK",
        "setDurationButtonLabel": "Angi varighet",
        "calTodayButtonLabel": "Hopp til i dag",
        "titleDateDialogLabel": "Angi dato",
        "titleTimeDialogLabel": "Angi klokkeslett",
        "daysOfWeek": [
            "Søndag",
            "Mandag",
            "Tirsdag",
            "Onsdag",
            "Torsdag",
            "Fredag",
            "Lørdag"
        ],
        "daysOfWeekShort": [
            "Sø",
            "Ma",
            "Ti",
            "On",
            "To",
            "Fr",
            "Lø"
        ],
        "monthsOfYear": [
            "Januar",
            "Februar",
            "Mars",
            "April",
            "Mai",
            "Juni",
            "Juli",
            "August",
            "September",
            "Oktober",
            "November",
            "Desember"
        ],
        "monthsOfYearShort": [
            "Jan",
            "Feb",
            "Mar",
            "Apr",
            "Mai",
            "Jun",
            "Jul",
            "Aug",
            "Sep",
            "Okt",
            "Nov",
            "Des"
        ],
        "durationLabel": [
            "Dager",
            "Timer",
            "Minutter",
            "Sekunder"
        ],
        "durationDays": [
            "Dag",
            "Dager"
        ],
        "tooltip": "Åpne datovelgeren",
        "nextMonth": "Neste måned",
        "prevMonth": "Forrige måned",
        "clearButton": "Slett",
        "meridiem": [
            "AM",
            "PM"
        ]
    }
}
