 {
    "namespace" : "DailyDiary",
    "language"  : "da",
    "locale"    : "DK",
    "direction" : "ltr",
    "resources" : {
        "DISPLAY_NAME"                                  : "Elektronisk dagbog",
        "DailyDiary_9111_Q0_TEXT"                       : "Venligst angiv, hvor meget dine migrænerelaterede symptomer har forstyrret dine daglige aktiviteter i de SENESTE 24 TIMER",
        "DailyDiary_9111_Q0_TITLE"                      : "",
        "DailyDiary_9112_Q0_TEXT"                       : "Har du tilbragt dagen eller en del af dagen i sengen på grund af migrænerelaterede symptomer i de SENESTE 24 TIMER?",
        "DailyDiary_9112_Q0_TITLE"                      : "",
        "DailyDiary_9113_Q0_TEXT"                       : "Har du været fraværende fra arbejde eller skole på grund af migrænerelaterede symptomer i de SENESTE 24 TIMER?",
        "DailyDiary_9113_Q0_TITLE"                      : "",
        "DailyDiary_9114_Q0_TEXT"                       : "På de næste skærmbilleder vil du blive spurgt, om du har indtaget medicin specifikt mod AURA.<br> <br>AURA kan omfatte én eller flere af følgende:<br> <br>-ser blinde pletter, blinkende eller flimrende lys, prikker, zebrastriber eller zigzagger<br>-en stikkende og prikkende fornemmelse eller følelsesløshed<br>-besvær med at tale eller forstå ord<br>-svaghed i en del af kroppen",
        "DailyDiary_9114_Q0_TITLE"                      : "",
        "DailyDiary_9115_Q0_TEXT"                       : "Har du taget medicin udelukkende mod AURA (INGEN oplevelse af HOVEDPINE) mellem {{{ AuraMedRange }}} og NU?",
        "DailyDiary_9115_Q0_TITLE"                      : "",
        "DailyDiary_9116_Q0_TEXT"                       : "Angiv tidspunktet, du indtog medicin:",
        "DailyDiary_9116_Q0_TITLE"                      : "",
        "DailyDiary_9116_Q1_TEXT"                       : " ",
        "DailyDiary_9116_Q1_TITLE"                      : "",
        "DailyDiary_9117_Q0_TEXT"                       : "Vælg den medicin, du indtog:",
        "DailyDiary_9117_Q0_TITLE"                      : "",
        "DailyDiary_9118_Q0_TEXT"                       : "Datoen og tidspunktet, du har angivet for denne medicin, ligger inden for 15 minutter fra en anden dosis af medicinen, som du indberettede at have taget: <br>({{{ getOverlappingMedTime }}})<br>Hvad ønsker du at gøre?",
        "DailyDiary_9118_Q0_TITLE"                      : "",
        "DailyDiary_9119_Q0_TEXT"                       : "Hvor meget  {{{ getMedUnits }}} tog du?",
        "DailyDiary_9119_Q0_TITLE"                      : "",
        "DailyDiary_91110_Q0_TEXT"                      : "Venligst nedskriv navnet på medicinen, og hvor meget du tog af den.<br> <br>Tag kontakt til din studielæge og oplys dette.",
        "DailyDiary_91110_Q0_TITLE"                     : "",
        "DailyDiary_91111_Q0_TEXT"                      : "Har du taget en anden dosis medicin på grund af AURA?",
        "DailyDiary_91111_Q0_TITLE"                     : "",
        "DailyDiary_91112_Q0_TEXT"                      : "Har du taget en anden dosis medicin for at behandle denne hovedpine?",
        "DailyDiary_91112_Q0_TITLE"                     : "",
        "DailyDiary_91113_Q0_TEXT"                      : "Du har allerede angivet 5 doser medicin mod denne hovedpine, hvilket er det højest tilladte.",
        "DailyDiary_91113_Q0_TITLE"                     : "",
        "DailyDiary_91114_Q0_TEXT"                      : "Du har allerede angivet 5 doser medicin for denne AURA, hvilket er det højest tilladte.",
        "DailyDiary_91114_Q0_TITLE"                     : "",
        "DailyDiary_91115_Q0_TEXT"                      : "På de følgende skærmbilleder vil du blive bedt om at notere dine hovedpiner.<br> <br>Både migrænerelaterede og ikke-migrænerelaterede hovedpiner skal noteres i denne dagbog.<br> <br>Sørg for, at du kun noterer hver hovedpine EN GANG.",
        "DailyDiary_91115_Q0_TITLE"                     : "",
        "DailyDiary_91116_Q0_TEXT"                      : "Er den hovedpine, som begyndte {{{ getOngoingHeadacheDate }}}, holdt op?",
        "DailyDiary_91116_Q0_TITLE"                     : "",
        "DailyDiary_91117_Q0_TEXT"                      : "Du noterede, at en hovedpine begyndte {{{ getOngoingHeadacheDate }}} og blev ved {{{ getHeadacheHourDuration }}} timer og 10 {{{ getHeadacheMinDuration }}} minutter.<br> <br>Hvad ønsker du at gøre?",
        "DailyDiary_91117_Q0_TITLE"                     : "",
        "DailyDiary_91118_Q0_TEXT"                      : "Har du haft hovedpiner, der begyndte efter {{{ DD180_HAAfter }}} OG SOM ER HOLDT OP?",
        "DailyDiary_91118_Q0_TITLE"                     : "",
        "DailyDiary_91119_Q0_TEXT"                      : "Angiv dato og tidspunkt, hvor hovedpinen begyndte:",
        "DailyDiary_91119_Q0_TITLE"                     : "",
        "DailyDiary_91119_Q1_TEXT"                      : " ",
        "DailyDiary_91119_Q1_TITLE"                     : "",
        "DailyDiary_91120_Q0_TEXT"                      : "Datoen og tidspunktet, som du har angivet, finder sted midt i en anden hovedpine, som du angav nedenfor:<br> <br>{{{ getConflictingRanges }}}<br> <br>Hvad ønsker du at gøre?",
        "DailyDiary_91120_Q0_TITLE"                     : "",
        "DailyDiary_91121_Q0_TEXT"                      : "Holdt hovedpinen op, mens du sov?",
        "DailyDiary_91121_Q0_TITLE"                     : "",
        "DailyDiary_91122_Q0_TEXT"                      : "Angiv dato og tidspunkt, hvor hovedpinen holdt op:",
        "DailyDiary_91122_Q0_TITLE"                     : "",
        "DailyDiary_91122_Q1_TEXT"                      : " ",
        "DailyDiary_91122_Q1_TITLE"                     : "",
        "DailyDiary_91123_Q0_TEXT"                      : "Denne hovedpine<br>{ { {9.1.1.23_SDTNewHA} } } - { { {9.1.1.23_EDTNewHA} } }<br>er i modstrid med den hovedpine, du indberettede nedenfor:<br>{ { {9.1.1.23_SDTOldHA} } } - { { {9.1.1.23_EDTOldHA} } }<br> <br>Hvad ønsker du at gøre?",
        "DailyDiary_91123_Q0_TITLE"                     : "",
        "DailyDiary_91124_Q0_TEXT"                      : "Datoen og tidspunktet, som du har angivet, finder sted midt i en anden hovedpine, som du angav nedenfor:<br> <br>({{{ getConflictingRanges }}})<br> <br>Hvad ønsker du at gøre?",
        "DailyDiary_91124_Q0_TITLE"                     : "",
        "DailyDiary_91125_Q0_TEXT"                      : "Du indberettede, at denne hovedpine varede {{{ headacheOnlyMinutes }}} minutter.<br>({{{ headacheNewStart }}} - {{{ headacheNewEnd }}})<br>Hvad ønsker du at gøre?",
        "DailyDiary_91125_Q0_TITLE"                     : "",
        "DailyDiary_91126_Q0_TEXT"                      : "Du indberettede, at denne hovedpine varede {{{ HeadacheDurationHours }}} timer og {{{ HeadacheDurationMinutes }}} minutter.<br>({{{ HeadacheStartTime }}} - {{{ HeadacheEndTime }}})<br>Hvad ønsker du at gøre?",
        "DailyDiary_91126_Q0_TITLE"                     : "",
        "DailyDiary_91127_Q0_TEXT"                      : "Angiv et anslået tidspunkt, du faldt i søvn:",
        "DailyDiary_91127_Q0_TITLE"                     : "",
        "DailyDiary_91127_Q1_TEXT"                      : " ",
        "DailyDiary_91127_Q1_TITLE"                     : "",
        "DailyDiary_91128_Q0_TEXT"                      : "Angiv, hvornår du vågnede:",
        "DailyDiary_91128_Q0_TITLE"                     : "",
        "DailyDiary_91128_Q1_TEXT"                      : " ",
        "DailyDiary_91128_Q1_TITLE"                     : "",
        "DailyDiary_91129_Q0_TEXT"                      : "Du indberettede, at du sov {{{ getSleepDuration }}}.<br>({{{ getTimeFellAsleep }}} - {{{ getTimeWokeUp }}})<br>Hvad ønsker du at gøre?",
        "DailyDiary_91129_Q0_TITLE"                     : "",
        "DailyDiary_91130_Q0_TEXT"                      : "Hvilken slags hovedpine tror du, der var tale om?",
        "DailyDiary_91130_Q0_TITLE"                     : "",
        "DailyDiary_91131_Q0_TEXT"                      : "Bedøm intensiteten af denne hovedpines SMERTE, da den var VÆRST",
        "DailyDiary_91131_Q0_TITLE"                     : "",
        "DailyDiary_91132_Q0_TEXT"                      : "Vælg alle, der er relevante for denne hovedpine.<br> <br>Smerten…",
        "DailyDiary_91132_Q0_TITLE"                     : "",
        "DailyDiary_91133_Q0_TEXT"                      : "Vælg eventuelle yderligere symptomer, du havde under denne hovedpine.",
        "DailyDiary_91133_Q0_TITLE"                     : "",
        "DailyDiary_91134_Q0_TEXT"                      : "Bedøm sværhedsgraden af det følgende symptom:<br> <br>KVALME",
        "DailyDiary_91134_Q0_TITLE"                     : "",
        "DailyDiary_91135_Q0_TEXT"                      : "Bedøm sværhedsgraden af det følgende symptom:<br> <br>OPKASTNING",
        "DailyDiary_91135_Q0_TITLE"                     : "",
        "DailyDiary_91136_Q0_TEXT"                      : "Bedøm sværhedsgraden af det følgende symptom:<br> <br>LYSFØLSOMHED",
        "DailyDiary_91136_Q0_TITLE"                     : "",
        "DailyDiary_91137_Q0_TEXT"                      : "Bedøm sværhedsgraden af det følgende symptom:<br> <br>LYDFØLSOMHED",
        "DailyDiary_91137_Q0_TITLE"                     : "",
        "DailyDiary_91138_Q0_TEXT"                      : "Oplevede du AURA som en del af denne hovedpine?",
        "DailyDiary_91138_Q0_TITLE"                     : "",
        "DailyDiary_91139_Q0_TEXT"                      : "Bedøm sværhedsgraden af den AURA",
        "DailyDiary_91139_Q0_TITLE"                     : "",
        "DailyDiary_91140_Q0_TEXT"                      : "Tog du medicin mod denne hovedpine?",
        "DailyDiary_91140_Q0_TITLE"                     : "",
        "DailyDiary_91141_Q0_TEXT"                      : "Har du haft en anden hovedpine, som begyndte OG ER HOLDT OP?",
        "DailyDiary_91141_Q0_TITLE"                     : "",
        "DailyDiary_91142_Q0_TEXT"                      : "Du har allerede noteret 4 afsluttede hovedpiner i dagbogen i dag, hvilket er det højest tilladte.",
        "DailyDiary_91142_Q0_TITLE"                     : "",
        "DailyDiary_91143_Q0_TEXT"                      : "Har du hovedpine NU?",
        "DailyDiary_91143_Q0_TITLE"                     : "",
        "DailyDiary_9111_Q0_W0_DisplayText"             : "NRS",
        "DailyDiary_9111_Q0_W0_A"                       : "0",
        "DailyDiary_9111_Q0_W0_A0"                      : "10",
        "DailyDiary_9111_Q0_W0_A1"                      : "20",
        "DailyDiary_9111_Q0_W0_A2"                      : "30",
        "DailyDiary_9111_Q0_W0_A3"                      : "40",
        "DailyDiary_9111_Q0_W0_A4"                      : "50",
        "DailyDiary_9111_Q0_W0_A5"                      : "60",
        "DailyDiary_9111_Q0_W0_A6"                      : "70",
        "DailyDiary_9111_Q0_W0_A7"                      : "80",
        "DailyDiary_9111_Q0_W0_A8"                      : "90",
        "DailyDiary_9111_Q0_W0_A9"                      : "100",
        "DailyDiary_9112_Q0_W0_A0"                      : "Ja",
        "DailyDiary_9112_Q0_W0_A1"                      : "Nej",
        "DailyDiary_9113_Q0_W0_A0"                      : "Ja",
        "DailyDiary_9113_Q0_W0_A1"                      : "Nej",
        "DailyDiary_9113_Q0_W0_A2"                      : "Jeg går hverken på arbejde eller i skole",
        "DailyDiary_9115_Q0_W0_A0"                      : "Ja",
        "DailyDiary_9115_Q0_W0_A1"                      : "Nej",
        "DailyDiary_9117_Q0_W0_A0"                      : "{{{ getMed1 }}}",
        "DailyDiary_9117_Q0_W0_A1"                      : "{{{ getMed2 }}}",
        "DailyDiary_9117_Q0_W0_A2"                      : "{{{ getMed3 }}}",
        "DailyDiary_9117_Q0_W0_A3"                      : "{{{ getMed4 }}}",
        "DailyDiary_9117_Q0_W0_A4"                      : "{{{ getMed5 }}}",
        "DailyDiary_9117_Q0_W0_A5"                      : "{{{ getMed6 }}}",
        "DailyDiary_9117_Q0_W0_A6"                      : "{{{ getMed7 }}}",
        "DailyDiary_9117_Q0_W0_A7"                      : "{{{ getMed8 }}}",
        "DailyDiary_9117_Q0_W0_A8"                      : "{{{ getMed9 }}}",
        "DailyDiary_9117_Q0_W0_A9"                      : "{{{ getOtherMed }}}",
        "DailyDiary_9118_Q0_W0_A0"                      : "Jeg ønsker at angive en anden dato og klokkeslæt for denne dosis medicin",
        "DailyDiary_9118_Q0_W0_A1"                      : "Jeg skal ikke indberette en anden dosis medicin",
        "DailyDiary_9118_Q0_W0_A2"                      : "Denne ekstra indtastning af medicinen er korrekt",
        "DailyDiary_91111_Q0_W0_A0"                     : "Ja",
        "DailyDiary_91111_Q0_W0_A1"                     : "Nej",
        "DailyDiary_91112_Q0_W0_A0"                     : "Ja",
        "DailyDiary_91112_Q0_W0_A1"                     : "Nej",
        "DailyDiary_91116_Q0_W0_A0"                     : "Ja",
        "DailyDiary_91116_Q0_W0_A1"                     : "Nej, denne hovedpine bliver stadig ved",
        "DailyDiary_91117_Q0_W0_A0"                     : "Angiv slutdato og -tidspunkt for denne hovedpine",
        "DailyDiary_91117_Q0_W0_A1"                     : "Fortsæt; denne hovedpine bliver ved",
        "DailyDiary_91118_Q0_W0_A0"                     : "Ja",
        "DailyDiary_91118_Q0_W0_A1"                     : "Nej",
        "DailyDiary_91120_Q0_W0_A0"                     : "Jeg skal angive en anden dato og tidspunkt, hvor hovedpinen holdt op",
        "DailyDiary_91120_Q0_W0_A1"                     : "Jeg skal ikke indberette en anden hovedpine",
        "DailyDiary_91121_Q0_W0_A0"                     : "Ja",
        "DailyDiary_91121_Q0_W0_A1"                     : "Nej",
        "DailyDiary_91123_Q0_W0_A0"                     : "Angiv slutdato og -tidspunkt for denne hovedpine",
        "DailyDiary_91123_Q0_W0_A1"                     : "Slet denne hovedpine",
        "DailyDiary_91124_Q0_W0_A0"                     : "Jeg skal angive en anden dato og tidspunkt, hvor hovedpinen holdt op",
        "DailyDiary_91124_Q0_W0_A1"                     : "Jeg skal ikke indberette en anden hovedpine",
        "DailyDiary_91125_Q0_W0_A0"                     : "Angiv en anden dato og/eller tidspunkt",
        "DailyDiary_91125_Q0_W0_A1"                     : "Fortsæt; værdierne jeg indberettede er korrekte",
        "DailyDiary_91125_Q0_W0_A2"                     : "Denne hovedpineindberetning er en fejl. Jeg skal ikke indberette den",
        "DailyDiary_91126_Q0_W0_A0"                     : "Angiv en anden dato og/eller tidspunkt",
        "DailyDiary_91126_Q0_W0_A1"                     : "Fortsæt; værdierne jeg indberettede er korrekte",
        "DailyDiary_91129_Q0_W0_A0"                     : "Angiv en anden dato og/eller tidspunkt",
        "DailyDiary_91129_Q0_W0_A1"                     : "Fortsæt; værdierne jeg indberettede er korrekte",
        "DailyDiary_91130_Q0_W0_A0"                     : "Migræne",
        "DailyDiary_91130_Q0_W0_A1"                     : "Ikke-migrænerelateret hovedpine",
        "DailyDiary_91131_Q0_W0_A0"                     : "Mild ",
        "DailyDiary_91131_Q0_W0_A1"                     : "Moderat",
        "DailyDiary_91131_Q0_W0_A2"                     : "Stærk",
        "DailyDiary_91132_Q0_W0_A0"                     : "var begrænset til den ene side af hovedet",
        "DailyDiary_91132_Q0_W0_A1"                     : "var pulserende eller dunkende",
        "DailyDiary_91132_Q0_W0_A2"                     : "blev værre ved bevægelse eller aktivitet",
        "DailyDiary_91132_Q0_W0_A3"                     : "Ingen af de ovennævnte",
        "DailyDiary_91133_Q0_W0_A0"                     : "Kvalme",
        "DailyDiary_91133_Q0_W0_A1"                     : "Opkastning",
        "DailyDiary_91133_Q0_W0_A2"                     : "Lysfølsomhed",
        "DailyDiary_91133_Q0_W0_A3"                     : "Lydfølsomhed",
        "DailyDiary_91133_Q0_W0_A4"                     : "Ingen af de ovennævnte",
        "DailyDiary_91134_Q0_W0_A0"                     : "Mild",
        "DailyDiary_91134_Q0_W0_A1"                     : "Moderat",
        "DailyDiary_91134_Q0_W0_A2"                     : "Stærk",
        "DailyDiary_91135_Q0_W0_A0"                     : "Mild",
        "DailyDiary_91135_Q0_W0_A1"                     : "Moderat",
        "DailyDiary_91135_Q0_W0_A2"                     : "Stærk",
        "DailyDiary_91136_Q0_W0_A0"                     : "Mild",
        "DailyDiary_91136_Q0_W0_A1"                     : "Moderat",
        "DailyDiary_91136_Q0_W0_A2"                     : "Stærk",
        "DailyDiary_91137_Q0_W0_A0"                     : "Mild",
        "DailyDiary_91137_Q0_W0_A1"                     : "Moderat",
        "DailyDiary_91137_Q0_W0_A2"                     : "Stærk",
        "DailyDiary_91138_Q0_W0_A0"                     : "Ja",
        "DailyDiary_91138_Q0_W0_A1"                     : "Nej",
        "DailyDiary_91139_Q0_W0_A0"                     : "Mild",
        "DailyDiary_91139_Q0_W0_A1"                     : "Moderat",
        "DailyDiary_91139_Q0_W0_A2"                     : "Stærk",
        "DailyDiary_91140_Q0_W0_A0"                     : "Ja",
        "DailyDiary_91140_Q0_W0_A1"                     : "Nej",
        "DD408_Q0_TEXT"                                 : "Har du taget endnu en dosis medicin for at behandle denne hovedpine?",
        "DailyDiary_91141_Q0_W0_A0"                     : "Ja",
        "DailyDiary_91141_Q0_W0_A1"                     : "Nej",
        "DailyDiary_91143_Q0_W0_A0"                     : "Ja",
        "DailyDiary_91143_Q0_W0_A1"                     : "Nej",
        "DailyDiary_9116_Q0_W0_label"                   : " ",
        "DailyDiary_9116_Q0_W0_modalTitle"              : " ",
        "DailyDiary_9116_Q0_W0_okButtonText"            : "OK",
        "DailyDiary_9119_Q0_W0_modalTitle"              : " ",
        "DailyDiary_9119_Q0_W0_labels_label1"           : " ",
        "DailyDiary_9119_Q0_W0_CLICK_TO_MAKE_SELECTION" : " ",
        "DailyDiary_9119_Q0_W0_okButtonText"            : "OK",
        "DailyDiary_9119_Q0_W0spinnerInputOptions"      : "OK",
        "DailyDiary_91119_Q0_W0_label"                  : " ",
        "DailyDiary_91119_Q0_W0_modalTitle"             : " ",
        "DailyDiary_91119_Q0_W0_okButtonText"           : "OK",
        "DailyDiary_91122_Q0_W0_label"                  : " ",
        "DailyDiary_91122_Q0_W0_modalTitle"             : " ",
        "DailyDiary_91122_Q0_W0_okButtonText"           : "OK",
        "DailyDiary_91127_Q0_W0_label"                  : " ",
        "DailyDiary_91127_Q0_W0_modalTitle"             : " ",
        "DailyDiary_91127_Q0_W0_okButtonText"           : "OK",
        "DailyDiary_91128_Q0_W0_label"                  : " ",
        "DailyDiary_91128_Q0_W0_modalTitle"             : " ",
        "DailyDiary_91128_Q0_W0_okButtonText"           : "OK"
    }
}
