{
    "namespace" : "VisitConfirmation",
    "language"  : "en",
    "locale"    : "US",
    "direction" : "ltr",
    "resources" : {
        "DISPLAY_NAME"                               : "Visit Confirmation",
        "VisitConfirmation_10111_Q0_TEXT"            : "Please select the visit being completed today by the subject",
        "VisitConfirmation_10111_Q0_TITLE"           : "",
        "VisitConfirmation_10112_Q0_TEXT"            : "You selected {{{ getSelectedVisit }}}. The last scheduled visit the subject completed was {{{ getLastVisit }}}.<br><br>Are you sure you want to confirm {{{ getSelectedVisit }}}?",
        "VisitConfirmation_10112_Q0_TITLE"           : "",
        "VisitConfirmation_10111_Q0_W0_A0"           : "Week 188 Visit",
        "VisitConfirmation_10111_Q0_W0_A1"           : "Week 192 Visit",
        "VisitConfirmation_10111_Q0_W0_A2"           : "Week 212 Visit",
        "VisitConfirmation_10111_Q0_W0_A3"           : "Week 216 Visit",
        "VisitConfirmation_10111_Q0_W0_A4"           : "Week 236 Visit",
        "VisitConfirmation_10111_Q0_W0_A5"           : "Week 240 Visit",
        "VisitConfirmation_10111_Q0_W0_A6"           : "Week 260 Visit",
        "VisitConfirmation_10111_Q0_W0_A7"           : "Week 264 Visit",
        "VisitConfirmation_10111_Q0_W0_A8"           : "Week 268 / ET Visit",
        "VisitConfirmation_10112_Q0_W0_A0"           : "Yes",
        "VisitConfirmation_10112_Q0_W0_A1"           : "No",
        "VisitConfirmation_10113_Q0_TEXT"            : "The subject has recorded a headache that began on {{{ getOngoingHeadacheDate }}} and is currently ongoing. Has this headache ended?",
        "VisitConfirmation_10113_Q0_TITLE"           : "",
        "VisitConfirmation_10114_Q0_TEXT"            : "Enter the date and time the headache ended:",
        "VisitConfirmation_10114_Q0_TITLE"           : "",
        "VisitConfirmation_10115_Q0_TEXT"            : "Please remain in contact with the subject to monitor their currently ongoing headache as they enter the dormant period. Once you have confirmed the Headache End Date, please use the Ongoing Headache Resolution form in StudyWorks to submit the end date and time.",
        "VisitConfirmation_10115_Q0_TITLE"           : "",
        "VisitConfirmation_10114_Q0_W0_label"        : " ",
        "VisitConfirmation_10114_Q0_W0_modalTitle"   : " ",
        "VisitConfirmation_10114_Q0_W0_okButtonText" : " ",
        "VisitConfirmation_10113_Q0_W0_A0"           : "Yes",
        "VisitConfirmation_10113_Q0_W0_A1"           : "No, this headache is still ongoing"
    }
}
