{
    "namespace" : "PROMIS",
    "language"  : "en",
    "locale"    : "US",
    "direction" : "ltr",
    "resources" : {
        "DISPLAY_NAME"            : "PROMIS",
        "PROMIS_94010_1_Q1_TEXT"  : "In the past 7 days...<br>&nbsp;<br>How much did pain interfere with your enjoyment of life?",
        "PROMIS_94010_1_Q1_TITLE" : "",
        "PROMIS_94011_3_Q1_TEXT"  : "In the past 7 days...<br>&nbsp;<br>How much did pain interfere with your ability to concentrate?",
        "PROMIS_94011_3_Q1_TITLE" : "",
        "PROMIS_94012_3_Q1_TEXT"  : "In the past 7 days...<br>&nbsp;<br>How much did pain interfere with your day to day activities?",
        "PROMIS_94012_3_Q1_TITLE" : "",
        "PROMIS_94020_2_Q1_TEXT"  : "In the past 7 days...<br>&nbsp;<br>How much did pain interfere with your enjoyment of recreational activities?",
        "PROMIS_94020_2_Q1_TITLE" : "",
        "PROMIS_94030_5_Q1_TEXT"  : "In the past 7 days...<br>&nbsp;<br>How much did pain interfere with doing your tasks away from home (e.g., getting groceries, running errands)?",
        "PROMIS_94030_5_Q1_TITLE" : "",
        "PROMIS_94040_6_Q1_TEXT"  : "In the past 7 days...<br>&nbsp;<br>How often did pain keep you from socializing with others?",
        "PROMIS_94040_6_Q1_TITLE" : "",
        "PROMIS_94010_1_Q1_W0_A0" : "Not at all",
        "PROMIS_94010_1_Q1_W0_A1" : "A little bit",
        "PROMIS_94010_1_Q1_W0_A2" : "Somewhat",
        "PROMIS_94010_1_Q1_W0_A3" : "Quite a bit",
        "PROMIS_94010_1_Q1_W0_A4" : "Very much",
        "PROMIS_94011_3_Q1_W0_A0" : "Not at all",
        "PROMIS_94011_3_Q1_W0_A1" : "A little bit",
        "PROMIS_94011_3_Q1_W0_A2" : "Somewhat",
        "PROMIS_94011_3_Q1_W0_A3" : "Quite a bit",
        "PROMIS_94011_3_Q1_W0_A4" : "Very much",
        "PROMIS_94012_3_Q1_W0_A0" : "Not at all",
        "PROMIS_94012_3_Q1_W0_A1" : "A little bit",
        "PROMIS_94012_3_Q1_W0_A2" : "Somewhat",
        "PROMIS_94012_3_Q1_W0_A3" : "Quite a bit",
        "PROMIS_94012_3_Q1_W0_A4" : "Very much",
        "PROMIS_94020_2_Q1_W0_A0" : "Not at all",
        "PROMIS_94020_2_Q1_W0_A1" : "A little bit",
        "PROMIS_94020_2_Q1_W0_A2" : "Somewhat",
        "PROMIS_94020_2_Q1_W0_A3" : "Quite a bit",
        "PROMIS_94020_2_Q1_W0_A4" : "Very much",
        "PROMIS_94030_5_Q1_W0_A0" : "Not at all",
        "PROMIS_94030_5_Q1_W0_A1" : "A little bit",
        "PROMIS_94030_5_Q1_W0_A2" : "Somewhat",
        "PROMIS_94030_5_Q1_W0_A3" : "Quite a bit",
        "PROMIS_94030_5_Q1_W0_A4" : "Very much",
        "PROMIS_94040_6_Q1_W0_A0" : "Not at all",
        "PROMIS_94040_6_Q1_W0_A1" : "A little bit",
        "PROMIS_94040_6_Q1_W0_A2" : "Somewhat",
        "PROMIS_94040_6_Q1_W0_A3" : "Quite a bit",
        "PROMIS_94040_6_Q1_W0_A4" : "Very much"
    }
}
