{
    "namespace": "CORE",
    "language": "en",
    "locale": "US",
    "localized": "English (US)",
    "direction": "ltr",
    "resources": {
        "ACCEPT": "I Accept",
        "ACTIVE": "Active",
        "ACTIVATE_USER": "Activate User",
        "ACTIVATE_USER_CANCEL_CONFIRM": "Cancel Activation?",
        "ACTIVATE_USER_CANCEL_BODY": "If you cancel now, the site user will not be activated. Are you sure you want to cancel?",
        "ACTIVATE_USER_AFF": "By signing below, I hereby state that I am authorized to activate this site user.",
        "ACTIVATE_USER_CONFIRM_INFORMATION": "Please confirm that the information below belongs to the site user that you wish to activate.",
        "ADD_PATIENT": "Add New Patient",
        "ADD_USER": "Add User",
        "AFFIDAVIT": "Select OK and then Next when ready to save your responses.",
        "AFFIDAVIT_HELP": "Thank you. You have provided all required responses. You can check and change your responses by selecting Back.",
        "P_AFFIDAVIT_HEADER": "<div><strong>Site: {{{ getSiteCode }}}</strong><br /><strong>Participant Code: {{{ getPatientIdNumber }}}</strong></div>",
        "ALL_QUESTIONNAIRES_COMPLETED": "All Forms Completed",
        "APP_NAME": "ERT",
        "APPLICATION_HEADER": "{{{ appHeader }}}",
        "APP_NAME_LBL": "App Name",
        "APP_VERSION": "App Version",
        "ASSIGNED_TO": "Assigned To",
        "AVAILABLE": "Available",
        "BACK": "Back",
        "BACK_OUT_CONFIRM": "Are you sure you want to exit? Responses for this form will be lost.",
        "BLUETOOTH_REG_REFRESH_BUTTON": "Refresh List",
        "CANCEL": "Cancel",
        "CHECK_FOR_UPDATES": "Check For Updates",
        "CHOOSE_A_SITE": "Assign this device to a specific site.",
        "COMPLETED": "Completed",
        "CONFIRM_PASSWORD": "Confirm Password:",
        "CONFIRM_TEMP_PASS": "Confirm Temporary Password:",
        "CONTINUE": "Continue",
        "COUNTRY": "Country",
        "CUSTOM_ENVIRONMENT": "Custom Environment",
        "DEACTIVATE_PATIENT": "Deactivate Patient",
        "DEACTIVATE_USER": "Deactivate User",
        "DEACTIVATED": "Deactivated",
        "DEACTIVATE_USER_CANCEL_CONFIRM": "Cancel Deactivation?",
        "DEACTIVATE_USER_CANCEL_BODY": "If you cancel now, the site user will not be deactivated. Are you sure you want to cancel?",
        "DEACTIVATE_USER_AFF": "By signing below, I hereby state that I am authorized to deactivate this site user.",
        "DEACTIVATE_USER_SIG": "<strong>User to deactivate:</strong> <br />{{{ getSelectedUsername }}}<p><strong>Signature of:</strong> {{{ getActiveUserName }}}</p>",
        "DEACTIVATE_USER_CONFIRM_INFORMATION": "Please confirm that the information below belongs to the site user that you wish to deactivate.",
        "DECLINE": "I Decline",
        "DEVICE_ID": "Device ID",
        "DEVICE_REGISTRATION_FAILURE": "Failed to register the device.",
        "DEVICE_UUIID": "Device UUID",
        "BATTERY_LEVEL": "Battery level",
        "DEVICE_INFO": "Device Information",
        "DIARY_TIMEOUT": "This form has timed out.",
        "EDIT_MY_INFO": "Edit My Info",
        "EDIT_PATIENT": "Edit Patient",
        "EDIT_PATIENT_QUESTION_1_MAIN_TITLE": "<div class='question-title-large'>Patient Identification </div><div>ID range for this site:<br /><strong> {{{ patientIDRange }}}</strong></div><div class='edit-patient-id'>Patient ID:<br /><strong>{{{ getPatientIdNumber }}} ({{{getPatientInitials}}})</strong</div><br /><br />",
        "EDIT_PATIENT_QUESTION_1": "Patient ID:",
        "EDIT_PATIENT_QUESTION_1_EMPTY": "Please fill out the patient ID.",
        "EDIT_PATIENT_QUESTION_1_EMPTY_HEADER": "Patient ID",
        "EDIT_PATIENT_QUESTION_1_RANGE": "The Patient ID you have entered is not within the range of allowed IDs: {{{ patientIDRange }}}.  Please enter a valid Patient ID.",
        "EDIT_PATIENT_QUESTION_1_RANGE_HEADER": "Patient ID is out of range",
        "EDIT_PATIENT_QUESTION_1_UNIQUE": "Patient already exists.  Please enter another Patient ID.",
        "EDIT_PATIENT_QUESTION_1_UNIQUE_HEADER": "Patient ID is a duplicate",
        "EDIT_PATIENT_QUESTION_2": "Patient Initials:",
        "EDIT_PATIENT_QUESTION_2_EMPTY": "Please fill out the patient initials, with a minimum of 2 characters.",
        "EDIT_PATIENT_QUESTION_2_EMPTY_HEADER": "Patient Initials",
        "EDIT_PATIENT_QUESTION_3_TITLE": "<div class='question-title-large'>Select Language</div><div>Patient ID:<br /><strong>{{{ getPatientIdNumber }}} ({{{getPatientInitials}}})</strong</div><br /><br />",
        "EDIT_PATIENT_QUESTION_3": "Select the language for the patient",
        "EDIT_PATIENT_QUESTION_4_TITLE": "<div class='question-title-large'>Edit reason</div><br /><br />",
        "EDIT_PATIENT_QUESTION_4": "Select the reason for editing a patient",
        "EDIT_PATIENT_CANCEL_CONFIRM": "Cancel changes to Patient?",
        "EDIT_PATIENT_CANCEL_BODY": "If you cancel now, the patient settings will not be updated.  Are you sure you want to cancel?",
        "EDIT_PATIENT_NO_CHANGES_CONFIRM": "No Changes made to Patient",
        "EDIT_PATIENT_NO_CHANGES_BODY": "No changes have been made to this patient. Exit anyway?",
        "EDIT_PATIENT_REASON_0": "Correcting error by clinician",
        "EDIT_PATIENT_REASON_1": "Attribute data correction",
        "EDIT_PATIENT_REASON_2": "ID change",
        "EDIT_PATIENT_REASON_3": "Incorrect language selected",
        "EDIT_REASON": "Edit Reason:",
        "EDIT_SERVICE_URL": "Edit Service URL",
        "EDIT_SERVICE_URL_SUCCESS": "The service URL has been updated.",
        "EDIT_USER": "Edit User",
        "EDIT_USER_AFF": "By signing below, I hereby state that I am authorized to edit this site user. <p><strong>Signature of: </strong>{{{ getActiveUserName }}}</p>",
        "EDIT_USER_CANCEL_CONFIRM": "Cancel Editing User?",
        "EDIT_USER_CANCEL_BODY": "If you cancel now, the site user changes will not be committed. Are you sure you want to cancel?",
        "EDIT_USER_NO_CHANGES_HEADER": "No Changes Made to Site User",
        "EDIT_USER_NO_CHANGES_BODY": "No changes have been made to this site user. Exit anyway?",
        "EMAIL": "Email Address",
        "ENTER_PATIENT_INFO": "Enter patient information",
        "ENTER_UNLOCK_CODE": "Please enter the Unlock Code",
        "ENTER_USER_INFO": "Enter new site user information",
        "ENVIRONMENT": "Environment",
        "ERROR_CODE": "Error Code:",
        "ERROR_TITLE": "Error",
        "EULA": "END USER LICENSE",
        "EULA_TEXT": "<p><strong><span class=\"text-underline\">IMPORTANT</span>:  DO NOT CLICK ON THE ACCEPT BUTTON UNTIL YOU HAVE READ THIS AGREEMENT.  BY CLICKING ON THE ACCEPT BUTTON, YOU ACCEPT ALL OF THE TERMS OF THIS AGREEMENT.  IF YOU DO NOT ACCEPT ALL OF THE TERMS OF THIS AGREEMENT (1) DO NOT CLICK ON THE \"I ACCEPT\" BUTTON, (2) DISCONTINUE INSTALLATION AND LICENSING PROCESS BY CLICKING ON THE \"I DECLINE\" BUTTON.</strong></p><p>eResearchTechnology, Inc. (\"Licensor\") grants to you a nonexclusive, nontransferable right to use the eResearchTechnology, Inc. software embodied on this device (\"Software\") in connection with your participation in the clinical trial agreement: <strong>{{{ clinicalTrial }}}</strong>.  The eResearchTechnology, Inc. software is covered by issued patents and other patents pending.  This Agreement does not convey to you any ownership rights in any Software (or any copies thereof), but constitutes only a license to use the Software in accordance with all of the terms of this Agreement.  Title to the Software and all portions thereof, and all proprietary and intellectual property rights embodied therein, shall remain vested in Licensor at all times.</p><p>You agree not to, directly or indirectly, (i) reverse engineer, disassemble or decompile the Software; (ii) copy, distribute, manufacture, adapt, create derivative works of, translate, localize, port or otherwise modify Software; or (iii) remove or alter any copyright, trade secret or other legal notices contained on or in the Software.  YOU ACKNOWLEDGE AND AGREE THAT THE SOFTWARE MAY CONTAIN CODE THAT PREVENTS UNAUTHORIZED USE OF THE SOFTWARE.</p><br><p>IF YOU AGREE TO ALL OF THE FOREGOING, please select – <strong>I Accept</strong> –Clicking \"I Accept\" indicates your acceptance of the license terms.</p><p>IF YOU DO NOT AGREE TO ALL OF THE FOREGOING, or are not authorized to agree, select – <strong>I Decline</strong> – in which case, further access to the Software will be blocked.  If authorized, you may accept at another time.</p>",
        "FIRST_NAME": "First Name",
        "FORGOT_PASSWORD": "Forgot Password?",
        "FORM": "Form",
        "FORM_GATEWAY": "Form Gateway",
        "FORM_NAME": "Form Name",
        "FULL_NAME": "Full Name:",
        "GO_TO_VISITS": "Patient Visits",
        "HAND_DEVICE_SITE_TITLE": "Give Device to Site User",
        "HAND_DEVICE_SITE_BODY": "Please give the device to the site user.",
        "HELP": "Help",
        "HOME": "Home",
        "IN_PROGRESS": "In Progress",
        "INITIALS": "Initials",
        "INVALID_URL": "Please enter a valid URL.",
        "INVALID_PERMISSION": "Invalid Permission.",
        "INVALID_PASSWORD": "Invalid password.",
        "LANGUAGE": "Language:",
        "LAST_LOGIN": "Last Login",
        "LAST_NAME": "Last Name",
        "LAST_REFRESH_TIME": "Last Refresh Time",
        "LOCATION": "Location",
        "LOGIN": "Log in",
        "LOGIN_SCREEN": "Login",
        "LOGOUT": "Log out",
        "MANAGE_USERS": "Manage Site Users",
        "MARK_AS_COMPLETED": "Mark as Completed",
        "SITE_SIGNATURE": "Signature of: ",
        "SITE_REPORT_AFF": "I have entered, cross-checked, and hereby confirm the preceding data.<p><strong>Signature of: {{{ getActiveUserName }}}</strong></p>",
        "PATIENT_REPORT_AFF": "I have entered, cross-checked, and hereby confirm the preceding data.<p class={{{ getPatientInitials }}}><strong>Initials of: {{{ getActiveUserName }}}</strong></p>",
        "CLEAR_SIGNATURE": "Clear Signature",
        "MENU": "Menu",
        "MODE": "Mode",
        "NAME": "Name",
        "NEW_USER": "Add New User Diary",
        "FIRST_SITE_USER": "Add First Site User",
        "NEW_USER_CREATED": "The site user has been created.",
        "NEW_PATIENT_QUESTION_1_MAIN_TITLE": "<div class='question-title-large'>Enter the Patient Identification Information</div><div>ID range for this site:<br /><strong> {{{ patientIDRange }}}</strong></div><div><strong>Site: {{{ getSiteCode }}}</strong></div><div><strong>User: {{{ getUserName }}}</strong</div><br /><br />",
        "NEW_PATIENT_HELP_TEXT_1": "",
        "NEW_PATIENT_HELP_TEXT_2": "",
        "NEW_PATIENT_HELP_TEXT_3": "",
        "NEW_PATIENT_QUESTION_1_TITLE": "Patient ID",
        "NEW_PATIENT_QUESTION_1": "Patient ID:",
        "NEW_PATIENT_QUESTION_1_EMPTY": "Please fill out the patient ID.",
        "NEW_PATIENT_QUESTION_1_EMPTY_HEADER": "Patient ID",
        "NEW_PATIENT_QUESTION_1_RANGE": "The Patient ID you have entered is not within the range of allowed IDs: {{{ patientIDRange }}}.  Please enter a valid Patient ID.",
        "NEW_PATIENT_QUESTION_1_RANGE_HEADER": "Patient ID is out of range",
        "NEW_PATIENT_QUESTION_1_UNIQUE": "Patient already exists.  Please enter another Patient ID.",
        "NEW_PATIENT_QUESTION_1_UNIQUE_HEADER": "Patient ID is a duplicate",
        "NEW_PATIENT_QUESTION_2": "Patient Initials:",
        "NEW_PATIENT_QUESTION_2_EMPTY": "Please fill out the patient initials, with a minimum of 2 characters.",
        "NEW_PATIENT_QUESTION_2_EMPTY_HEADER": "Patient Initials",
        "NEW_PATIENT_QUESTION_3_TITLE": "<div class='question-title-large'>Select Language</div><div><strong>Site: {{{ getSiteCode }}}</strong></div><div><strong>User: {{{ getUserName }}}</strong</div><div><strong>Patient ID: {{{ getPatientID }}}</strong></div><br /><br />",
        "NEW_PATIENT_QUESTION_3": "Select the language for the patient",
        "NEW_PATIENT_CANCEL_CONFIRM": "Cancel Adding a Patient?",
        "NEW_PATIENT_CANCEL_BODY": "If you cancel, the patient will not be registered.  Are you sure you want to cancel?",
        "NEW_PATIENT_AFFIDAVIT_HEADER": "<div><strong>Site: {{{ getSiteCode }}}</strong><br /><strong>User: {{{ getUserName }}}</strong><br /><strong>Patient ID: {{{ getPatientID }}}</strong></div>",
        "NEXT": "Next",
        "NO_RESULTS_FOUND": "No results found.",
        "NOT_AVAILABLE": "Not Available",
        "OK": "OK",
        "ORDER": "Order",
        "PASSWORD": "Password:",
        "PATIENT": "Patient",
        "PATIENT_ID": "Patient ID:",
        "PATIENT_INITIALS": "Patient Initials:",
        "PATIENT_DELETED": "Unknown Patient",
        "PATIENT_DELETED_MSG": "Patient cannot be found.",
        "PATIENT_DELETED_SUBJECT_MSG": "Patient cannot be found. Please return the device to the appropriate site personnel.",
        "PENDING_TRANSMISSIONS": "Pending Transmissions",
        "PLEASE_WAIT": "Please wait",
        "PLEASE_CONFIRM": "Please confirm",
        "PLEASE_CONTACT": "Please contact ERT Support Center.",
        "PLEASE_TRY_OR_CONTACT_SUPPORT": "Please try again or contact ERT Support Center.",
    "QR_CODE_UNAVAILABLE": "Click patient to refresh QR.",
        "QR_MODAL_TITLE": "QR Code for: ",
        "REASON": "Reason:",
        "REPORTS_AND_FORMS": "Reports and Forms",
        "REPORTS_COMPLETED_MESSAGE": "You have completed all of your forms. Please return the device to the appropriate site personnel.",
        "REQUIRED_ANSWER": "Please complete the requested information.",
        "RESET_PIN": "Reset Patient PIN",
        "RESET_USER_PASSWORD": "Reset User Password",
        "ROLES": "Role:",
        "SAVE": "Save",
        "SEARCH": "Search",
        "SECURITY_QUESTION_0": "What is your mother's maiden name?",
        "SECURITY_QUESTION_1": "In what city were you born?",
        "SECURITY_QUESTION_2": "What is the name of your first pet?",
        "SECURITY_QUESTION_3": "What is your favorite sport?",
        "SECURITY_QUESTION_4": "In which year did you graduate?",
        "SECURITY_QUESTION_5": "What is the middle name of your oldest child?",
        "SECURITY_QUESTION_6": "What is the name of your favorite childhood friend?",
        "SECURITY_QUESTION_7": "What was the last name of your third grade teacher?",
        "SECURITY_QUESTION_8": "In what city or town was your first job?",
        "SECRET_ANSWER": "Security Answer:",
        "SECRET_QUESTION": "Security Question:",
        "SECRET_QUESTION_HELP_TEXT": "Select a security question from the list below. The answer is used to allow log in if you forget your Password.",
        "SECRET_QUESTION_ANSWER": "Security Question and Answer",
        "SELECT_LANGUAGE": "Please select a preferred language for the site.",
        "SET_TIMEZONE_MESSAGE": "Select Your Time Zone:",
        "SELECT_SITE_NUMBER": "Please select site number",
        "SERVICE_URL": "Service URL",
        "SETTINGS": "Settings",
        "SETUP_COMPLETE": "Setup Complete",
        "SETUP_COMPLETE_DESC": "The device is now set up and ready for shipment.  Please press OK then turn off the device on the next screen.",
        "SETUP_SITE_USER": "Set Up Site User",
        "SETUP_SITE_USER_LEGEND": "Please set up the site user for this device.",
        "SITE": "Site",
        "SITE_ASSESSMENTS": "Site Assessments",
        "SIGNATURE_DATA_LIMIT_EXCEEDED": "The signature box could not represent your signature exactly as drawn. Please sign with your initials instead.",
        "SITE_NUMBER": "Site Number",
        "SITE_ROLE": "Site User",
        "SITE_SELECTION": "Site Selection",
        "SKIP_FORM": "Skip Form",
        "SKIP_QUESTION": "Are you sure you want to skip responses on this screen?",
        "SKIP_TO_VISIT": "Skip to Visit",
        "SKIP_VISIT": "Skip Visit",
        "SKIP_VISITS": "Skip Visits",
        "SKIP_VISITS_QUESTION_1": "<div class='question-title-large'><strong>Reason</strong></div><br /><br /><div>Select a reason for skipping the visits:</div>",
        "SKIP_VISITS_REASON_0": "Visit Expired",
        "SKIP_VISITS_REASON_1": "Site error in administration",
        "SKIP_VISITS_REASON_2": "Subject missed clinical appointment.",
        "SKIP_VISITS_REASON_3": "Does Not Apply.",
        "SKIP_VISITS_REASON_4": "Visit is optional, not done.",
        "SKIP_VISITS_CANCEL_CONFIRM": "Cancel Skipping Visits?",
        "SKIP_VISITS_CANCEL_BODY": "If you cancel now, the visits will not be skipped. Are you sure you want to cancel?",
        "SKIPPED" : "Skipped",
        "SKIPPED_VISITS": "{{{ skippedVisits }}}",
        "START_FORM": "Start Form",
        "START_VISIT": "Start Visit",
        "STATUS": "Status",
        "STATUS_DATE": "Status Date",
        "STUDY": "Study",
        "STUDYWORKS_LOGIN": "StudyWorks Login",
        "SUBJECT_ID": "Patient ID",
        "SUBJECT_ROLE": "Patient",
        "SUBMIT": "Submit",
        "SUPPORT_TOOLS": "Support Tools",
        "SYNC": "Sync",
        "SYNC_USERS": "Sync Users",
        "SYNC_TO_DEVICE": "Sync Study to Device",
        "TEMPORARY_PASSWORD_MESSAGE": "Please give the temporary password to the new user. They will be asked to create a new password after they log in.",
        "TEMP_PASSWORD": "Temporary Password: ",
        "UNABLE_TO_GET_SITE_LIST": "Unable to get Site List",
        "UNLOCK_CODE": "Unlock Code",
        "UNLOCK_CODE_HELP": "The Unlock Code for your ERT Tablet can be obtained from StudyWorks in the 'ERT Unlock Codes' SmartReport. Please contact the ERT Support Center for additional assistance.",
        "USER": "User",
        "USER_ALREADY_EXISTS": "User Already Exists",
        "USER_EDITED": "The user has been updated.",
        "USER_TO_ACTIVATE": "<strong>User to activate:</strong> <br />{{{ getSelectedUsername }}}<p><strong>Signature of:</strong> {{{ getActiveUserName }}}</p>",
        "SUBJECT_ALREADY_EXISTS": "A Patient with ID {{{ getPatientIDForDuplicate }}} already exists",
        "TIME_CONFIRMATION_INSTRUCTIONS": "The device needs to confirm your local time. Please enter your date and time from a reliable source.",
        "TIME_ZONE_ERROR_HEADER": "Time Zone Error",
        "TIME_ZONE_ERROR_MSG": "Error occurred while obtaining Time Zone list. Please contact the ERT Support Center for additional assistance.",
        "TIME_ZONE_SET_ERROR_MSG": "Error occurred while setting Time Zone. Please contact the ERT Support Center for additional assistance.",
        "TIME_ZONE_SET_CONFIRM": "Are you sure you want to set the Time Zone to: <bdo dir='ltr'>{{{selectedTimeZone}}}</bdo>? <br/> The application may restart in order to apply the change.",
        "TIME_ZONE_SET_CONFIRM_NOCHANGE": "Are you sure you want to set the Time Zone to: <bdo dir='ltr'>{{{selectedTimeZone}}}</bdo>?",
        "TIME_ZONE_SET_HEADER": "Time Zone Set Confirmation",
        "TRAINER": "Trainer Mode",
        "TRAINER_EXIT": "Exit Trainer Mode",
        "TRAINER_EXIT_NOTIFICATION": "You are exiting the Trainer Mode",
        "TRAINER_HEADER": "(Trainer)",
        "USER_ROLE": "User Role",
        "USERNAME": "Username",
        "USER_NAME": "Username:",
        "VISIT": "Visit",
        "VISIT_COMPLETED_MESSAGE": "There are no other forms for this visit.  This visit is now complete.",
        "VISIT_INACTIVE_HEADER": "Inactive visit.",
        "VISIT_INACTIVE_MESSAGE": "This visit is no longer active.",
        "VISIT_INACTIVE_MESSAGE_SUBJECT": "This visit is no longer active. Please return the device to the appropriate site personnel.",
        "VISIT_EXPIRED_HEADER": "Expired visit.",
        "VISIT_EXPIRED_MESSAGE": "This visit is no longer available because it has expired.",
        "VISIT_EXPIRED_MESSAGE_SUBJECT": "This visit is no longer available because it has expired. Please return the device to the appropriate site personnel.",
        "VISITS": "Visits",
        "VISITS_SKIPPED": "Visits Skipped:",
        "VISIT_NAME": "Visit Name",
        "WELCOME": "Welcome",
        "AF-ZA": "Afrikaans",
        "SQ-AL": "Albanian",
        "AR-EG": "Arabic",
        "BE-BY": "Belarusian",
        "BG-BG": "Bulgarian",
        "BN-IN": "Bengali",
        "BS-BA": "Bosnian",
        "CA-ES": "Catalan",
        "CS-CZ": "Czech",
        "DA-DK": "Danish",
        "DE-DE": "German (Germany)",
        "DE-AT": "German (Austria)",
        "EL-GR": "Greek",
        "EN-GB": "English (UK)",
        "EN-US": "English (US)",
        "ES-ES": "Spanish (Spain)",
        "ES-US": "Spanish (US)",
        "ES-PY": "Spanish (Universal)",
        "ET-EE": "Estonian",
        "FI-FI": "Finnish",
        "FR-CA": "French (Canada)",
        "FR-FR": "French (France)",
        "GD-IE": "Gaelic",
        "GU-IN": "Gujarati",
        "HE-IL": "Hebrew",
        "HI-IN": "Hindi",
        "HR-HR": "Croatian",
        "HU-HU": "Hungarian",
        "IT-IT": "Italian",
        "JA-JP": "Japanese",
        "KA-GE": "Georgian",
        "KN-IN": "Kannada",
        "KO-KR": "Korean",
        "LV-LV": "Latvian",
        "LT-LT": "Lithuanian",
        "ML-IN": "Malayalam",
        "MR-IN": "Marathi",
        "MS-MY": "Malay",
        "NB-NO": "Norwegian",
        "NL-BE": "Dutch (Belgium)",
        "NL-NL": "Dutch (Netherlands)",
        "PA-IN": "Punjabi",
        "PL-PL": "Polish",
        "PT-BR": "Portuguese (Brazil)",
        "PT-PT": "Portuguese (Portugal)",
        "RO-RO": "Romanian",
        "RU-RU": "Russian",
        "SL-SL": "Slovenian",
        "SK-SK": "Slovak",
        "SR-RS": "Serbian (Latin)",
        "SR-SP": "Serbian (Cyrillic)",
        "ST-ZA": "Sotho",
        "SV-SE": "Swedish",
        "TA-IN": "Tamil",
        "TE-IN": "Telugu",
        "TH-TH": "Thai",
        "TL-PH": "Tagalog",
        "TN-ZA": "Tswana",
        "TR-TR": "Turkish",
        "UK-UA": "Ukrainian",
        "UR-IN": "Urdu",
        "VI-VN": "Vietnamese",
        "XH-ZA": "Xhosa",
        "ZH-CN": "Chinese (China)",
        "ZH-TW": "Chinese (Taiwan)",
        "ZU-ZU": "Zulu",
        "HAND_DEVICE_SUBJECT_BODY": "The next form must be completed by the {{{ patientOrRole }}}. Please log out, then give the device to the {{{ patientOrRole }}}.",
        "HAND_DEVICE_SUBJECT_TITLE": "Starting Form {{{ formTitle }}}",
        "SKIP_VISIT_TITLE": "Skip Visit(s)?",
        "SKIP_VISIT_TEXT": "If you continue, the following visits will be skipped:<br/> {{{ skippedVisits }}} Continue and skip these visits now?",
        "YES": "Yes",
        "NO": "No",
        "TIME_LBL": "Time:",
        "SET_TIME": "Set Time",
        "DATE_LBL": "Date:",
        "CREATE_PERMANENT_PASSWORD_TITLE": "Create Permanent Password",
        "USER_ID": "User ID:",
        "PHASE": "Phase",
        "LAST_VISIT": "Last Completed Visit",
        "CONNECTION_REQUIRED": "An Internet connection is required.",
        "RETRY": "Try Again",
        "UPDATE_FAILURE": "Update Not Complete",
        "UPDATE_SUCCESS": "Update Successful",
        "CANCEL_PERMANENT_PASSWORD_TITLE": "Cancel Permanent Password Creation?",
        "CANCEL_PERMANENT_PASSWORD_TEXT": "If you cancel now, your permanent password will not be created. You will need a permanent password to begin using ERT. Are you sure you want to cancel?",
        "ACCOUNT_CONFIGURED_TITLE": "Account setup completed",
        "ACCOUNT_CONFIGURED_TEXT": "You have now completed setting up your account, you may now continue using the eCOA system.",
        "LOGGED_IN_AS": "Logged in as",
        "EDIT_PATIENT_AFFIDAVIT_HEADER": "<p class='question-title-large'>Signature</p><br />",
        "EDIT_PATIENT_AFF": "By signing below, I hereby state that I am authorized to edit this patient.<br /><br />Patient ID: {{{ getPatientIdNumber }}}<br /><br />Signature of: {{{ getActiveUserName }}}",
        "PASSWORD_MISMATCH": "The password confirmation does not match the password",
        "FIRST_USER_AFFIDAVIT": "By signing below, I hereby state that I am the principal investigator or authorized delegate to create accounts on this system.<br /><br /><strong>Signature of: {{{ getFirstUsername }}}</strong>",
		"INCOMPLETE": "Incomplete",
        "INVALID_ENTRY": "Invalid Entry",
        "PLEASE_ANSWER_SQ": "Please answer your security question:",
        "FORGOT_SECRET_ANSWER": "Forgot security answer?",
        "CONTACT_STUDY_COORDINATOR": "Contact Study Coordinator",
        "ENTER_NEW_PASSWORD": "New Password:",
        "CONTACT_UNLOCK_CODE": "Please contact your Study Coordinator for the Unlock Code for today:",
        "CURRENT_DATE": "{{{ currentDate }}}",
        "TEMPORARY_UNLOCK_CODE": "Enter Unlock Code given by Study Coordinator.",
        "RESET_SECRET_QUESTION": "Reset Security Question",
        "SECRET_QUESTION_CHANGE_SUCCESS": "You have successfully updated your password and security question.",
        "RESET_PASSWORD": "Reset Password",
        "ANSWER_ATTEMPT_EXCEEDED": "You have entered an incorrect answer too many times or clicked the forgot security answer link.",
        "PASSWORD_ATTEMPT_EXCEEDED": "You have entered an incorrect password too many times or clicked on the forgot password link.",
        "PASSWORD_CHANGE_SUCCESS": "You have successfully updated your password.",
        "CHANGE_PASSWORD": "Change Password",
        "CHANGE_SECRET_QUESTION": "Change Security Question",
        "SYNC_COMPLETE": "Sync Complete",
        "INCORRECT_ANSWER": "Incorrect answer",
        "INCORRECT_UNLOCK_CODE": "Incorrect Unlock Code",
        "PASSWORD_INVALID": "Incorrect Password",
        "SUBJECT": "Patient",
        "PATIENT_ADDED": "Patient Added",
        "SITE_ADMINISTRATOR": "Site Administrator",
        "LOW_BATTERY": "Warning: The battery level is low. Please plug the device in to recharge.",
        "CRITICAL_BATTERY": "Warning: The battery level is critically low. Please plug the device in to recharge, or it will shut down.",
        "TIME_CONFIRMATION_HEADER": "Confirm Date/Time",
        "IMAGE_FOLDER": "{{{ imageFolder }}}",
        "TIMESLIP_ERROR": "The time or date on your device is incorrect. Please move to a location with internet connectivity and retry. If you continue to have trouble, contact ERT Customer Care.",
        "SUPPORT": "Customer Support",
        "SUPPORT_MESSAGE": "Users in the United States can reach the ERT Support Center at 800-748-5669. International users, please select the closest country below:",
        "SUPPORT_DROPDOWN": "Select your country",
        "SUPPORT_NAME_ARGENTINA": "Argentina",
        "SUPPORT_NUMBER_ARGENTINA": "<bdo dir='ltr'>0800 444 0962</bdo>",
        "SUPPORT_NAME_ARMENIA": "Armenia",
        "SUPPORT_NUMBER_ARMENIA": "<bdo dir='ltr'>+1 617 681 6306</bdo>",
        "SUPPORT_NAME_AUSTRALIA": "Australia",
        "SUPPORT_NUMBER_AUSTRALIA": "<bdo dir='ltr'>1 800 800 051</bdo>",
        "SUPPORT_NAME_AUSTRIA": "Austria",
        "SUPPORT_NUMBER_AUSTRIA": "<bdo dir='ltr'>0800 100 405</bdo>",
        "SUPPORT_NAME_BELARUS": "Belarus",
        "SUPPORT_NUMBER_BELARUS": "<bdo dir='ltr'>8 820 0321 0036</bdo>",
        "SUPPORT_NAME_BELGIUM": "Belgium",
        "SUPPORT_NUMBER_BELGIUM_1": "(English) : <bdo dir='ltr'>0800 58 016</bdo>",
        "SUPPORT_NUMBER_BELGIUM_2": "(French) : <bdo dir='ltr'>0800 71 076</bdo>",
        "SUPPORT_NUMBER_BELGIUM_3": "(German) : <bdo dir='ltr'>0800 71 113</bdo>",
        "SUPPORT_NAME_BRAZIL": "Brazil",
        "SUPPORT_NUMBER_BRAZIL": "<bdo dir='ltr'>0800 891 5909</bdo>",
        "SUPPORT_NAME_BOSNIA": "Bosnia",
        "SUPPORT_NUMBER_BOSNIA": "<bdo dir='ltr'>+1 617 681 6306</bdo>",
        "SUPPORT_NAME_BULGARIA": "Bulgaria",
        "SUPPORT_NUMBER_BULGARIA": "<bdo dir='ltr'>00800 0010</bdo>, then <bdo dir='ltr'>866 245 4931</bdo>",
        "SUPPORT_NAME_CANADA": "Canada",
        "SUPPORT_NUMBER_CANADA": "<bdo dir='ltr'>1 800 748 5669</bdo>",
        "SUPPORT_NAME_CHILE": "Chile",
        "SUPPORT_NUMBER_CHILE": "<bdo dir='ltr'>123 0020 3408</bdo>",
        "SUPPORT_NAME_CHINA": "China",
        "SUPPORT_NUMBER_CHINA_1": "NetCom (North) : <bdo dir='ltr'>1 0800 74 40 164</bdo>",
        "SUPPORT_NUMBER_CHINA_2": "Telecom (South) : <bdo dir='ltr'>1 0800 44 00 158</bdo>",
        "SUPPORT_NAME_COLOMBIA": "Colombia",
        "SUPPORT_NUMBER_COLOMBIA": "<bdo dir='ltr'>01 800 911 0010</bdo>, then <bdo dir='ltr'>866 310 3707</bdo>",
        "SUPPORT_NAME_COSTA_RICA": "Costa Rica",
        "SUPPORT_NUMBER_COSTA_RICA": "<bdo dir='ltr'>0800 013 1210</bdo>",
        "SUPPORT_NAME_CROATIA": "Croatia",
        "SUPPORT_NUMBER_CROATIA": "<bdo dir='ltr'>0800 222 953</bdo>",
        "SUPPORT_NAME_CZECH_REPUBLIC": "Czech Republic",
        "SUPPORT_NUMBER_CZECH_REPUBLIC": "<bdo dir='ltr'>800 142 150</bdo>",
        "SUPPORT_NAME_DENMARK": "Denmark",
        "SUPPORT_NUMBER_DENMARK": "<bdo dir='ltr'>80 60 00 09</bdo>",
        "SUPPORT_NAME_EGYPT": "Egypt",
        "SUPPORT_NUMBER_EGYPT": "<bdo dir='ltr'>02 510 0200</bdo>, then <bdo dir='ltr'>866 310 3707</bdo>",
        "SUPPORT_NAME_EL_SALVADOR": "El Salvador",
        "SUPPORT_NUMBER_EL_SALVADOR": "<bdo dir='ltr'>+1 617 681 6306</bdo>",
        "SUPPORT_NAME_ESTONIA": "Estonia",
        "SUPPORT_NUMBER_ESTONIA": "<bdo dir='ltr'>800 00 44 154</bdo>",
        "SUPPORT_NAME_FINLAND": "Finland",
        "SUPPORT_NUMBER_FINLAND": "<bdo dir='ltr'>0800 11 6366</bdo>",
        "SUPPORT_NAME_FRANCE": "France",
        "SUPPORT_NUMBER_FRANCE": "<bdo dir='ltr'>0800 10 19 79</bdo>",
        "SUPPORT_NAME_GERMANY": "Germany",
        "SUPPORT_NUMBER_GERMANY": "<bdo dir='ltr'>0800 101 28 21</bdo>",
        "SUPPORT_NAME_GREECE": "Greece",
        "SUPPORT_NUMBER_GREECE": "<bdo dir='ltr'>00 800 1311</bdo>, then <bdo dir='ltr'>866 310 3707</bdo>",
        "SUPPORT_NAME_GUATEMALA": "Guatemala",
        "SUPPORT_NUMBER_GUATEMALA": "<bdo dir='ltr'>1 800 624 0079</bdo>",
        "SUPPORT_NAME_HONG_KONG": "Hong Kong",
        "SUPPORT_NUMBER_HONG_KONG": "<bdo dir='ltr'>3002 1665</bdo>",
        "SUPPORT_NAME_HUNGARY": "Hungary",
        "SUPPORT_NUMBER_HUNGARY": "<bdo dir='ltr'>06 800 14 571</bdo>",
        "SUPPORT_NAME_ICELAND": "Iceland",
        "SUPPORT_NUMBER_ICELAND": "<bdo dir='ltr'>800 8544</bdo>",
        "SUPPORT_NAME_INDIA": "India",
        "SUPPORT_NUMBER_INDIA": "<bdo dir='ltr'>000 800 440 1125</bdo>",
        "SUPPORT_NAME_INDONESIA": "Indonesia",
        "SUPPORT_NUMBER_INDONESIA": "<bdo dir='ltr'>008 800 330 334</bdo>",
        "SUPPORT_NAME_IRELAND": "Ireland",
        "SUPPORT_NUMBER_IRELAND": "<bdo dir='ltr'>1 800 946 700</bdo>",
        "SUPPORT_NAME_ISRAEL": "Israel",
        "SUPPORT_NUMBER_ISRAEL": "<bdo dir='ltr'>1 809 470 062</bdo>",
        "SUPPORT_NAME_ITALY": "Italy",
        "SUPPORT_NUMBER_ITALY": "<bdo dir='ltr'>800 90 56 37</bdo>",
        "SUPPORT_NAME_JAPAN": "Japan",
        "SUPPORT_NUMBER_JAPAN": "Please refer to your ePRO Study Information Guide for your study's toll-free number",
        "SUPPORT_NAME_LATVIA": "Latvia",
        "SUPPORT_NUMBER_LATVIA": "<bdo dir='ltr'>8000 2151</bdo>",
        "SUPPORT_NAME_LEBANON": "Lebanon",
        "SUPPORT_NUMBER_LEBANON": "<bdo dir='ltr'>01-426-801</bdo> then <bdo dir='ltr'>866 310 3707</bdo>",
        "SUPPORT_NAME_LITHUANIA": "Lithuania",
        "SUPPORT_NUMBER_LITHUANIA": "<bdo dir='ltr'>8800 30207</bdo>",
        "SUPPORT_NAME_MALAYSIA": "Malaysia",
        "SUPPORT_NUMBER_MALAYSIA": "<bdo dir='ltr'>1800 80 59 71</bdo>",
        "SUPPORT_NAME_MEXICO": "Mexico",
        "SUPPORT_NUMBER_MEXICO_1": "(English) : <bdo dir='ltr'>001 800 748 5669</bdo> ",
        "SUPPORT_NUMBER_MEXICO_2": "(Spanish) : <bdo dir='ltr'>001 855 631 6952</bdo>",
        "SUPPORT_NAME_MOLDOVA": "Moldova",
        "SUPPORT_NUMBER_MOLDOVA": "<bdo dir='ltr'>617 681 6306</bdo>",
        "SUPPORT_NAME_NETHERLANDS": "Netherlands",
        "SUPPORT_NUMBER_NETHERLANDS": "<bdo dir='ltr'>0800 023 1389</bdo>",
        "SUPPORT_NAME_NEW_ZEALAND": "New Zealand",
        "SUPPORT_NUMBER_NEW_ZEALAND": "<bdo dir='ltr'>0800 110 178</bdo>",
        "SUPPORT_NAME_NORWAY": "Norway",
        "SUPPORT_NUMBER_NORWAY": "<bdo dir='ltr'>800 62 051</bdo>",
        "SUPPORT_NAME_PAKISTAN": "Pakistan",
        "SUPPORT_NUMBER_PAKISTAN": "<bdo dir='ltr'>00 800 0100</bdo>, then <bdo dir='ltr'>866 237 9767</bdo>",
        "SUPPORT_NAME_PANAMA": "Panama",
        "SUPPORT_NUMBER_PANAMA": "<bdo dir='ltr'>001 800 201 3095</bdo>",
        "SUPPORT_NAME_PERU": "Peru",
        "SUPPORT_NUMBER_PERU": "<bdo dir='ltr'>0800 5 0974</bdo>",
        "SUPPORT_NAME_PHILIPPINES": "Philippines",
        "SUPPORT_NUMBER_PHILIPPINES": "<bdo dir='ltr'>1 800 1116 0651</bdo>",
        "SUPPORT_NAME_POLAND": "Poland",
        "SUPPORT_NUMBER_POLAND": "<bdo dir='ltr'>00800 331 1262</bdo>",
        "SUPPORT_NAME_PORTUGAL": "Portugal",
        "SUPPORT_NUMBER_PORTUGAL": "<bdo dir='ltr'>800 206 172</bdo>",
        "SUPPORT_NAME_PUERTO_RICO": "Puerto Rico (US Territory)",
        "SUPPORT_NUMBER_PUERTO_RICO": "<bdo dir='ltr'>1 800 748 5669</bdo>",
        "SUPPORT_NAME_ROMANIA": "Romania",
        "SUPPORT_NUMBER_ROMANIA": "<bdo dir='ltr'>0800 894492</bdo>",
        "SUPPORT_NAME_RUSSIA": "Russia",
        "SUPPORT_NUMBER_RUSSIA_1": "(Primary - Toll Free) : <bdo dir='ltr'>8 10 800 249 13011</bdo>",
        "SUPPORT_NUMBER_RUSSIA_2": "(Within Moscow) : <bdo dir='ltr'>363-2400</bdo> <br> then <bdo dir='ltr'>866 310 3707</bdo>",
        "SUPPORT_NUMBER_RUSSIA_3": "(Outside Moscow) : <bdo dir='ltr'>8^(495) 363-2400</bdo> <br> then <bdo dir='ltr'>866 310 3707</bdo>",
        "SUPPORT_NUMBER_RUSSIA_4": "(Within St. Petersburg) : <bdo dir='ltr'>363-2400</bdo> <br> then <bdo dir='ltr'>866 310 3707</bdo>",
        "SUPPORT_NUMBER_RUSSIA_5": "(Outside St. Petersburg) : <bdo dir='ltr'>8^(495) 363-2400</bdo> <br> then <bdo dir='ltr'>866 310 3707</bdo>",
        "SUPPORT_NAME_SAUDI_ARABIA": "Saudi Arabia",
        "SUPPORT_NUMBER_SAUDI_ARABIA": "<bdo dir='ltr'>+1 617 681 6306</bdo>",
        "SUPPORT_NAME_SERBIA": "Serbia",
        "SUPPORT_NUMBER_SERBIA": "<bdo dir='ltr'>+1 617 973 1739</bdo>",
        "SUPPORT_NAME_SINGAPORE": "Singapore",
        "SUPPORT_NUMBER_SINGAPORE": "<bdo dir='ltr'>800 616 30 03</bdo>",
        "SUPPORT_NAME_SLOVAKIA": "Slovakia",
        "SUPPORT_NUMBER_SLOVAKIA": "<bdo dir='ltr'>0800 0044 65</bdo>",
        "SUPPORT_NAME_SLOVENIA": "Slovenia",
        "SUPPORT_NUMBER_SLOVENIA": "<bdo dir='ltr'>+1 617 681 6306</bdo>",
        "SUPPORT_NAME_SOUTH_AFRICA": "South Africa",
        "SUPPORT_NUMBER_SOUTH_AFRICA": "<bdo dir='ltr'>0800 99 5853</bdo>",
        "SUPPORT_NAME_SOUTH_KOREA": "South Korea",
        "SUPPORT_NUMBER_SOUTH_KOREA": "<bdo dir='ltr'>00308 33 00 08</bdo>",
        "SUPPORT_NAME_SPAIN": "Spain",
        "SUPPORT_NUMBER_SPAIN": "<bdo dir='ltr'>900 90 2541</bdo>",
        "SUPPORT_NAME_SWEDEN": "Sweden",
        "SUPPORT_NUMBER_SWEDEN": "<bdo dir='ltr'>020 120 99 69</bdo>",
        "SUPPORT_NAME_SWITZERLAND": "Switzerland",
        "SUPPORT_NUMBER_SWITZERLAND_1": "(English) : <bdo dir='ltr'>0800 199 325</bdo>",
        "SUPPORT_NUMBER_SWITZERLAND_2": "(French) : <bdo dir='ltr'>0800 891 183</bdo>",
        "SUPPORT_NUMBER_SWITZERLAND_3": "(German) : <bdo dir='ltr'>0800 891 025</bdo>",
        "SUPPORT_NAME_TAIWAN": "Taiwan",
        "SUPPORT_NUMBER_TAIWAN": "<bdo dir='ltr'>00801 33 33 42</bdo>",
        "SUPPORT_NAME_THAILAND": "Thailand",
        "SUPPORT_NUMBER_THAILAND": "<bdo dir='ltr'>1 800 33 140 353</bdo>",
        "SUPPORT_NAME_TUNISIA": "Tunisia",
        "SUPPORT_NUMBER_TUNISIA": "<bdo dir='ltr'>+1 617 681 6306</bdo>",
        "SUPPORT_NAME_TURKEY": "Turkey",
        "SUPPORT_NUMBER_TURKEY": "<bdo dir='ltr'>00 800 151 1335</bdo>",
        "SUPPORT_NAME_UKRAINE": "Ukraine",
        "SUPPORT_NUMBER_UKRAINE": "<bdo dir='ltr'>0^00 11</bdo>, then <bdo dir='ltr'>866 245 4931</bdo>",
        "SUPPORT_NAME_UAE": "United Arab Emirates",
        "SUPPORT_NUMBER_UAE": "<bdo dir='ltr'>8000-021</bdo>, then <bdo dir='ltr'>866 310 3707</bdo>",
        "SUPPORT_NAME_UK": "United Kingdom",
        "SUPPORT_NUMBER_UK": "<bdo dir='ltr'>0800 015 0408</bdo>",
        "SUPPORT_NAME_US": "United States",
        "SUPPORT_NUMBER_US_1": "(Main) : <bdo dir='ltr'>1 800 748 5669</bdo>",
        "SUPPORT_NUMBER_US_2": "(Backup) : <bdo dir='ltr'>1 877 748 5669</bdo>",
        "SUPPORT_NAME_VENEZUELA": "Venezuela",
        "SUPPORT_NUMBER_VENEZUELA_1": "(English) : <bdo dir='ltr'>0 800 552 6288</bdo> <br> then <bdo dir='ltr'>866 310 3707</bdo> ",
        "SUPPORT_NUMBER_VENEZUELA_2": "(Spanish) : <bdo dir='ltr'>0 800 100 3063</bdo> ",
        "STUDY_VERSION": "Study Version:",
        "STUDY_URL": "Study URL:",
        "DEVICE_SERIAL_NUMBER": "Device Serial Number",
        "PROTOCOL": "Protocol:",
        "SPONSOR": "Sponsor:",
        "STORED_REPORTS": "Stored Forms:",
        "CORE_PRODUCT_VERSION_LABEL": "Product Version:",
        "ABOUT": "About",
        "SET_TIMEZONE": "Set Time Zone",
        "NONEXISTENT_USER": "Attempted to update a nonexistent user.",
        "SCREENING" : "Screening",
        "TREATMENT" : "Treatment",
        "RANDOMIZATION" : "Randomization",
        "FOLLOWUP" : "Follow-up",
        "TERMINATION" : "Termination",
        "MODAL_OK_TEXT": "OK",
        "BROWSER_LOAD_ERROR": "Page Not Found. Please check your internet connection and try again.",
        "NO_USER_OF_ROLE": "No user with that role found.",
        "START_VISIT_OUTSIDE_WINDOW_MSG" : "Enter {{{ getVisitName }}} outside the configured time window:<br /> {{{ startDate }}} - {{{ endDate }}}",
		"START_VISIT_HARD_STOP_MSG" : "You are unable to enter {{{ getVisitName }}} outside the configured time window:<br /> {{{ startDate }}} - {{{ endDate }}}",
		"USER_NAME_INVALID_CHARACTERS" : "Please do not use special characters",
		"ERROR_PATIENT_SAVE" : "Error occurred while adding the new patient",
		"PASSWORD_CHANGE_FAILED" : "A different device has been activated for collecting your study data. Please change your password on that device.",
		"ERROR" : "Error.  Please contact ERT Support Center.",
		"ERROR_AFTER_ACTIVATION_SUCCESSFUL" : "An error has occurred. You will need to enter your setup code and password.",
		"CONNECTION_TIMEOUT" : "Connection Timed Out.",
		"UPDATE_FAILED" : "The ERT update did not complete. Please make sure this device is connected to the Internet and try again."
    },
    "dates": {
        "setDateButtonLabel": "Set Date",
        "setTimeButtonLabel": "OK",
        "setDurationButtonLabel": "Set Duration",
        "calTodayButtonLabel": "Jump to Today",
        "titleDateDialogLabel": "Set Date",
        "titleTimeDialogLabel": "Set Time",
        "daysOfWeek": [
            "Sunday",
            "Monday",
            "Tuesday",
            "Wednesday",
            "Thursday",
            "Friday",
            "Saturday"
        ],
        "daysOfWeekShort": [
            "Su",
            "Mo",
            "Tu",
            "We",
            "Th",
            "Fr",
            "Sa"
        ],
        "monthsOfYear": [
            "January",
            "February",
            "March",
            "April",
            "May",
            "June",
            "July",
            "August",
            "September",
            "October",
            "November",
            "December"
        ],
        "monthsOfYearShort": [
            "Jan",
            "Feb",
            "Mar",
            "Apr",
            "May",
            "Jun",
            "Jul",
            "Aug",
            "Sep",
            "Oct",
            "Nov",
            "Dec"
        ],
        "durationLabel": [
            "Days",
            "Hours",
            "Minutes",
            "Seconds"
        ],
        "durationDays": [
            "Day",
            "Days"
        ],
        "tooltip": "Open Date Picker",
        "nextMonth": "Next Month",
        "prevMonth": "Previous Month",
        "clearButton": "Clear",
        "meridiem": [
            "AM",
            "PM"
        ]
    }
}
